Project Name,Package Name,Type Name,Testability Smell,Cause of the Smell
tajo,org.apache.tajo.org.objectweb.asm,ClassWriter,Global State,The tool detected the smell in this class because the class declares global variables. The detected global variables are: COMPUTE_MAXS; COMPUTE_FRAMES
tajo,org.apache.tajo.org.objectweb.asm,ClassWriter,Excessive Dependency,The tool detected the smell in this class because the class depends on too many dependencies. The total number of dependencies is: 13
tajo,org.apache.tajo.org.objectweb.asm,ClassReader,Global State,The tool detected the smell in this class because the class declares global variables. The detected global variables are: SKIP_CODE; SKIP_DEBUG; SKIP_FRAMES; EXPAND_FRAMES
tajo,org.apache.tajo.org.objectweb.asm,ClassReader,Excessive Dependency,The tool detected the smell in this class because the class depends on too many dependencies. The total number of dependencies is: 14
tajo,org.apache.tajo.org.objectweb.asm,MethodWriter,Excessive Dependency,The tool detected the smell in this class because the class depends on too many dependencies. The total number of dependencies is: 14
tajo,org.apache.tajo.org.objectweb.asm,Type,Global State,The tool detected the smell in this class because the class declares global variables. The detected global variables are: VOID; BOOLEAN; CHAR; BYTE; SHORT; INT; FLOAT; LONG; DOUBLE; ARRAY; OBJECT; METHOD; VOID_TYPE; BOOLEAN_TYPE; CHAR_TYPE; BYTE_TYPE; SHORT_TYPE; INT_TYPE; FLOAT_TYPE; LONG_TYPE; DOUBLE_TYPE
tajo,org.apache.tajo.org.objectweb.asm,Type,Law of Demeter violation,The tool detected the smell in this method (getClassName) because the method voilates the law of Demeter. The long chain of method invocations is : org.apache.tajo.org.objectweb.asm.Type.getElementType; org.apache.tajo.org.objectweb.asm.Type.getClassName
tajo,org.apache.tajo.org.objectweb.asm.commons,InstructionAdapter,Global State,The tool detected the smell in this class because the class declares global variables. The detected global variables are: OBJECT_TYPE
tajo,org.apache.tajo.org.objectweb.asm.commons,GeneratorAdapter,Global State,The tool detected the smell in this class because the class declares global variables. The detected global variables are: ADD; SUB; MUL; DIV; REM; NEG; SHL; SHR; USHR; AND; OR; XOR; EQ; NE; LT; GE; GT; LE
tajo,org.apache.tajo.org.objectweb.asm.commons,GeneratorAdapter,Excessive Dependency,The tool detected the smell in this class because the class depends on too many dependencies. The total number of dependencies is: 8
tajo,org.apache.tajo.org.objectweb.asm.commons,JSRInlinerAdapter,Excessive Dependency,The tool detected the smell in this class because the class depends on too many dependencies. The total number of dependencies is: 11
tajo,org.apache.tajo.org.objectweb.asm.tree,MethodNode,Excessive Dependency,The tool detected the smell in this class because the class depends on too many dependencies. The total number of dependencies is: 11
tajo,org.apache.tajo.org.objectweb.asm.tree,AbstractInsnNode,Global State,The tool detected the smell in this class because the class declares global variables. The detected global variables are: INSN; INT_INSN; VAR_INSN; TYPE_INSN; FIELD_INSN; METHOD_INSN; INVOKE_DYNAMIC_INSN; JUMP_INSN; LABEL; LDC_INSN; IINC_INSN; TABLESWITCH_INSN; LOOKUPSWITCH_INSN; MULTIANEWARRAY_INSN; FRAME; LINE
tajo,org.apache.tajo.org.objectweb.asm.tree.analysis,BasicValue,Global State,The tool detected the smell in this class because the class declares global variables. The detected global variables are: UNINITIALIZED_VALUE; INT_VALUE; FLOAT_VALUE; LONG_VALUE; DOUBLE_VALUE; REFERENCE_VALUE; RETURNADDRESS_VALUE
tajo,org.apache.tajo.org.objectweb.asm.tree.analysis,Analyzer,Excessive Dependency,The tool detected the smell in this class because the class depends on too many dependencies. The total number of dependencies is: 13
tajo,org.apache.tajo.org.objectweb.asm.xml,Processor,Global State,The tool detected the smell in this class because the class declares global variables. The detected global variables are: BYTECODE; MULTI_XML; SINGLE_XML
tajo,org.apache.tajo.org.objectweb.asm.xml,ASMContentHandler,Global State,The tool detected the smell in this class because the class declares global variables. The detected global variables are: INSN; INSN_INT; INSN_VAR; INSN_TYPE; INSN_FIELD; INSN_METHOD; INSN_JUMP; INSN_LDC; INSN_IINC; INSN_MULTIANEWARRAY
tajo,org.apache.tajo.org.objectweb.asm.xml,ASMContentHandler.OpcodeGroup,Global State,The tool detected the smell in this class because the class declares global variables. The detected global variables are: INSN; INSN_INT; INSN_VAR; INSN_TYPE; INSN_FIELD; INSN_METHOD; INSN_JUMP; INSN_LDC; INSN_IINC; INSN_MULTIANEWARRAY
tajo,org.apache.tajo.org.objectweb.asm.signature,SignatureVisitor,Global State,The tool detected the smell in this class because the class declares global variables. The detected global variables are: EXTENDS; SUPER; INSTANCEOF
tajo,org.apache.tajo.org.objectweb.asm.util,CheckMethodAdapter,Excessive Dependency,The tool detected the smell in this class because the class depends on too many dependencies. The total number of dependencies is: 8
tajo,org.apache.tajo.org.objectweb.asm.util,CheckSignatureAdapter,Global State,The tool detected the smell in this class because the class declares global variables. The detected global variables are: CLASS_SIGNATURE; METHOD_SIGNATURE; TYPE_SIGNATURE
tajo,org.apache.tajo.org.objectweb.asm.util,Textifier,Global State,The tool detected the smell in this class because the class declares global variables. The detected global variables are: INTERNAL_NAME; FIELD_DESCRIPTOR; FIELD_SIGNATURE; METHOD_DESCRIPTOR; METHOD_SIGNATURE; CLASS_SIGNATURE; TYPE_DECLARATION; CLASS_DECLARATION; PARAMETERS_DECLARATION; HANDLE_DESCRIPTOR
tajo,org.apache.tajo.org.objectweb.asm.util,Textifier,Excessive Dependency,The tool detected the smell in this class because the class depends on too many dependencies. The total number of dependencies is: 9
tajo,org.apache.tajo.org.objectweb.asm.util,CheckClassAdapter,Excessive Dependency,The tool detected the smell in this class because the class depends on too many dependencies. The total number of dependencies is: 14
tajo,org.apache.tajo.org.objectweb.asm.util,Printer,Global State,The tool detected the smell in this class because the class declares global variables. The detected global variables are: OPCODES; TYPES; HANDLE_TAG
tajo,org.apache.tajo.rpc,TestBlockingRpc,Global State,The tool detected the smell in this class because the class declares global variables. The detected global variables are: MESSAGE
tajo,org.apache.tajo.rpc,TestBlockingRpc,Excessive Dependency,The tool detected the smell in this class because the class depends on too many dependencies. The total number of dependencies is: 9
tajo,org.apache.tajo.rpc,RetriesExhaustedException.ThrowableWithExtraContext,Global State,The tool detected the smell in this class because the class can be accessed as a `global` state.
tajo,org.apache.tajo.rpc,RpcConnectionPool,Global State,The tool detected the smell in this class because the class declares global variables. The detected global variables are: RPC_RETRIES
tajo,org.apache.tajo.catalog.store,TestHCatalogStore,Excessive Dependency,The tool detected the smell in this class because the class depends on too many dependencies. The total number of dependencies is: 10
tajo,org.apache.tajo.catalog.store,HCatalogStore,Excessive Dependency,The tool detected the smell in this class because the class depends on too many dependencies. The total number of dependencies is: 14
tajo,org.apache.tajo.catalog,TestCatalog,Excessive Dependency,The tool detected the smell in this class because the class depends on too many dependencies. The total number of dependencies is: 19
tajo,org.apache.tajo.catalog,TestCatalog.TestFunc1,Global State,The tool detected the smell in this class because the class can be accessed as a `global` state.
tajo,org.apache.tajo.catalog,TestCatalog.TestFunc2,Global State,The tool detected the smell in this class because the class can be accessed as a `global` state.
tajo,org.apache.tajo.catalog,TestCatalog.TestIntFunc,Global State,The tool detected the smell in this class because the class can be accessed as a `global` state.
tajo,org.apache.tajo.catalog,TestCatalog.TestFloatFunc,Global State,The tool detected the smell in this class because the class can be accessed as a `global` state.
tajo,org.apache.tajo.catalog,TestCatalog.TestAnyParamFunc,Global State,The tool detected the smell in this class because the class can be accessed as a `global` state.
tajo,org.apache.tajo.catalog,CatalogServer,Excessive Dependency,The tool detected the smell in this class because the class depends on too many dependencies. The total number of dependencies is: 9
tajo,org.apache.tajo.catalog,TestTableDesc,Excessive Dependency,The tool detected the smell in this class because the class depends on too many dependencies. The total number of dependencies is: 8
tajo,org.apache.tajo.catalog,TestFunctionDesc.TestSum,Global State,The tool detected the smell in this class because the class can be accessed as a `global` state.
tajo,org.apache.tajo.catalog,CatalogConstants,Global State,The tool detected the smell in this class because the class declares global variables. The detected global variables are: IDENTIFIER_DELIMITER_REGEXP; IDENTIFIER_DELIMITER; IDENTIFIER_QUOTE_STRING; MAX_IDENTIFIER_LENGTH; MAX_USERNAME_LENGTH; MAX_STATEMENT_LENGTH; MAX_CONNECTION_LENGTH; STORE_CLASS; CONNECTION_ID; CONNECTION_PASSWORD; CATALOG_URI; DEPRECATED_CONNECTION_ID; DEPRECATED_CONNECTION_PASSWORD; DEPRECATED_CATALOG_URI; TB_META; TB_SPACES; TB_DATABASES; TB_TABLES; TB_COLUMNS; TB_OPTIONS; TB_INDEXES; TB_STATISTICS; TB_PARTITION_METHODS; TB_PARTTIONS; COL_TABLESPACE_PK; COL_DATABASES_PK; COL_TABLES_PK; COL_TABLES_NAME; INFORMATION_SCHEMA_DB_NAME
tajo,org.apache.tajo.catalog,CatalogUtil,Global State,The tool detected the smell in this class because the class declares global variables. The detected global variables are: TEXTFILE_NAME; RESERVED_KEYWORDS_SET; OPERATION_CASTING_MAP; BLOCK_SIZE; PAGE_SIZE; COMPRESSION; ENABLE_DICTIONARY; VALIDATION
tajo,org.apache.tajo.catalog,CatalogUtil,Excessive Dependency,The tool detected the smell in this class because the class depends on too many dependencies. The total number of dependencies is: 13
tajo,org.apache.tajo.catalog,AbstractCatalogClient,Excessive Dependency,The tool detected the smell in this class because the class depends on too many dependencies. The total number of dependencies is: 11
tajo,org.apache.tajo,DataTypeUtil,Global State,The tool detected the smell in this class because the class declares global variables. The detected global variables are: FUNCTION_ACCEPTABLE_PARAM_MAP
tajo,org.apache.tajo,TestTajoIds,Excessive Dependency,The tool detected the smell in this class because the class depends on too many dependencies. The total number of dependencies is: 8
tajo,org.apache.tajo,TajoTestingCluster,Global State,The tool detected the smell in this class because the class declares global variables. The detected global variables are: DEFAULT_TEST_DIRECTORY
tajo,org.apache.tajo,TajoTestingCluster,Excessive Dependency,The tool detected the smell in this class because the class depends on too many dependencies. The total number of dependencies is: 21
tajo,org.apache.tajo,BackendTestingUtil,Global State,The tool detected the smell in this class because the class declares global variables. The detected global variables are: mockupSchema; mockupMeta
tajo,org.apache.tajo,QueryTestCaseBase,Excessive Dependency,The tool detected the smell in this class because the class depends on too many dependencies. The total number of dependencies is: 20
tajo,org.apache.tajo,LocalTajoTestingUtility,Excessive Dependency,The tool detected the smell in this class because the class depends on too many dependencies. The total number of dependencies is: 19
tajo,org.apache.tajo,MiniTajoYarnCluster,Global State,The tool detected the smell in this class because the class declares global variables. The detected global variables are: APPJAR
tajo,org.apache.tajo,TaskId,Global State,The tool detected the smell in this class because the class declares global variables. The detected global variables are: QU_ID_PREFIX
tajo,org.apache.tajo,QueryId,Global State,The tool detected the smell in this class because the class declares global variables. The detected global variables are: SEPARATOR; QUERY_ID_PREFIX
tajo,org.apache.tajo,SessionVars,Global State,The tool detected the smell in this class because the class declares global variables. The detected global variables are: SESSION_VARS; DEPRECATED_SESSION_VARS
tajo,org.apache.tajo,SessionVars.VariableMode,Global State,The tool detected the smell in this class because the class can be accessed as a `global` state.
tajo,org.apache.tajo,TajoConstants,Global State,The tool detected the smell in this class because the class declares global variables. The detected global variables are: SYSTEM_CONF_FILENAME; SYSTEM_DIR_NAME; WAREHOUSE_DIR_NAME; SYSTEM_RESOURCE_DIR_NAME; RESULT_DIR_NAME; INSERT_OVERWIRTE_OLD_TABLE_NAME; DEFAULT_TABLESPACE_NAME; DEFAULT_DATABASE_NAME; DEFAULT_SCHEMA_NAME; DEFAULT_SYSTEM_TIMEZONE; EMPTY_STRING; SYSTEM_HA_DIR_NAME; SYSTEM_HA_ACTIVE_DIR_NAME; SYSTEM_HA_BACKUP_DIR_NAME; UNKNOWN_ROW_NUMBER; UNKNOWN_LENGTH
tajo,org.apache.tajo,TaskAttemptId,Global State,The tool detected the smell in this class because the class declares global variables. The detected global variables are: QUA_ID_PREFIX
tajo,org.apache.tajo,ExecutionBlockId,Global State,The tool detected the smell in this class because the class declares global variables. The detected global variables are: EB_ID_PREFIX
tajo,org.apache.tajo,ConfigKey,Global State,The tool detected the smell in this class because the class declares global variables. The detected global variables are: DEFAULT_MODE; FROM_SHELL_ENV_MODE; SERVER_SIDE_VAR_MODE; CLI_SIDE_VAR_MODE
tajo,org.apache.tajo,ConfigKey.ConfigType,Global State,The tool detected the smell in this class because the class can be accessed as a `global` state.
tajo,org.apache.tajo,QueryIdFactory,Global State,The tool detected the smell in this class because the class declares global variables. The detected global variables are: NULL_QUERY_ID; ID_FORMAT; EB_ID_FORMAT; QU_ID_FORMAT; ATTEMPT_ID_FORMAT
tajo,org.apache.tajo.function,StaticMethodInvocationDesc,Global State,The tool detected the smell in this class because the class declares global variables. The detected global variables are: PRIMITIVE_CLASS_MAP
tajo,org.apache.tajo.function,Function,Global State,The tool detected the smell in this class because the class declares global variables. The detected global variables are: NoArgs
tajo,org.apache.tajo.storage,TestLazyTuple,Excessive Dependency,The tool detected the smell in this class because the class depends on too many dependencies. The total number of dependencies is: 9
tajo,org.apache.tajo.storage,StorageManager,Global State,The tool detected the smell in this class because the class declares global variables. The detected global variables are: hiddenFileFilter
tajo,org.apache.tajo.storage,StorageManager,Excessive Dependency,The tool detected the smell in this class because the class depends on too many dependencies. The total number of dependencies is: 20
tajo,org.apache.tajo.storage,MergeScanner,Excessive Dependency,The tool detected the smell in this class because the class depends on too many dependencies. The total number of dependencies is: 9
tajo,org.apache.tajo.storage,RowStoreUtil.RowStoreDecoder,Global State,The tool detected the smell in this class because the class can be accessed as a `global` state.
tajo,org.apache.tajo.storage,RowStoreUtil.RowStoreEncoder,Global State,The tool detected the smell in this class because the class can be accessed as a `global` state.
tajo,org.apache.tajo.storage,MemoryUtil,Global State,The tool detected the smell in this class because the class declares global variables. The detected global variables are: NULL_DATUM; BOOL_DATUM; CHAR_DATUM; BIT_DATUM; INT2_DATUM; INT4_DATUM; INT8_DATUM; FLOAT4_DATUM; FLOAT8_DATUM; TEXT_DATUM; BLOB_DATUM; DATE_DATUM; TIME_DATUM; TIMESTAMP_DATUM
tajo,org.apache.tajo.storage,TextSerializerDeserializer,Global State,The tool detected the smell in this class because the class declares global variables. The detected global variables are: trueBytes; falseBytes
tajo,org.apache.tajo.storage,TestFileSystems,Excessive Dependency,The tool detected the smell in this class because the class depends on too many dependencies. The total number of dependencies is: 10
tajo,org.apache.tajo.storage,TestLineReader,Excessive Dependency,The tool detected the smell in this class because the class depends on too many dependencies. The total number of dependencies is: 16
tajo,org.apache.tajo.storage,TestCompressionStorages,Excessive Dependency,The tool detected the smell in this class because the class depends on too many dependencies. The total number of dependencies is: 14
tajo,org.apache.tajo.storage,TestDelimitedTextFile,Excessive Dependency,The tool detected the smell in this class because the class depends on too many dependencies. The total number of dependencies is: 10
tajo,org.apache.tajo.storage,TestFileStorageManager,Excessive Dependency,The tool detected the smell in this class because the class depends on too many dependencies. The total number of dependencies is: 12
tajo,org.apache.tajo.storage,TestStorages,Excessive Dependency,The tool detected the smell in this class because the class depends on too many dependencies. The total number of dependencies is: 23
tajo,org.apache.tajo.storage,TestMergeScanner,Excessive Dependency,The tool detected the smell in this class because the class depends on too many dependencies. The total number of dependencies is: 17
tajo,org.apache.tajo.storage,HashShuffleAppenderManager,Excessive Dependency,The tool detected the smell in this class because the class depends on too many dependencies. The total number of dependencies is: 9
tajo,org.apache.tajo.storage,HashShuffleAppenderManager.HashShuffleIntermediate,Global State,The tool detected the smell in this class because the class can be accessed as a `global` state.
tajo,org.apache.tajo.storage,RawFile,Global State,The tool detected the smell in this class because the class declares global variables. The detected global variables are: READ_BUFFER_SIZE; WRITE_BUFFER_SIZE; DEFAULT_BUFFER_SIZE
tajo,org.apache.tajo.storage,RawFile.RawFileScanner,Global State,The tool detected the smell in this class because the class can be accessed as a `global` state.
tajo,org.apache.tajo.storage,RawFile.RawFileAppender,Global State,The tool detected the smell in this class because the class can be accessed as a `global` state.
tajo,org.apache.tajo.storage,FileScanner,Excessive Dependency,The tool detected the smell in this class because the class depends on too many dependencies. The total number of dependencies is: 8
tajo,org.apache.tajo.storage,CSVFile,Global State,The tool detected the smell in this class because the class declares global variables. The detected global variables are: LF; EOF
tajo,org.apache.tajo.storage,CSVFile,Excessive Dependency,The tool detected the smell in this class because the class depends on too many dependencies. The total number of dependencies is: 9
tajo,org.apache.tajo.storage,CSVFile.CSVAppender,Global State,The tool detected the smell in this class because the class can be accessed as a `global` state.
tajo,org.apache.tajo.storage,CSVFile.CSVAppender,Excessive Dependency,The tool detected the smell in this class because the class depends on too many dependencies. The total number of dependencies is: 8
tajo,org.apache.tajo.storage,CSVFile.CSVScanner,Global State,The tool detected the smell in this class because the class can be accessed as a `global` state.
tajo,org.apache.tajo.storage,FileStorageManager,Excessive Dependency,The tool detected the smell in this class because the class depends on too many dependencies. The total number of dependencies is: 15
tajo,org.apache.tajo.storage,RowFile,Global State,The tool detected the smell in this class because the class declares global variables. The detected global variables are: LOG; SYNC_INTERVAL
tajo,org.apache.tajo.storage,RowFile.RowFileScanner,Global State,The tool detected the smell in this class because the class can be accessed as a `global` state.
tajo,org.apache.tajo.storage,RowFile.RowFileAppender,Global State,The tool detected the smell in this class because the class can be accessed as a `global` state.
tajo,org.apache.tajo.storage,TestRowFile,Excessive Dependency,The tool detected the smell in this class because the class depends on too many dependencies. The total number of dependencies is: 18
tajo,org.apache.tajo.storage,RowStoreUtil.RowStoreDecoder,Global State,The tool detected the smell in this class because the class can be accessed as a `global` state.
tajo,org.apache.tajo.storage,RowStoreUtil.RowStoreEncoder,Global State,The tool detected the smell in this class because the class can be accessed as a `global` state.
tajo,org.apache.tajo.storage,StorageConstants,Global State,The tool detected the smell in this class because the class declares global variables. The detected global variables are: TIMEZONE; COMPRESSION_CODEC; COMPRESSION_TYPE; CSVFILE_DELIMITER; CSVFILE_NULL; CSVFILE_SERDE; TEXT_DELIMITER; TEXT_NULL; TEXT_SERDE_CLASS; DEFAULT_TEXT_SERDE_CLASS; TEXT_ERROR_TOLERANCE_MAXNUM; DEFAULT_TEXT_ERROR_TOLERANCE_MAXNUM; SEQUENCEFILE_DELIMITER; SEQUENCEFILE_NULL; SEQUENCEFILE_SERDE; RCFILE_NULL; RCFILE_SERDE; DEFAULT_FIELD_DELIMITER; DEFAULT_BINARY_SERDE; DEFAULT_TEXT_SERDE; PARQUET_DEFAULT_BLOCK_SIZE; PARQUET_DEFAULT_PAGE_SIZE; PARQUET_DEFAULT_COMPRESSION_CODEC_NAME; PARQUET_DEFAULT_IS_DICTIONARY_ENABLED; PARQUET_DEFAULT_IS_VALIDATION_ENABLED; DEFAULT_BLOCK_SIZE; DEFAULT_PAGE_SIZE; AVRO_SCHEMA_LITERAL; AVRO_SCHEMA_URL
tajo,org.apache.tajo.tuple.offheap,TestOffHeapRowBlock,Global State,The tool detected the smell in this class because the class declares global variables. The detected global variables are: UNICODE_FIELD_PREFIX; schema
tajo,org.apache.tajo.tuple.offheap,TestOffHeapRowBlock,Excessive Dependency,The tool detected the smell in this class because the class depends on too many dependencies. The total number of dependencies is: 12
tajo,org.apache.tajo.tuple.offheap,OffHeapRowBlock,Global State,The tool detected the smell in this class because the class declares global variables. The detected global variables are: NULL_FIELD_OFFSET
tajo,org.apache.tajo.tuple.offheap,OffHeapRowBlock,Excessive Dependency,The tool detected the smell in this class because the class depends on too many dependencies. The total number of dependencies is: 9
tajo,org.apache.tajo.tuple.offheap,ResizableLimitSpec,Global State,The tool detected the smell in this class because the class declares global variables. The detected global variables are: MAX_SIZE_BYTES; DEFAULT_LIMIT
tajo,org.apache.tajo.storage.avro,TestAvroUtil,Excessive Dependency,The tool detected the smell in this class because the class depends on too many dependencies. The total number of dependencies is: 8
tajo,org.apache.tajo.storage.json,TestJsonSerDe,Excessive Dependency,The tool detected the smell in this class because the class depends on too many dependencies. The total number of dependencies is: 10
tajo,org.apache.tajo.storage.rcfile,ColumnProjectionUtils,Global State,The tool detected the smell in this class because the class declares global variables. The detected global variables are: READ_COLUMN_IDS_CONF_STR
tajo,org.apache.tajo.storage.rcfile,RCFile,Global State,The tool detected the smell in this class because the class declares global variables. The detected global variables are: RECORD_INTERVAL_CONF_STR; COLUMN_NUMBER_METADATA_STR; SYNC_INTERVAL; NULL; SERDE; COLUMNS_BUFFER_SIZE_CONF_STR
tajo,org.apache.tajo.storage.rcfile,RCFile.KeyBuffer,Global State,The tool detected the smell in this class because the class can be accessed as a `global` state.
tajo,org.apache.tajo.storage.rcfile,RCFile.ValueBuffer,Global State,The tool detected the smell in this class because the class can be accessed as a `global` state.
tajo,org.apache.tajo.storage.rcfile,RCFile.RCFileAppender,Global State,The tool detected the smell in this class because the class can be accessed as a `global` state.
tajo,org.apache.tajo.storage.rcfile,RCFile.RCFileAppender,Global State,The tool detected the smell in this class because the class declares global variables. The detected global variables are: COLUMNS_BUFFER_SIZE_CONF_STR
tajo,org.apache.tajo.storage.rcfile,RCFile.RCFileScanner,Global State,The tool detected the smell in this class because the class can be accessed as a `global` state.
tajo,org.apache.tajo.storage.rcfile,BytesRefWritable,Global State,The tool detected the smell in this class because the class declares global variables. The detected global variables are: ZeroBytesRefWritable
tajo,org.apache.tajo.storage.text,CSVLineDeserializer,Excessive Dependency,The tool detected the smell in this class because the class depends on too many dependencies. The total number of dependencies is: 10
tajo,org.apache.tajo.storage.text,DelimitedTextFile,Global State,The tool detected the smell in this class because the class declares global variables. The detected global variables are: LF; READ_BUFFER_SIZE; WRITE_BUFFER_SIZE; DEFAULT_BUFFER_SIZE
tajo,org.apache.tajo.storage.text,DelimitedTextFile,Excessive Dependency,The tool detected the smell in this class because the class depends on too many dependencies. The total number of dependencies is: 9
tajo,org.apache.tajo.storage.text,DelimitedTextFile.DelimitedTextFileAppender,Global State,The tool detected the smell in this class because the class can be accessed as a `global` state.
tajo,org.apache.tajo.storage.text,DelimitedTextFile.DelimitedTextFileScanner,Global State,The tool detected the smell in this class because the class can be accessed as a `global` state.
tajo,org.apache.tajo.storage.text,CSVLineSerializer,Excessive Dependency,The tool detected the smell in this class because the class depends on too many dependencies. The total number of dependencies is: 8
tajo,org.apache.tajo.storage.text,LineSplitProcessor,Global State,The tool detected the smell in this class because the class declares global variables. The detected global variables are: CR; LF
tajo,org.apache.tajo.storage.text,TextFieldSerializerDeserializer,Global State,The tool detected the smell in this class because the class declares global variables. The detected global variables are: trueBytes; falseBytes
tajo,org.apache.tajo.storage.sequencefile,SequenceFileAppender,Excessive Dependency,The tool detected the smell in this class because the class depends on too many dependencies. The total number of dependencies is: 10
tajo,org.apache.tajo.storage.sequencefile,SequenceFileScanner,Excessive Dependency,The tool detected the smell in this class because the class depends on too many dependencies. The total number of dependencies is: 8
tajo,org.apache.tajo.storage.index.bst,BSTIndex,Global State,The tool detected the smell in this class because the class declares global variables. The detected global variables are: ONE_LEVEL_INDEX; TWO_LEVEL_INDEX
tajo,org.apache.tajo.storage.thirdparty.parquet,ParquetWriter,Global State,The tool detected the smell in this class because the class declares global variables. The detected global variables are: DEFAULT_BLOCK_SIZE; DEFAULT_PAGE_SIZE; DEFAULT_COMPRESSION_CODEC_NAME; DEFAULT_IS_DICTIONARY_ENABLED; DEFAULT_IS_VALIDATING_ENABLED; DEFAULT_WRITER_VERSION
tajo,org.apache.tajo.storage.thirdparty.parquet,CodecFactory.BytesCompressor,Global State,The tool detected the smell in this class because the class can be accessed as a `global` state.
tajo,org.apache.tajo.storage.thirdparty.parquet,ParquetFileWriter,Global State,The tool detected the smell in this class because the class declares global variables. The detected global variables are: PARQUET_METADATA_FILE; MAGIC; CURRENT_VERSION
tajo,org.apache.tajo.storage.hbase,AbstractHBaseAppender,Excessive Dependency,The tool detected the smell in this class because the class depends on too many dependencies. The total number of dependencies is: 10
tajo,org.apache.tajo.storage.hbase,HBasePutAppender,Excessive Dependency,The tool detected the smell in this class because the class depends on too many dependencies. The total number of dependencies is: 9
tajo,org.apache.tajo.storage.hbase,AddSortForInsertRewriter,Excessive Dependency,The tool detected the smell in this class because the class depends on too many dependencies. The total number of dependencies is: 11
tajo,org.apache.tajo.storage.hbase,HFileAppender,Excessive Dependency,The tool detected the smell in this class because the class depends on too many dependencies. The total number of dependencies is: 8
tajo,org.apache.tajo.storage.hbase,HBaseScanner,Excessive Dependency,The tool detected the smell in this class because the class depends on too many dependencies. The total number of dependencies is: 18
tajo,org.apache.tajo.storage.hbase,HBaseStorageConstants,Global State,The tool detected the smell in this class because the class declares global variables. The detected global variables are: KEY_COLUMN_MAPPING; VALUE_COLUMN_MAPPING; META_FETCH_ROWNUM_KEY; META_TABLE_KEY; META_COLUMNS_KEY; META_SPLIT_ROW_KEYS_KEY; META_SPLIT_ROW_KEYS_FILE_KEY; META_ZK_QUORUM_KEY; META_ZK_CLIENT_PORT; META_ROWKEY_DELIMITER; INSERT_PUT_MODE
tajo,org.apache.tajo.storage.hbase,HBaseStorageManager,Excessive Dependency,The tool detected the smell in this class because the class depends on too many dependencies. The total number of dependencies is: 24
tajo,org.apache.tajo.algebra,TestExpr,Excessive Dependency,The tool detected the smell in this class because the class depends on too many dependencies. The total number of dependencies is: 8
tajo,org.apache.tajo.algebra,WindowSpec.WindowFrameUnit,Global State,The tool detected the smell in this class because the class can be accessed as a `global` state.
tajo,org.apache.tajo.algebra,WindowSpec.WindowFrameStartBoundType,Global State,The tool detected the smell in this class because the class can be accessed as a `global` state.
tajo,org.apache.tajo.algebra,WindowSpec.WindowFrameEndBoundType,Global State,The tool detected the smell in this class because the class can be accessed as a `global` state.
tajo,org.apache.tajo.algebra,WindowSpec.WindowFrame,Global State,The tool detected the smell in this class because the class can be accessed as a `global` state.
tajo,org.apache.tajo.algebra,WindowSpec.WindowStartBound,Global State,The tool detected the smell in this class because the class can be accessed as a `global` state.
tajo,org.apache.tajo.algebra,WindowSpec.WindowEndBound,Global State,The tool detected the smell in this class because the class can be accessed as a `global` state.
tajo,org.apache.tajo.algebra,CreateTable.PartitionType,Global State,The tool detected the smell in this class because the class can be accessed as a `global` state.
tajo,org.apache.tajo.algebra,CreateTable.PartitionMethodDescExpr,Global State,The tool detected the smell in this class because the class can be accessed as a `global` state.
tajo,org.apache.tajo.algebra,CreateTable.RangePartition,Global State,The tool detected the smell in this class because the class can be accessed as a `global` state.
tajo,org.apache.tajo.algebra,CreateTable.HashPartition,Global State,The tool detected the smell in this class because the class can be accessed as a `global` state.
tajo,org.apache.tajo.algebra,CreateTable.ListPartition,Global State,The tool detected the smell in this class because the class can be accessed as a `global` state.
tajo,org.apache.tajo.algebra,CreateTable.ColumnPartition,Global State,The tool detected the smell in this class because the class can be accessed as a `global` state.
tajo,org.apache.tajo.algebra,CreateTable.RangePartitionSpecifier,Global State,The tool detected the smell in this class because the class can be accessed as a `global` state.
tajo,org.apache.tajo.algebra,CreateTable.ListPartitionSpecifier,Global State,The tool detected the smell in this class because the class can be accessed as a `global` state.
tajo,org.apache.tajo.algebra,CreateTable.PartitionSpecifier,Global State,The tool detected the smell in this class because the class can be accessed as a `global` state.
tajo,org.apache.tajo.algebra,Window.WindowDefinition,Global State,The tool detected the smell in this class because the class can be accessed as a `global` state.
tajo,org.apache.tajo.algebra,CaseWhenPredicate.WhenExpr,Global State,The tool detected the smell in this class because the class can be accessed as a `global` state.
tajo,org.apache.tajo.algebra,LiteralValue.LiteralType,Global State,The tool detected the smell in this class because the class can be accessed as a `global` state.
tajo,org.apache.tajo.algebra,OpType.JsonSerDer,Global State,The tool detected the smell in this class because the class can be accessed as a `global` state.
tajo,org.apache.tajo.algebra,BooleanLiteral,Global State,The tool detected the smell in this class because the class declares global variables. The detected global variables are: TRUE; FALSE
tajo,org.apache.tajo.algebra,Sort.SortSpec,Global State,The tool detected the smell in this class because the class can be accessed as a `global` state.
tajo,org.apache.tajo.algebra,Aggregation.GroupElement,Global State,The tool detected the smell in this class because the class can be accessed as a `global` state.
tajo,org.apache.tajo.algebra,Aggregation.GroupType,Global State,The tool detected the smell in this class because the class can be accessed as a `global` state.
tajo,org.apache.tajo.jdbc,TajoDriver,Global State,The tool detected the smell in this class because the class declares global variables. The detected global variables are: MAJOR_VERSION; MINOR_VERSION; JDBC_VERSION_MAJOR; JDBC_VERSION_MINOR; TAJO_JDBC_URL_PREFIX
tajo,org.apache.tajo.jdbc,TajoDatabaseMetaData,Excessive Dependency,The tool detected the smell in this class because the class depends on too many dependencies. The total number of dependencies is: 9
tajo,org.apache.tajo.jdbc,TestResultSet,Excessive Dependency,The tool detected the smell in this class because the class depends on too many dependencies. The total number of dependencies is: 13
tajo,org.apache.tajo.engine.planner,TestUniformRangePartition,Excessive Dependency,The tool detected the smell in this class because the class depends on too many dependencies. The total number of dependencies is: 9
tajo,org.apache.tajo.engine.planner,TestPlannerUtil,Excessive Dependency,The tool detected the smell in this class because the class depends on too many dependencies. The total number of dependencies is: 15
tajo,org.apache.tajo.engine.planner,TestLogicalPlanner,Excessive Dependency,The tool detected the smell in this class because the class depends on too many dependencies. The total number of dependencies is: 18
tajo,org.apache.tajo.engine.planner,TestLogicalOptimizer,Excessive Dependency,The tool detected the smell in this class because the class depends on too many dependencies. The total number of dependencies is: 12
tajo,org.apache.tajo.engine.planner,PhysicalPlannerImpl,Excessive Dependency,The tool detected the smell in this class because the class depends on too many dependencies. The total number of dependencies is: 15
tajo,org.apache.tajo.engine.planner,UniformRangePartition,Excessive Dependency,The tool detected the smell in this class because the class depends on too many dependencies. The total number of dependencies is: 11
tajo,org.apache.tajo.engine.planner,RangePartitionAlgorithm,Excessive Dependency,The tool detected the smell in this class because the class depends on too many dependencies. The total number of dependencies is: 8
tajo,org.apache.tajo.engine.planner.global,TestBroadcastJoinPlan,Excessive Dependency,The tool detected the smell in this class because the class depends on too many dependencies. The total number of dependencies is: 20
tajo,org.apache.tajo.engine.planner.global,MasterPlan,Excessive Dependency,The tool detected the smell in this class because the class depends on too many dependencies. The total number of dependencies is: 10
tajo,org.apache.tajo.engine.planner.global,GlobalPlanner,Excessive Dependency,The tool detected the smell in this class because the class depends on too many dependencies. The total number of dependencies is: 20
tajo,org.apache.tajo.engine.planner.physical,TestHashSemiJoinExec,Excessive Dependency,The tool detected the smell in this class because the class depends on too many dependencies. The total number of dependencies is: 21
tajo,org.apache.tajo.engine.planner.physical,TestExternalSortExec,Excessive Dependency,The tool detected the smell in this class because the class depends on too many dependencies. The total number of dependencies is: 18
tajo,org.apache.tajo.engine.planner.physical,TestRightOuterMergeJoinExec,Excessive Dependency,The tool detected the smell in this class because the class depends on too many dependencies. The total number of dependencies is: 19
tajo,org.apache.tajo.engine.planner.physical,TestSortExec,Global State,The tool detected the smell in this class because the class declares global variables. The detected global variables are: QUERIES
tajo,org.apache.tajo.engine.planner.physical,TestSortExec,Excessive Dependency,The tool detected the smell in this class because the class depends on too many dependencies. The total number of dependencies is: 15
tajo,org.apache.tajo.engine.planner.physical,TestRightOuterHashJoinExec,Excessive Dependency,The tool detected the smell in this class because the class depends on too many dependencies. The total number of dependencies is: 16
tajo,org.apache.tajo.engine.planner.physical,TestBNLJoinExec,Excessive Dependency,The tool detected the smell in this class because the class depends on too many dependencies. The total number of dependencies is: 18
tajo,org.apache.tajo.engine.planner.physical,TestPhysicalPlanner,Excessive Dependency,The tool detected the smell in this class because the class depends on too many dependencies. The total number of dependencies is: 32
tajo,org.apache.tajo.engine.planner.physical,TestNLJoinExec,Excessive Dependency,The tool detected the smell in this class because the class depends on too many dependencies. The total number of dependencies is: 15
tajo,org.apache.tajo.engine.planner.physical,TestMergeJoinExec,Excessive Dependency,The tool detected the smell in this class because the class depends on too many dependencies. The total number of dependencies is: 21
tajo,org.apache.tajo.engine.planner.physical,TestBSTIndexExec,Excessive Dependency,The tool detected the smell in this class because the class depends on too many dependencies. The total number of dependencies is: 16
tajo,org.apache.tajo.engine.planner.physical,TestFullOuterMergeJoinExec,Excessive Dependency,The tool detected the smell in this class because the class depends on too many dependencies. The total number of dependencies is: 21
tajo,org.apache.tajo.engine.planner.physical,TestLeftOuterNLJoinExec,Excessive Dependency,The tool detected the smell in this class because the class depends on too many dependencies. The total number of dependencies is: 18
tajo,org.apache.tajo.engine.planner.physical,TestHashJoinExec,Excessive Dependency,The tool detected the smell in this class because the class depends on too many dependencies. The total number of dependencies is: 23
tajo,org.apache.tajo.engine.planner.physical,TestLeftOuterHashJoinExec,Excessive Dependency,The tool detected the smell in this class because the class depends on too many dependencies. The total number of dependencies is: 19
tajo,org.apache.tajo.engine.planner.physical,TestProgressExternalSortExec,Excessive Dependency,The tool detected the smell in this class because the class depends on too many dependencies. The total number of dependencies is: 20
tajo,org.apache.tajo.engine.planner.physical,TestHashAntiJoinExec,Excessive Dependency,The tool detected the smell in this class because the class depends on too many dependencies. The total number of dependencies is: 20
tajo,org.apache.tajo.engine.planner.physical,TestFullOuterHashJoinExec,Excessive Dependency,The tool detected the smell in this class because the class depends on too many dependencies. The total number of dependencies is: 19
tajo,org.apache.tajo.engine.planner.physical,HashFullOuterJoinExec,Excessive Dependency,The tool detected the smell in this class because the class depends on too many dependencies. The total number of dependencies is: 10
tajo,org.apache.tajo.engine.planner.physical,PhysicalExecutorVisitor,Excessive Dependency,The tool detected the smell in this class because the class depends on too many dependencies. The total number of dependencies is: 27
tajo,org.apache.tajo.engine.planner.physical,DistinctGroupbyHashAggregationExec,Excessive Dependency,The tool detected the smell in this class because the class depends on too many dependencies. The total number of dependencies is: 9
tajo,org.apache.tajo.engine.planner.physical,HashJoinExec,Excessive Dependency,The tool detected the smell in this class because the class depends on too many dependencies. The total number of dependencies is: 10
tajo,org.apache.tajo.engine.planner.physical,PhysicalPlanUtil,Excessive Dependency,The tool detected the smell in this class because the class depends on too many dependencies. The total number of dependencies is: 14
tajo,org.apache.tajo.engine.planner.physical,DistinctGroupbyFirstAggregationExec,Excessive Dependency,The tool detected the smell in this class because the class depends on too many dependencies. The total number of dependencies is: 8
tajo,org.apache.tajo.engine.planner.physical,MergeFullOuterJoinExec,Excessive Dependency,The tool detected the smell in this class because the class depends on too many dependencies. The total number of dependencies is: 12
tajo,org.apache.tajo.engine.planner.physical,HashBasedColPartitionStoreExec,Excessive Dependency,The tool detected the smell in this class because the class depends on too many dependencies. The total number of dependencies is: 9
tajo,org.apache.tajo.engine.planner.physical,ColPartitionStoreExec,Excessive Dependency,The tool detected the smell in this class because the class depends on too many dependencies. The total number of dependencies is: 16
tajo,org.apache.tajo.engine.planner.physical,SeqScanExec,Excessive Dependency,The tool detected the smell in this class because the class depends on too many dependencies. The total number of dependencies is: 21
tajo,org.apache.tajo.engine.planner.physical,DistinctGroupbySecondAggregationExec,Excessive Dependency,The tool detected the smell in this class because the class depends on too many dependencies. The total number of dependencies is: 8
tajo,org.apache.tajo.engine.planner.physical,BasicPhysicalExecutorVisitor,Excessive Dependency,The tool detected the smell in this class because the class depends on too many dependencies. The total number of dependencies is: 30
tajo,org.apache.tajo.engine.planner.physical,BSTIndexScanExec,Excessive Dependency,The tool detected the smell in this class because the class depends on too many dependencies. The total number of dependencies is: 8
tajo,org.apache.tajo.engine.planner.physical,BNLJoinExec,Excessive Dependency,The tool detected the smell in this class because the class depends on too many dependencies. The total number of dependencies is: 8
tajo,org.apache.tajo.engine.planner.physical,MergeJoinExec,Excessive Dependency,The tool detected the smell in this class because the class depends on too many dependencies. The total number of dependencies is: 11
tajo,org.apache.tajo.engine.planner.physical,DistinctGroupbyThirdAggregationExec,Excessive Dependency,The tool detected the smell in this class because the class depends on too many dependencies. The total number of dependencies is: 8
tajo,org.apache.tajo.engine.planner.physical,NLLeftOuterJoinExec,Excessive Dependency,The tool detected the smell in this class because the class depends on too many dependencies. The total number of dependencies is: 8
tajo,org.apache.tajo.engine.planner.physical,RightOuterMergeJoinExec,Excessive Dependency,The tool detected the smell in this class because the class depends on too many dependencies. The total number of dependencies is: 14
tajo,org.apache.tajo.engine.planner.physical,ExternalSortExec,Excessive Dependency,The tool detected the smell in this class because the class depends on too many dependencies. The total number of dependencies is: 16
tajo,org.apache.tajo.engine.planner.physical,StoreTableExec,Excessive Dependency,The tool detected the smell in this class because the class depends on too many dependencies. The total number of dependencies is: 15
tajo,org.apache.tajo.engine.planner.physical,WindowAggExec,Excessive Dependency,The tool detected the smell in this class because the class depends on too many dependencies. The total number of dependencies is: 11
tajo,org.apache.tajo.engine.planner.physical,HashShuffleFileWriteExec,Excessive Dependency,The tool detected the smell in this class because the class depends on too many dependencies. The total number of dependencies is: 11
tajo,org.apache.tajo.engine.planner.physical,HashLeftOuterJoinExec,Excessive Dependency,The tool detected the smell in this class because the class depends on too many dependencies. The total number of dependencies is: 12
tajo,org.apache.tajo.engine.eval,TestEvalTreeUtil,Global State,The tool detected the smell in this class because the class declares global variables. The detected global variables are: QUERIES
tajo,org.apache.tajo.engine.eval,TestEvalTreeUtil,Excessive Dependency,The tool detected the smell in this class because the class depends on too many dependencies. The total number of dependencies is: 17
tajo,org.apache.tajo.engine.eval,TestEvalTreeUtil.TestSum,Global State,The tool detected the smell in this class because the class can be accessed as a `global` state.
tajo,org.apache.tajo.engine.eval,ExprTestBase,Excessive Dependency,The tool detected the smell in this class because the class depends on too many dependencies. The total number of dependencies is: 29
tajo,org.apache.tajo.engine.eval,TestEvalTree.MockTrueEval,Global State,The tool detected the smell in this class because the class can be accessed as a `global` state.
tajo,org.apache.tajo.engine.eval,TestEvalTree.MockFalseExpr,Global State,The tool detected the smell in this class because the class can be accessed as a `global` state.
tajo,org.apache.tajo.engine.codegen,LegacyFunctionBindingEmitter,Excessive Dependency,The tool detected the smell in this class because the class depends on too many dependencies. The total number of dependencies is: 10
tajo,org.apache.tajo.engine.codegen,ExecutorPreCompiler,Excessive Dependency,The tool detected the smell in this class because the class depends on too many dependencies. The total number of dependencies is: 8
tajo,org.apache.tajo.engine.codegen,ExecutorPreCompiler.CompilationContext,Global State,The tool detected the smell in this class because the class can be accessed as a `global` state.
tajo,org.apache.tajo.engine.codegen,ScalarFunctionBindingEmitter,Excessive Dependency,The tool detected the smell in this class because the class depends on too many dependencies. The total number of dependencies is: 8
tajo,org.apache.tajo.engine.codegen,TajoGeneratorAdapter,Global State,The tool detected the smell in this class because the class declares global variables. The detected global variables are: OpCodesMap
tajo,org.apache.tajo.engine.codegen,TajoGeneratorAdapter,Excessive Dependency,The tool detected the smell in this class because the class depends on too many dependencies. The total number of dependencies is: 10
tajo,org.apache.tajo.engine.codegen,TajoGeneratorAdapter.SwitchCaseGenerator,Global State,The tool detected the smell in this class because the class can be accessed as a `global` state.
tajo,org.apache.tajo.engine.codegen,TajoGeneratorAdapter.SwitchCase,Global State,The tool detected the smell in this class because the class can be accessed as a `global` state.
tajo,org.apache.tajo.engine.codegen,EvalCodeGenContext,Excessive Dependency,The tool detected the smell in this class because the class depends on too many dependencies. The total number of dependencies is: 9
tajo,org.apache.tajo.engine.codegen,CaseWhenEmitter,Excessive Dependency,The tool detected the smell in this class because the class depends on too many dependencies. The total number of dependencies is: 10
tajo,org.apache.tajo.engine.codegen,EvalCodeGenerator,Global State,The tool detected the smell in this class because the class declares global variables. The detected global variables are: UNKNOWN; TRUE; FALSE; THREE_VALUES; NOT_LOGIC; AND_LOGIC; OR_LOGIC
tajo,org.apache.tajo.engine.codegen,EvalCodeGenerator,Excessive Dependency,The tool detected the smell in this class because the class depends on too many dependencies. The total number of dependencies is: 16
tajo,org.apache.tajo.engine.query,TestTablePartitions,Excessive Dependency,The tool detected the smell in this class because the class depends on too many dependencies. The total number of dependencies is: 16
tajo,org.apache.tajo.engine.query,TestCTASQuery,Excessive Dependency,The tool detected the smell in this class because the class depends on too many dependencies. The total number of dependencies is: 8
tajo,org.apache.tajo.engine.query,TestJoinBroadcast,Excessive Dependency,The tool detected the smell in this class because the class depends on too many dependencies. The total number of dependencies is: 11
tajo,org.apache.tajo.engine.query,TestHBaseTable,Excessive Dependency,The tool detected the smell in this class because the class depends on too many dependencies. The total number of dependencies is: 9
tajo,org.apache.tajo.engine.query,TestSelectQuery.RulesForErrorInjection,Global State,The tool detected the smell in this class because the class can be accessed as a `global` state.
tajo,org.apache.tajo.engine.parser,SQLAnalyzer,Excessive Dependency,The tool detected the smell in this class because the class depends on too many dependencies. The total number of dependencies is: 34
tajo,org.apache.tajo.cli.tools,TajoGetConf,Global State,The tool detected the smell in this class because the class declares global variables. The detected global variables are: defaultLeftPad; defaultDescPad
tajo,org.apache.tajo.cli.tools,TajoDump,Excessive Dependency,The tool detected the smell in this class because the class depends on too many dependencies. The total number of dependencies is: 10
tajo,org.apache.tajo.cli.tsql,TestDefaultCliOutputFormatter,Excessive Dependency,The tool detected the smell in this class because the class depends on too many dependencies. The total number of dependencies is: 8
tajo,org.apache.tajo.cli.tsql,TestTajoCli,Excessive Dependency,The tool detected the smell in this class because the class depends on too many dependencies. The total number of dependencies is: 10
tajo,org.apache.tajo.cli.tsql,TestTajoCli.TajoCliOutputTestFormatter,Global State,The tool detected the smell in this class because the class can be accessed as a `global` state.
tajo,org.apache.tajo.cli.tsql,TajoCli,Global State,The tool detected the smell in this class because the class declares global variables. The detected global variables are: ERROR_PREFIX; KILL_PREFIX
tajo,org.apache.tajo.cli.tsql,TajoCli,Excessive Dependency,The tool detected the smell in this class because the class depends on too many dependencies. The total number of dependencies is: 12
tajo,org.apache.tajo.cli.tsql,ParsedResult.StatementType,Global State,The tool detected the smell in this class because the class can be accessed as a `global` state.
tajo,org.apache.tajo.cli.tsql,DefaultTajoCliOutputFormatter,Global State,The tool detected the smell in this class because the class declares global variables. The detected global variables are: QUIT_COMMAND
tajo,org.apache.tajo.cli.tsql,DefaultTajoCliOutputFormatter,Excessive Dependency,The tool detected the smell in this class because the class depends on too many dependencies. The total number of dependencies is: 8
tajo,org.apache.tajo.cli.tsql,SimpleParser,Global State,The tool detected the smell in this class because the class declares global variables. The detected global variables are: START_STATE
tajo,org.apache.tajo.cli.tsql,SimpleParser.ParsingState,Global State,The tool detected the smell in this class because the class can be accessed as a `global` state.
tajo,org.apache.tajo.cli.tsql.commands,ExitCommand,Global State,The tool detected the smell in this class because the class declares global variables. The detected global variables are: COMMAND_STRING
tajo,org.apache.tajo.cli.tsql.commands,DescTableCommand,Excessive Dependency,The tool detected the smell in this class because the class depends on too many dependencies. The total number of dependencies is: 8
tajo,org.apache.tajo.ha,HdfsServiceTracker,Excessive Dependency,The tool detected the smell in this class because the class depends on too many dependencies. The total number of dependencies is: 8
tajo,org.apache.tajo.ha,HAConstants,Global State,The tool detected the smell in this class because the class declares global variables. The detected global variables are: MASTER_UMBILICAL_RPC_ADDRESS; MASTER_CLIENT_RPC_ADDRESS; RESOURCE_TRACKER_RPC_ADDRESS; CATALOG_ADDRESS; MASTER_INFO_ADDRESS
tajo,org.apache.tajo.worker,TestFetcher,Excessive Dependency,The tool detected the smell in this class because the class depends on too many dependencies. The total number of dependencies is: 11
tajo,org.apache.tajo.worker,TestHistory,Excessive Dependency,The tool detected the smell in this class because the class depends on too many dependencies. The total number of dependencies is: 10
tajo,org.apache.tajo.worker,TajoWorker,Global State,The tool detected the smell in this class because the class declares global variables. The detected global variables are: TRUE_PROTO; FALSE_PROTO; WORKER_MODE_YARN_TASKRUNNER; WORKER_MODE_YARN_QUERYMASTER; WORKER_MODE_STANDBY; WORKER_MODE_QUERY_MASTER; WORKER_MODE_TASKRUNNER
tajo,org.apache.tajo.worker,TajoWorker,Excessive Dependency,The tool detected the smell in this class because the class depends on too many dependencies. The total number of dependencies is: 27
tajo,org.apache.tajo.worker,TaskRunner,Excessive Dependency,The tool detected the smell in this class because the class depends on too many dependencies. The total number of dependencies is: 10
tajo,org.apache.tajo.worker,Task,Excessive Dependency,The tool detected the smell in this class because the class depends on too many dependencies. The total number of dependencies is: 20
tajo,org.apache.tajo.worker,ExecutionBlockContext,Excessive Dependency,The tool detected the smell in this class because the class depends on too many dependencies. The total number of dependencies is: 19
tajo,org.apache.tajo.worker,TaskAttemptContext,Excessive Dependency,The tool detected the smell in this class because the class depends on too many dependencies. The total number of dependencies is: 14
tajo,org.apache.tajo.worker,TajoResourceAllocator,Excessive Dependency,The tool detected the smell in this class because the class depends on too many dependencies. The total number of dependencies is: 11
tajo,org.apache.tajo.worker,ExecutionBlockSharedResource,Excessive Dependency,The tool detected the smell in this class because the class depends on too many dependencies. The total number of dependencies is: 9
tajo,org.apache.tajo.worker,TaskRunnerManager,Excessive Dependency,The tool detected the smell in this class because the class depends on too many dependencies. The total number of dependencies is: 11
tajo,org.apache.tajo.querymaster,TestKillQuery,Excessive Dependency,The tool detected the smell in this class because the class depends on too many dependencies. The total number of dependencies is: 25
tajo,org.apache.tajo.querymaster,Query,Excessive Dependency,The tool detected the smell in this class because the class depends on too many dependencies. The total number of dependencies is: 14
tajo,org.apache.tajo.querymaster,Query.StartTransition,Global State,The tool detected the smell in this class because the class can be accessed as a `global` state.
tajo,org.apache.tajo.querymaster,Query.QueryCompletedTransition,Global State,The tool detected the smell in this class because the class can be accessed as a `global` state.
tajo,org.apache.tajo.querymaster,Query.StageCompletedTransition,Global State,The tool detected the smell in this class because the class can be accessed as a `global` state.
tajo,org.apache.tajo.querymaster,Repartitioner,Excessive Dependency,The tool detected the smell in this class because the class depends on too many dependencies. The total number of dependencies is: 28
tajo,org.apache.tajo.querymaster,Repartitioner.FetchGroupMeta,Global State,The tool detected the smell in this class because the class can be accessed as a `global` state.
tajo,org.apache.tajo.querymaster,DefaultTaskScheduler,Global State,The tool detected the smell in this class because the class declares global variables. The detected global variables are: stopTaskRunnerReq; REMOTE
tajo,org.apache.tajo.querymaster,DefaultTaskScheduler,Excessive Dependency,The tool detected the smell in this class because the class depends on too many dependencies. The total number of dependencies is: 8
tajo,org.apache.tajo.querymaster,DefaultTaskScheduler.HostVolumeMapping,Global State,The tool detected the smell in this class because the class declares global variables. The detected global variables are: REMOTE
tajo,org.apache.tajo.querymaster,Task,Excessive Dependency,The tool detected the smell in this class because the class depends on too many dependencies. The total number of dependencies is: 11
tajo,org.apache.tajo.querymaster,Task.PullHost,Global State,The tool detected the smell in this class because the class can be accessed as a `global` state.
tajo,org.apache.tajo.querymaster,Task.IntermediateEntry,Global State,The tool detected the smell in this class because the class can be accessed as a `global` state.
tajo,org.apache.tajo.querymaster,QueryMasterManagerService,Excessive Dependency,The tool detected the smell in this class because the class depends on too many dependencies. The total number of dependencies is: 12
tajo,org.apache.tajo.querymaster,QueryMaster,Excessive Dependency,The tool detected the smell in this class because the class depends on too many dependencies. The total number of dependencies is: 12
tajo,org.apache.tajo.querymaster,Stage,Excessive Dependency,The tool detected the smell in this class because the class depends on too many dependencies. The total number of dependencies is: 18
tajo,org.apache.tajo.querymaster,QueryMasterTask,Global State,The tool detected the smell in this class because the class declares global variables. The detected global variables are: STAGING_DIR_PERMISSION; TMP_STAGING_DIR_PREFIX
tajo,org.apache.tajo.querymaster,QueryMasterTask,Excessive Dependency,The tool detected the smell in this class because the class depends on too many dependencies. The total number of dependencies is: 23
tajo,org.apache.tajo.benchmark,TPCH,Global State,The tool detected the smell in this class because the class declares global variables. The detected global variables are: LINEITEM; CUSTOMER; CUSTOMER_PARTS; NATION; PART; REGION; ORDERS; PARTSUPP; SUPPLIER; EMPTY_ORDERS; tableVolumes
tajo,org.apache.tajo.client,TestTajoClient,Excessive Dependency,The tool detected the smell in this class because the class depends on too many dependencies. The total number of dependencies is: 9
tajo,org.apache.tajo.client,QueryClientImpl,Excessive Dependency,The tool detected the smell in this class because the class depends on too many dependencies. The total number of dependencies is: 8
tajo,org.apache.tajo.client,TajoClientImpl,Excessive Dependency,The tool detected the smell in this class because the class depends on too many dependencies. The total number of dependencies is: 12
tajo,org.apache.tajo.master.scheduler,SchedulingAlgorithms.FifoComparator,Global State,The tool detected the smell in this class because the class can be accessed as a `global` state.
tajo,org.apache.tajo.master.rule,TestMasterRules,Excessive Dependency,The tool detected the smell in this class because the class depends on too many dependencies. The total number of dependencies is: 9
tajo,org.apache.tajo.master,TestGlobalPlanner,Excessive Dependency,The tool detected the smell in this class because the class depends on too many dependencies. The total number of dependencies is: 19
tajo,org.apache.tajo.master,TestExecutionBlockCursor,Excessive Dependency,The tool detected the smell in this class because the class depends on too many dependencies. The total number of dependencies is: 20
tajo,org.apache.tajo.master,TestNonForwardQueryResultSystemScanner,Excessive Dependency,The tool detected the smell in this class because the class depends on too many dependencies. The total number of dependencies is: 22
tajo,org.apache.tajo.master,TestRepartitioner,Excessive Dependency,The tool detected the smell in this class because the class depends on too many dependencies. The total number of dependencies is: 9
tajo,org.apache.tajo.master,ContainerProxy,Global State,The tool detected the smell in this class because the class declares global variables. The detected global variables are: QUERYCONF_FILE_PERMISSION
tajo,org.apache.tajo.master,TajoMaster,Global State,The tool detected the smell in this class because the class declares global variables. The detected global variables are: SHUTDOWN_HOOK_PRIORITY; TAJO_ROOT_DIR_PERMISSION; SYSTEM_DIR_PERMISSION; SYSTEM_RESOURCE_DIR_PERMISSION; WAREHOUSE_DIR_PERMISSION; STAGING_ROOTDIR_PERMISSION; SYSTEM_CONF_FILE_PERMISSION
tajo,org.apache.tajo.master,TajoMaster,Excessive Dependency,The tool detected the smell in this class because the class depends on too many dependencies. The total number of dependencies is: 22
tajo,org.apache.tajo.master,QueryInProgress,Excessive Dependency,The tool detected the smell in this class because the class depends on too many dependencies. The total number of dependencies is: 12
tajo,org.apache.tajo.master,QueryManager,Excessive Dependency,The tool detected the smell in this class because the class depends on too many dependencies. The total number of dependencies is: 12
tajo,org.apache.tajo.master,GlobalEngine,Excessive Dependency,The tool detected the smell in this class because the class depends on too many dependencies. The total number of dependencies is: 23
tajo,org.apache.tajo.master,TajoContainerProxy,Excessive Dependency,The tool detected the smell in this class because the class depends on too many dependencies. The total number of dependencies is: 13
tajo,org.apache.tajo.master.rm,TajoResourceTracker,Excessive Dependency,The tool detected the smell in this class because the class depends on too many dependencies. The total number of dependencies is: 10
tajo,org.apache.tajo.master.rm,Worker.AddNodeTransition,Global State,The tool detected the smell in this class because the class can be accessed as a `global` state.
tajo,org.apache.tajo.master.rm,Worker.StatusUpdateTransition,Global State,The tool detected the smell in this class because the class can be accessed as a `global` state.
tajo,org.apache.tajo.master.rm,Worker.DeactivateNodeTransition,Global State,The tool detected the smell in this class because the class can be accessed as a `global` state.
tajo,org.apache.tajo.master.rm,Worker.ReconnectNodeTransition,Global State,The tool detected the smell in this class because the class can be accessed as a `global` state.
tajo,org.apache.tajo.master.rm,TajoWorkerResourceManager,Excessive Dependency,The tool detected the smell in this class because the class depends on too many dependencies. The total number of dependencies is: 11
tajo,org.apache.tajo.master.rm,TajoWorkerResourceManager.WorkerEventDispatcher,Global State,The tool detected the smell in this class because the class can be accessed as a `global` state.
tajo,org.apache.tajo.util.history,TestHistoryWriterReader,Global State,The tool detected the smell in this class because the class declares global variables. The detected global variables are: HISTORY_DIR
tajo,org.apache.tajo.util.history,TestHistoryWriterReader,Excessive Dependency,The tool detected the smell in this class because the class depends on too many dependencies. The total number of dependencies is: 9
tajo,org.apache.tajo.util.history,HistoryWriter,Global State,The tool detected the smell in this class because the class declares global variables. The detected global variables are: QUERY_LIST; QUERY_DETAIL; HISTORY_FILE_POSTFIX
tajo,org.apache.tajo.util.history,HistoryReader,Global State,The tool detected the smell in this class because the class declares global variables. The detected global variables are: DEFAULT_PAGE_SIZE; DEFAULT_TASK_PAGE_SIZE
tajo,org.apache.tajo.util.history,HistoryReader,Excessive Dependency,The tool detected the smell in this class because the class depends on too many dependencies. The total number of dependencies is: 8
tajo,org.apache.tajo.util.history,History.HistoryType,Global State,The tool detected the smell in this class because the class can be accessed as a `global` state.
tajo,org.apache.tajo.util,JSPUtil,Excessive Dependency,The tool detected the smell in this class because the class depends on too many dependencies. The total number of dependencies is: 12
tajo,org.apache.tajo.util,IndexUtil,Excessive Dependency,The tool detected the smell in this class because the class depends on too many dependencies. The total number of dependencies is: 8
tajo,org.apache.tajo.util,UnsafeComparer,Global State,The tool detected the smell in this class because the class declares global variables. The detected global variables are: INSTANCE
tajo,org.apache.tajo.util,PlatformUtil.OsType,Global State,The tool detected the smell in this class because the class can be accessed as a `global` state.
tajo,org.apache.tajo.util,UnsafeUtil,Global State,The tool detected the smell in this class because the class declares global variables. The detected global variables are: unsafe; ARRAY_BOOLEAN_BASE_OFFSET; ARRAY_BYTE_BASE_OFFSET; ARRAY_SHORT_BASE_OFFSET; ARRAY_CHAR_BASE_OFFSET; ARRAY_INT_BASE_OFFSET; ARRAY_LONG_BASE_OFFSET; ARRAY_FLOAT_BASE_OFFSET; ARRAY_DOUBLE_BASE_OFFSET; ARRAY_OBJECT_BASE_OFFSET; ARRAY_BOOLEAN_INDEX_SCALE; ARRAY_BYTE_INDEX_SCALE; ARRAY_SHORT_INDEX_SCALE; ARRAY_CHAR_INDEX_SCALE; ARRAY_INT_INDEX_SCALE; ARRAY_LONG_INDEX_SCALE; ARRAY_FLOAT_INDEX_SCALE; ARRAY_DOUBLE_INDEX_SCALE; ARRAY_OBJECT_INDEX_SCALE
tajo,org.apache.tajo.util,Bytes,Global State,The tool detected the smell in this class because the class declares global variables. The detected global variables are: UTF8_ENCODING; UTF8_CHARSET; EMPTY_BYTE_ARRAY; SIZEOF_BOOLEAN; SIZEOF_BYTE; SIZEOF_CHAR; SIZEOF_DOUBLE; SIZEOF_FLOAT; SIZEOF_INT; SIZEOF_LONG; SIZEOF_SHORT; ESTIMATED_HEAP_TAX; BYTES_COMPARATOR; BYTES_RAWCOMPARATOR
tajo,org.apache.tajo.util,Bytes.ByteArrayComparator,Global State,The tool detected the smell in this class because the class can be accessed as a `global` state.
tajo,org.apache.tajo.util,Bytes.RowEndKeyComparator,Global State,The tool detected the smell in this class because the class can be accessed as a `global` state.
tajo,org.apache.tajo.util,TajoIdUtils,Global State,The tool detected the smell in this class because the class declares global variables. The detected global variables are: MASTER_ID_FORMAT
tajo,org.apache.tajo.util,SizeOf,Global State,The tool detected the smell in this class because the class declares global variables. The detected global variables are: BITS_PER_BYTE; BYTES_PER_WORD; BITS_PER_WORD; SIZE_OF_BOOL; SIZE_OF_BYTE; SIZE_OF_SHORT; SIZE_OF_INT; SIZE_OF_LONG; SIZE_OF_FLOAT; SIZE_OF_DOUBLE
tajo,org.apache.tajo.util,StringUtils,Global State,The tool detected the smell in this class because the class declares global variables. The detected global variables are: SHUTDOWN_HOOK_PRIORITY
tajo,org.apache.tajo.util,CommonTestingUtil,Global State,The tool detected the smell in this class because the class declares global variables. The detected global variables are: TAJO_TEST_KEY; TAJO_TEST_TRUE
tajo,org.apache.tajo.util,NumberUtil,Global State,The tool detected the smell in this class because the class declares global variables. The detected global variables are: powersOf10
tajo,org.apache.tajo.util,ClassSize,Global State,The tool detected the smell in this class because the class declares global variables. The detected global variables are: ARRAY; ARRAYLIST; BYTE_BUFFER; SHORT; INTEGER; LONG; FLOAT; DOUBLE; MAP_ENTRY; OBJECT; REFERENCE; STRING; TREEMAP; CONCURRENT_HASHMAP; CONCURRENT_HASHMAP_ENTRY; CONCURRENT_HASHMAP_SEGMENT; CONCURRENT_SKIPLISTMAP; CONCURRENT_SKIPLISTMAP_ENTRY; REENTRANT_LOCK; ATOMIC_LONG; ATOMIC_INTEGER; ATOMIC_BOOLEAN; COPYONWRITE_ARRAYSET; COPYONWRITE_ARRAYLIST; TIMERANGE; TIMERANGE_TRACKER; KEYVALUE_SKIPLIST_SET
tajo,org.apache.tajo.util,ProtoUtil,Global State,The tool detected the smell in this class because the class declares global variables. The detected global variables are: TRUE; FALSE; NULL_PROTO
tajo,org.apache.tajo.util,KeyValueSet,Global State,The tool detected the smell in this class because the class declares global variables. The detected global variables are: TRUE_STR; FALSE_STR
tajo,org.apache.tajo.engine.json,CoreGsonHelper,Excessive Dependency,The tool detected the smell in this class because the class depends on too many dependencies. The total number of dependencies is: 8
tajo,org.apache.tajo.engine.planner.global.builder,DistinctGroupbyBuilder,Excessive Dependency,The tool detected the smell in this class because the class depends on too many dependencies. The total number of dependencies is: 17
tajo,org.apache.tajo.engine.function.datetime,ToCharTimestamp,Excessive Dependency,The tool detected the smell in this class because the class depends on too many dependencies. The total number of dependencies is: 12
tajo,org.apache.tajo.engine.function.datetime,DatePartFromTime,Excessive Dependency,The tool detected the smell in this class because the class depends on too many dependencies. The total number of dependencies is: 11
tajo,org.apache.tajo.engine.function.datetime,DatePartFromTimestamp,Excessive Dependency,The tool detected the smell in this class because the class depends on too many dependencies. The total number of dependencies is: 8
tajo,org.apache.tajo.engine.function.datetime,CurrentDate,Excessive Dependency,The tool detected the smell in this class because the class depends on too many dependencies. The total number of dependencies is: 9
tajo,org.apache.tajo.engine.function.datetime,ToTimestampText,Excessive Dependency,The tool detected the smell in this class because the class depends on too many dependencies. The total number of dependencies is: 8
tajo,org.apache.tajo.engine.function.builtin,AvgDouble,Excessive Dependency,The tool detected the smell in this class because the class depends on too many dependencies. The total number of dependencies is: 8
tajo,org.apache.tajo.engine.utils,TupleUtil,Excessive Dependency,The tool detected the smell in this class because the class depends on too many dependencies. The total number of dependencies is: 10
tajo,org.apache.tajo.engine.utils,TupleCache.TupleCacheStatus,Global State,The tool detected the smell in this class because the class can be accessed as a `global` state.
tajo,org.apache.tajo.webapp,QueryExecutorServlet,Excessive Dependency,The tool detected the smell in this class because the class depends on too many dependencies. The total number of dependencies is: 9
tajo,org.apache.tajo.master.exec.prehook,CreateTableHook,Excessive Dependency,The tool detected the smell in this class because the class depends on too many dependencies. The total number of dependencies is: 8
tajo,org.apache.tajo.master.exec,DDLExecutor,Excessive Dependency,The tool detected the smell in this class because the class depends on too many dependencies. The total number of dependencies is: 15
tajo,org.apache.tajo.master.exec,QueryExecutor,Excessive Dependency,The tool detected the smell in this class because the class depends on too many dependencies. The total number of dependencies is: 25
tajo,org.apache.tajo.master.exec,NonForwardQueryResultFileScanner,Excessive Dependency,The tool detected the smell in this class because the class depends on too many dependencies. The total number of dependencies is: 10
tajo,org.apache.tajo.master.exec,NonForwardQueryResultSystemScanner,Excessive Dependency,The tool detected the smell in this class because the class depends on too many dependencies. The total number of dependencies is: 20
tajo,org.apache.tajo.master.container,TajoConverterUtils,Global State,The tool detected the smell in this class because the class declares global variables. The detected global variables are: CONTAINER_PREFIX
tajo,org.apache.tajo.master.event,TaskAttemptToSchedulerEvent.TaskAttemptScheduleContext,Global State,The tool detected the smell in this class because the class can be accessed as a `global` state.
tajo,org.apache.tajo.util.metrics.reporter,MetricsConsoleScheduledReporter,Global State,The tool detected the smell in this class because the class declares global variables. The detected global variables are: REPORTER_NAME
tajo,org.apache.tajo.util.metrics.reporter,MetricsFileScheduledReporter,Global State,The tool detected the smell in this class because the class declares global variables. The detected global variables are: REPORTER_NAME
tajo,org.apache.tajo.util.metrics.reporter,GangliaReporter,Global State,The tool detected the smell in this class because the class declares global variables. The detected global variables are: REPORTER_NAME
tajo,org.apache.tajo.util.metrics.reporter,TajoMetricsScheduledReporter,Global State,The tool detected the smell in this class because the class declares global variables. The detected global variables are: PERIOD_KEY
tajo,org.apache.tajo.pullserver,PullServerAuxService,Global State,The tool detected the smell in this class because the class declares global variables. The detected global variables are: SHUFFLE_MANAGE_OS_CACHE; DEFAULT_SHUFFLE_MANAGE_OS_CACHE; SHUFFLE_READAHEAD_BYTES; DEFAULT_SHUFFLE_READAHEAD_BYTES; PULLSERVER_SERVICEID; SUFFLE_SSL_FILE_BUFFER_SIZE_KEY; DEFAULT_SUFFLE_SSL_FILE_BUFFER_SIZE
tajo,org.apache.tajo.pullserver,PullServerAuxService,Excessive Dependency,The tool detected the smell in this class because the class depends on too many dependencies. The total number of dependencies is: 8
tajo,org.apache.tajo.pullserver,FadvisedFileRegion,Global State,The tool detected the smell in this class because the class declares global variables. The detected global variables are: DEFAULT_SHUFFLE_BUFFER_SIZE
tajo,org.apache.tajo.pullserver,TajoPullServerService,Global State,The tool detected the smell in this class because the class declares global variables. The detected global variables are: SHUFFLE_MANAGE_OS_CACHE; DEFAULT_SHUFFLE_MANAGE_OS_CACHE; SHUFFLE_READAHEAD_BYTES; DEFAULT_SHUFFLE_READAHEAD_BYTES; PULLSERVER_SERVICEID; SUFFLE_SSL_FILE_BUFFER_SIZE_KEY; DEFAULT_SUFFLE_SSL_FILE_BUFFER_SIZE
tajo,org.apache.tajo.pullserver,TajoPullServerService,Excessive Dependency,The tool detected the smell in this class because the class depends on too many dependencies. The total number of dependencies is: 8
tajo,org.apache.tajo.plan,ExprNormalizer.ExprNormalizedResult,Global State,The tool detected the smell in this class because the class can be accessed as a `global` state.
tajo,org.apache.tajo.plan,ExprNormalizer.WindowSpecReferences,Global State,The tool detected the smell in this class because the class can be accessed as a `global` state.
tajo,org.apache.tajo.plan,ExprAnnotator,Global State,The tool detected the smell in this class because the class declares global variables. The detected global variables are: WINDOW_FUNCTIONS
tajo,org.apache.tajo.plan,ExprAnnotator,Excessive Dependency,The tool detected the smell in this class because the class depends on too many dependencies. The total number of dependencies is: 17
tajo,org.apache.tajo.plan,LogicalPlan,Global State,The tool detected the smell in this class because the class declares global variables. The detected global variables are: VIRTUAL_TABLE_PREFIX; NONAMED_COLUMN_PREFIX; ROOT_BLOCK; NONAME_BLOCK_PREFIX
tajo,org.apache.tajo.plan,LogicalPlan,Excessive Dependency,The tool detected the smell in this class because the class depends on too many dependencies. The total number of dependencies is: 14
tajo,org.apache.tajo.plan,LogicalPlan.BlockType,Global State,The tool detected the smell in this class because the class can be accessed as a `global` state.
tajo,org.apache.tajo.plan,LogicalPlan.BlockEdge,Global State,The tool detected the smell in this class because the class can be accessed as a `global` state.
tajo,org.apache.tajo.plan,TypeDeterminant,Excessive Dependency,The tool detected the smell in this class because the class depends on too many dependencies. The total number of dependencies is: 8
tajo,org.apache.tajo.plan,LogicalPlanPreprocessor,Excessive Dependency,The tool detected the smell in this class because the class depends on too many dependencies. The total number of dependencies is: 18
tajo,org.apache.tajo.plan,NamedExprsManager,Excessive Dependency,The tool detected the smell in this class because the class depends on too many dependencies. The total number of dependencies is: 10
tajo,org.apache.tajo.plan,LogicalOptimizer,Excessive Dependency,The tool detected the smell in this class because the class depends on too many dependencies. The total number of dependencies is: 13
tajo,org.apache.tajo.plan,LogicalOptimizer.JoinOrderStringBuilder,Global State,The tool detected the smell in this class because the class can be accessed as a `global` state.
tajo,org.apache.tajo.plan,LogicalOptimizer.JoinCostComputer,Global State,The tool detected the smell in this class because the class can be accessed as a `global` state.
tajo,org.apache.tajo.plan,LogicalPlanner,Excessive Dependency,The tool detected the smell in this class because the class depends on too many dependencies. The total number of dependencies is: 53
tajo,org.apache.tajo.plan,LogicalPlanner.PlanContext,Global State,The tool detected the smell in this class because the class can be accessed as a `global` state.
tajo,org.apache.tajo.plan.logical,WindowSpec.WindowFrame,Global State,The tool detected the smell in this class because the class can be accessed as a `global` state.
tajo,org.apache.tajo.plan.logical,WindowSpec.WindowStartBound,Global State,The tool detected the smell in this class because the class can be accessed as a `global` state.
tajo,org.apache.tajo.plan.logical,WindowSpec.WindowEndBound,Global State,The tool detected the smell in this class because the class can be accessed as a `global` state.
tajo,org.apache.tajo.plan.logical,SortNode.SortPurpose,Global State,The tool detected the smell in this class because the class can be accessed as a `global` state.
tajo,org.apache.tajo.plan.logical,JoinNode,Excessive Dependency,The tool detected the smell in this class because the class depends on too many dependencies. The total number of dependencies is: 8
tajo,org.apache.tajo.plan.logical,DistinctGroupbyNode,Excessive Dependency,The tool detected the smell in this class because the class depends on too many dependencies. The total number of dependencies is: 8
tajo,org.apache.tajo.plan.logical,WindowAggNode,Excessive Dependency,The tool detected the smell in this class because the class depends on too many dependencies. The total number of dependencies is: 9
tajo,org.apache.tajo.plan.logical,ScanNode,Excessive Dependency,The tool detected the smell in this class because the class depends on too many dependencies. The total number of dependencies is: 12
tajo,org.apache.tajo.plan.logical,GroupbyNode,Excessive Dependency,The tool detected the smell in this class because the class depends on too many dependencies. The total number of dependencies is: 8
tajo,org.apache.tajo.plan.joinorder,JoinGraph,Excessive Dependency,The tool detected the smell in this class because the class depends on too many dependencies. The total number of dependencies is: 12
tajo,org.apache.tajo.plan.joinorder,GreedyHeuristicJoinOrderAlgorithm,Global State,The tool detected the smell in this class because the class declares global variables. The detected global variables are: DEFAULT_SELECTION_FACTOR
tajo,org.apache.tajo.plan.joinorder,GreedyHeuristicJoinOrderAlgorithm,Excessive Dependency,The tool detected the smell in this class because the class depends on too many dependencies. The total number of dependencies is: 10
tajo,org.apache.tajo.plan.rewrite.rules,PartitionedTableRewriter,Excessive Dependency,The tool detected the smell in this class because the class depends on too many dependencies. The total number of dependencies is: 10
tajo,org.apache.tajo.plan.rewrite.rules,ProjectionPushDownRule,Excessive Dependency,The tool detected the smell in this class because the class depends on too many dependencies. The total number of dependencies is: 10
tajo,org.apache.tajo.plan.rewrite.rules,ProjectionPushDownRule.TargetListManager,Global State,The tool detected the smell in this class because the class can be accessed as a `global` state.
tajo,org.apache.tajo.plan.rewrite.rules,FilterPushDownRule,Excessive Dependency,The tool detected the smell in this class because the class depends on too many dependencies. The total number of dependencies is: 11
tajo,org.apache.tajo.plan.nameresolver,ResolverByLegacy,Excessive Dependency,The tool detected the smell in this class because the class depends on too many dependencies. The total number of dependencies is: 10
tajo,org.apache.tajo.plan.nameresolver,NameResolver,Global State,The tool detected the smell in this class because the class declares global variables. The detected global variables are: resolverMap
tajo,org.apache.tajo.plan.nameresolver,NameResolver,Excessive Dependency,The tool detected the smell in this class because the class depends on too many dependencies. The total number of dependencies is: 9
tajo,org.apache.tajo.plan.visitor,ExplainLogicalPlanVisitor.Context,Global State,The tool detected the smell in this class because the class can be accessed as a `global` state.
tajo,org.apache.tajo.plan.visitor,ExplainLogicalPlanVisitor.DepthString,Global State,The tool detected the smell in this class because the class can be accessed as a `global` state.
tajo,org.apache.tajo.plan.serder,LogicalNodeSerializer.SerializeContext,Global State,The tool detected the smell in this class because the class can be accessed as a `global` state.
tajo,org.apache.tajo.plan.serder,LogicalNodeDeserializer,Excessive Dependency,The tool detected the smell in this class because the class depends on too many dependencies. The total number of dependencies is: 10
tajo,org.apache.tajo.plan.serder,PlanGsonHelper,Excessive Dependency,The tool detected the smell in this class because the class depends on too many dependencies. The total number of dependencies is: 8
tajo,org.apache.tajo.plan.serder,EvalNodeSerializer.EvalTreeProtoBuilderContext,Global State,The tool detected the smell in this class because the class can be accessed as a `global` state.
tajo,org.apache.tajo.plan.expr,SimpleEvalNodeVisitor,Excessive Dependency,The tool detected the smell in this class because the class depends on too many dependencies. The total number of dependencies is: 10
tajo,org.apache.tajo.plan.expr,FunctionEval.ParamType,Global State,The tool detected the smell in this class because the class can be accessed as a `global` state.
tajo,org.apache.tajo.plan.expr,WindowFunctionEval,Excessive Dependency,The tool detected the smell in this class because the class depends on too many dependencies. The total number of dependencies is: 10
tajo,org.apache.tajo.plan.expr,CaseWhenEval.IfThenEval,Global State,The tool detected the smell in this class because the class can be accessed as a `global` state.
tajo,org.apache.tajo.plan.expr,BasicEvalNodeVisitor,Excessive Dependency,The tool detected the smell in this class because the class depends on too many dependencies. The total number of dependencies is: 20
tajo,org.apache.tajo.plan.expr,EvalNodeVisitor2,Excessive Dependency,The tool detected the smell in this class because the class depends on too many dependencies. The total number of dependencies is: 18
tajo,org.apache.tajo.plan.expr,RowConstantEval,Excessive Dependency,The tool detected the smell in this class because the class depends on too many dependencies. The total number of dependencies is: 9
tajo,org.apache.tajo.plan.expr,AggregationFunctionCallEval,Excessive Dependency,The tool detected the smell in this class because the class depends on too many dependencies. The total number of dependencies is: 8
tajo,org.apache.tajo.plan.expr,InEval,Excessive Dependency,The tool detected the smell in this class because the class depends on too many dependencies. The total number of dependencies is: 8
tajo,org.apache.tajo.plan.expr,GeneralFunctionEval,Excessive Dependency,The tool detected the smell in this class because the class depends on too many dependencies. The total number of dependencies is: 8
tajo,org.apache.tajo.plan.expr,EvalTreeUtil,Excessive Dependency,The tool detected the smell in this class because the class depends on too many dependencies. The total number of dependencies is: 14
tajo,org.apache.tajo.plan.expr,EvalTreeUtil.EvalReplaceVisitor,Global State,The tool detected the smell in this class because the class can be accessed as a `global` state.
tajo,org.apache.tajo.plan.expr,EvalTreeUtil.ChangeColumnRefVisitor,Global State,The tool detected the smell in this class because the class can be accessed as a `global` state.
tajo,org.apache.tajo.plan.expr,EvalTreeUtil.AllColumnRefFinder,Global State,The tool detected the smell in this class because the class can be accessed as a `global` state.
tajo,org.apache.tajo.plan.expr,EvalTreeUtil.UniqueColumnFinder,Global State,The tool detected the smell in this class because the class can be accessed as a `global` state.
tajo,org.apache.tajo.plan.expr,EvalTreeUtil.VariableCounter,Global State,The tool detected the smell in this class because the class can be accessed as a `global` state.
tajo,org.apache.tajo.plan.expr,EvalTreeUtil.AllAggFunctionFinder,Global State,The tool detected the smell in this class because the class can be accessed as a `global` state.
tajo,org.apache.tajo.plan.expr,EvalTreeUtil.AllWindowFunctionFinder,Global State,The tool detected the smell in this class because the class can be accessed as a `global` state.
tajo,org.apache.tajo.plan.expr,EvalTreeUtil.EvalFinder,Global State,The tool detected the smell in this class because the class can be accessed as a `global` state.
tajo,org.apache.tajo.plan.expr,EvalTreeUtil.OuterJoinSensitiveEvalFinder,Global State,The tool detected the smell in this class because the class can be accessed as a `global` state.
tajo,org.apache.tajo.plan.expr,BinaryEval,Excessive Dependency,The tool detected the smell in this class because the class depends on too many dependencies. The total number of dependencies is: 11
tajo,org.apache.tajo.plan.expr,PatternMatchPredicateEval,Excessive Dependency,The tool detected the smell in this class because the class depends on too many dependencies. The total number of dependencies is: 8
tajo,org.apache.tajo.plan.expr,CastEval,Excessive Dependency,The tool detected the smell in this class because the class depends on too many dependencies. The total number of dependencies is: 9
tajo,org.apache.tajo.plan.verifier,LogicalPlanVerifier,Excessive Dependency,The tool detected the smell in this class because the class depends on too many dependencies. The total number of dependencies is: 9
tajo,org.apache.tajo.plan.verifier,LogicalPlanVerifier.Context,Global State,The tool detected the smell in this class because the class can be accessed as a `global` state.
tajo,org.apache.tajo.plan.verifier,PreLogicalPlanVerifier,Excessive Dependency,The tool detected the smell in this class because the class depends on too many dependencies. The total number of dependencies is: 9
tajo,org.apache.tajo.plan.verifier,PreLogicalPlanVerifier.Context,Global State,The tool detected the smell in this class because the class can be accessed as a `global` state.
tajo,org.apache.tajo.plan.util,PlannerUtil,Global State,The tool detected the smell in this class because the class declares global variables. The detected global variables are: EMPTY_COLUMNS; EMPTY_AGG_FUNCS
tajo,org.apache.tajo.plan.util,PlannerUtil,Excessive Dependency,The tool detected the smell in this class because the class depends on too many dependencies. The total number of dependencies is: 8
tajo,org.apache.tajo.plan.util,PlannerUtil.RelationFinderVisitor,Global State,The tool detected the smell in this class because the class can be accessed as a `global` state.
tajo,org.apache.tajo.plan.util,PlannerUtil.LogicalNodeReplaceVisitor,Global State,The tool detected the smell in this class because the class can be accessed as a `global` state.
tajo,org.apache.tajo.plan.util,PlannerUtil.JoinKeyPairFinder,Global State,The tool detected the smell in this class because the class can be accessed as a `global` state.
tajo,org.apache.tajo.rule,TestRuleEngine.TestRuleProvider1,Global State,The tool detected the smell in this class because the class can be accessed as a `global` state.
tajo,org.apache.tajo.rule,TestRuleEngine.TestRule1,Global State,The tool detected the smell in this class because the class can be accessed as a `global` state.
tajo,org.apache.tajo.rule,TestRuleEngine.TestRule2,Global State,The tool detected the smell in this class because the class can be accessed as a `global` state.
tajo,org.apache.tajo.rule,TestRuleSession.TestRuleSessionProvider,Global State,The tool detected the smell in this class because the class can be accessed as a `global` state.
tajo,org.apache.tajo.rule,TestRuleSession.TestRule1,Global State,The tool detected the smell in this class because the class can be accessed as a `global` state.
tajo,org.apache.tajo.rule,TestRuleSession.TestRule2,Global State,The tool detected the smell in this class because the class can be accessed as a `global` state.
tajo,org.apache.tajo.rule,TestRuleSession.TestRule3,Global State,The tool detected the smell in this class because the class can be accessed as a `global` state.
tajo,org.apache.tajo.rule,TestRuleSession.TestRulePriorityProvider,Global State,The tool detected the smell in this class because the class can be accessed as a `global` state.
tajo,org.apache.tajo.rule,TestRuleSession.TestPriorityRule1,Global State,The tool detected the smell in this class because the class can be accessed as a `global` state.
tajo,org.apache.tajo.rule,TestRuleSession.TestPriorityRule2,Global State,The tool detected the smell in this class because the class can be accessed as a `global` state.
tajo,org.apache.tajo.rule,TestRuleSession.TestPriorityRule3,Global State,The tool detected the smell in this class because the class can be accessed as a `global` state.
tajo,org.apache.tajo.rule,TestRuleSession.TestPriorityRule4,Global State,The tool detected the smell in this class because the class can be accessed as a `global` state.
tajo,org.apache.tajo.rule,TestRuleSession.TestExecutionRuleProvider,Global State,The tool detected the smell in this class because the class can be accessed as a `global` state.
tajo,org.apache.tajo.rule,TestRuleSession.TestExecRule1,Global State,The tool detected the smell in this class because the class can be accessed as a `global` state.
tajo,org.apache.tajo.rule,TestRuleSession.TestExecRule2,Global State,The tool detected the smell in this class because the class can be accessed as a `global` state.
tajo,org.apache.tajo.rule,TestRuleSession.TestExecRule3,Global State,The tool detected the smell in this class because the class can be accessed as a `global` state.
tajo,org.apache.tajo.rule,EvaluationResult.EvaluationResultCode,Global State,The tool detected the smell in this class because the class can be accessed as a `global` state.
tajo,org.apache.tajo.validation,TestValidators,Excessive Dependency,The tool detected the smell in this class because the class depends on too many dependencies. The total number of dependencies is: 13
tajo,org.apache.tajo.datum,DatumFactory,Excessive Dependency,The tool detected the smell in this class because the class depends on too many dependencies. The total number of dependencies is: 22
tajo,org.apache.tajo.datum,NullDatum,Global State,The tool detected the smell in this class because the class declares global variables. The detected global variables are: DEFAULT_TEXT
tajo,org.apache.tajo.datum,TextDatum,Global State,The tool detected the smell in this class because the class declares global variables. The detected global variables are: DEFAULT_CHARSET; UNICODE_CHAR_BITS_NUM; EMPTY_TEXT; COMPARATOR
tajo,org.apache.tajo.datum,Int2Datum,Excessive Dependency,The tool detected the smell in this class because the class depends on too many dependencies. The total number of dependencies is: 10
tajo,org.apache.tajo.datum,Float4Datum,Excessive Dependency,The tool detected the smell in this class because the class depends on too many dependencies. The total number of dependencies is: 10
tajo,org.apache.tajo.datum,DateDatum,Global State,The tool detected the smell in this class because the class declares global variables. The detected global variables are: SIZE
tajo,org.apache.tajo.datum,DateDatum,Excessive Dependency,The tool detected the smell in this class because the class depends on too many dependencies. The total number of dependencies is: 8
tajo,org.apache.tajo.datum,IntervalDatum,Global State,The tool detected the smell in this class because the class declares global variables. The detected global variables are: MINUTE_MILLIS; HOUR_MILLIS; DAY_MILLIS; MONTH_MILLIS
tajo,org.apache.tajo.datum,Int8Datum,Excessive Dependency,The tool detected the smell in this class because the class depends on too many dependencies. The total number of dependencies is: 10
tajo,org.apache.tajo.datum,BooleanDatum,Global State,The tool detected the smell in this class because the class declares global variables. The detected global variables are: TRUE_STRING; FALSE_STRING; TRUE; FALSE; UNKNOWN_INT; TRUE_INT; FALSE_INT; TRUE_BYTES; FALSE_BYTES; THREE_VALUES; AND_LOGIC; OR_LOGIC
tajo,org.apache.tajo.datum,TimeDatum,Global State,The tool detected the smell in this class because the class declares global variables. The detected global variables are: SIZE
tajo,org.apache.tajo.datum,TimestampDatum,Global State,The tool detected the smell in this class because the class declares global variables. The detected global variables are: SIZE
tajo,org.apache.tajo.datum,TimestampDatum,Excessive Dependency,The tool detected the smell in this class because the class depends on too many dependencies. The total number of dependencies is: 8
tajo,org.apache.tajo.datum,Float8Datum,Excessive Dependency,The tool detected the smell in this class because the class depends on too many dependencies. The total number of dependencies is: 11
tajo,org.apache.tajo.datum,Int4Datum,Excessive Dependency,The tool detected the smell in this class because the class depends on too many dependencies. The total number of dependencies is: 10
tajo,org.apache.tajo.datum.protobuf,ProtobufFormatter.ParseException,Global State,The tool detected the smell in this class because the class can be accessed as a `global` state.
tajo,org.apache.tajo.datum.protobuf,ProtobufJsonFormat.ParseException,Global State,The tool detected the smell in this class because the class can be accessed as a `global` state.
tajo,org.apache.tajo.common.type,IPv4,Law of Demeter violation,The tool detected the smell in this method (matchSubnet) because the method voilates the law of Demeter. The long chain of method invocations is : org.apache.tajo.common.type.IPv4.and; org.apache.tajo.common.type.IPv4.equals
tajo,org.apache.tajo.conf,TajoConf.ConfVars,Global State,The tool detected the smell in this class because the class can be accessed as a `global` state.
tajo,org.apache.tajo.unit,StorageUnit,Global State,The tool detected the smell in this class because the class declares global variables. The detected global variables are: B; KB; MB; GB; TB; PB
tajo,org.apache.tajo.unit,TimeUnit,Global State,The tool detected the smell in this class because the class declares global variables. The detected global variables are: SEC; MIN; HOUR; DAY; PART_UNIT
tajo,org.apache.tajo.util.datetime,DateTimeConstants,Global State,The tool detected the smell in this class because the class declares global variables. The detected global variables are: DAY_OF_MONTH; DAYS_PER_YEAR; MONTHS_PER_YEAR; DAYS_PER_MONTH; HOURS_PER_DAY; SECS_PER_YEAR; SECS_PER_DAY; SECS_PER_HOUR; SECS_PER_MINUTE; MINS_PER_HOUR; MSECS_PER_DAY; MSECS_PER_SEC; USECS_PER_DAY; USECS_PER_HOUR; USECS_PER_MINUTE; USECS_PER_SEC; USECS_PER_MSEC; JULIAN_MINYEAR; JULIAN_MINMONTH; JULIAN_MINDAY; JULIAN_MAXYEAR; JULIAN_MAX; MONDAY; TUESDAY; WEDNESDAY; THURSDAY; FRIDAY; SATURDAY; SUNDAY; UNIX_EPOCH_JDATE; POSTGRES_EPOCH_JDATE; SECS_DIFFERENCE_BETWEEN_JULIAN_AND_UNIXTIME; MAX_TZDISP_HOUR; TZDISP_LIMIT; INTERVAL_FULL_RANGE; DAGO; DCURRENT; EPOCH; INVALID; EARLY; LATE; NOW; TODAY; TOMORROW; YESTERDAY; ZULU; DMICROSEC; DMILLISEC; DSECOND; DMINUTE; DHOUR; DDAY; DWEEK; DMONTH; DQUARTER; DYEAR; DDECADE; DCENTURY; DMILLENNIUM; DA_D; DB_C; DTIMEZONE; DATEORDER_YMD; DATEORDER_DMY; DATEORDER_MDY; dateTokenMap; DTK_ALL_SECS_M; DTK_DATE_M; DTK_TIME_M
tajo,org.apache.tajo.util.datetime,DateTimeConstants.TokenField,Global State,The tool detected the smell in this class because the class can be accessed as a `global` state.
tajo,org.apache.tajo.util.datetime,DateTimeConstants.DateToken,Global State,The tool detected the smell in this class because the class can be accessed as a `global` state.
