Project Name,Package Name,Architecture Smell,Cause of the Smell
flume,org.apache.flume.conf,Cyclic Dependency,The tool detected the smell in this component because this component participates in a cyclic dependency. The participating components in the cycle are: org.apache.flume.conf; org.apache.flume; org.apache.flume.channel
flume,org.apache.flume.conf,Cyclic Dependency,The tool detected the smell in this component because this component participates in a cyclic dependency. The participating components in the cycle are: org.apache.flume.conf; org.apache.flume; org.apache.flume.channel; org.apache.flume.channel.file
flume,org.apache.flume.conf,Feature Concentration,The tool detected the smell in this component because the component realizes more than one architectural concern/feature. Independent sets of related classes within this component are: [TestFlumeConfiguration; FlumeConfiguration; BasicConfigurationConstants; FlumeConfigurationErrorType; ComponentConfiguration; FlumeConfiguration.AgentConfiguration; ComponentConfigurationFactory; ConfigurationException; FlumeConfigurationError; ConfigurableComponent; Configurables]; [ComponentConfiguration.ComponentType]; [FlumeConfiguration.ComponentNameAndConfigKey]; [FlumeConfigurationError.ErrorOrWarning]; [Configurable]. LCC (Lack of Component Cohesion) = 0.33
flume,<All packages>,Dense Structure, The tool detected the smell because all the analyzed components exhibit excessive and dense dependencies among themselves. Average degree = 7.35. All the dependencies among components: from: org.apache.flume.conf to: org.apache.flume; from: org.apache.flume.conf.source to: org.apache.flume; from: org.apache.flume.conf.source to: org.apache.flume.conf.channel; from: org.apache.flume.conf.source to: org.apache.flume.conf; from: org.apache.flume.conf.sink to: org.apache.flume; from: org.apache.flume.conf.sink to: org.apache.flume.conf; from: org.apache.flume.conf.channel to: org.apache.flume; from: org.apache.flume to: org.apache.flume.lifecycle; from: org.apache.flume to: org.apache.flume.channel; from: org.apache.flume.clients.log4jappender to: org.apache.flume.source; from: org.apache.flume.clients.log4jappender to: org.apache.flume; from: org.apache.flume.clients.log4jappender to: org.apache.flume.conf; from: org.apache.flume.clients.log4jappender to: org.apache.flume.api; from: org.apache.flume.clients.log4jappender to: org.apache.flume.event; from: org.apache.flume.node to: org.apache.flume.lifecycle; from: org.apache.flume.node to: org.apache.flume; from: org.apache.flume.node to: org.apache.flume.conf; from: org.apache.flume.node to: org.apache.flume.conf.source; from: org.apache.flume.node to: org.apache.flume.conf.channel; from: org.apache.flume.node to: org.apache.flume.channel; from: org.apache.flume.node to: org.apache.flume.conf.sink; from: org.apache.flume.node to: org.apache.flume.sink; from: org.apache.flume.node to: org.apache.flume.instrumentation; from: org.apache.flume.source to: org.apache.flume; from: org.apache.flume.source to: org.apache.flume.conf; from: org.apache.flume.source to: org.apache.flume.lifecycle; from: org.apache.flume.source to: org.apache.flume.channel; from: org.apache.flume.source to: org.apache.flume.event; from: org.apache.flume.source to: org.apache.flume.api; from: org.apache.flume.source to: org.apache.flume.conf.source; from: org.apache.flume.source to: org.apache.flume.serialization; from: org.apache.flume.source to: org.apache.flume.instrumentation; from: org.apache.flume.source to: org.apache.flume.client.avro; from: org.apache.flume.source to: org.apache.flume.thrift; from: org.apache.flume.sink.hbase to: org.apache.flume; from: org.apache.flume.sink.hbase to: org.apache.flume.event; from: org.apache.flume.sink.hbase to: org.apache.flume.conf; from: org.apache.flume.sink.hbase to: org.apache.flume.instrumentation; from: org.apache.flume.sink.hbase to: org.apache.flume.sink.hdfs; from: org.apache.flume.sink.hdfs to: org.apache.flume; from: org.apache.flume.sink.hdfs to: org.apache.flume.event; from: org.apache.flume.sink.hdfs to: org.apache.flume.channel; from: org.apache.flume.sink.hdfs to: org.apache.flume.serialization; from: org.apache.flume.sink.hdfs to: org.apache.flume.conf; from: org.apache.flume.sink.hdfs to: org.apache.flume.instrumentation; from: org.apache.flume.sink.hdfs to: org.apache.flume.formatter.output; from: org.apache.flume.sink.solr.morphline to: org.apache.flume; from: org.apache.flume.sink.solr.morphline to: org.apache.flume.event; from: org.apache.flume.sink.solr.morphline to: org.apache.flume.source.http; from: org.apache.flume.sink.solr.morphline to: org.apache.flume.channel; from: org.apache.flume.sink.solr.morphline to: org.apache.flume.conf; from: org.apache.flume.sink.solr.morphline to: org.apache.flume.serialization; from: org.apache.flume.sink.solr.morphline to: org.apache.flume.instrumentation; from: org.apache.flume.sink.irc to: org.apache.flume.conf; from: org.apache.flume.sink.irc to: org.apache.flume.event; from: org.apache.flume.sink.irc to: org.apache.flume; from: org.apache.flume.sink.kite to: org.apache.flume; from: org.apache.flume.sink.kite to: org.apache.flume.conf; from: org.apache.flume.sink.kite to: org.apache.flume.instrumentation; from: org.apache.flume.sink.elasticsearch to: org.apache.flume.event; from: org.apache.flume.sink.elasticsearch to: org.apache.flume; from: org.apache.flume.sink.elasticsearch to: org.apache.flume.conf; from: org.apache.flume.sink.elasticsearch to: org.apache.flume.sink.elasticsearch.client; from: org.apache.flume.sink.elasticsearch to: org.apache.flume.instrumentation; from: org.apache.flume.sink.elasticsearch.client to: org.apache.flume.sink.elasticsearch; from: org.apache.flume.sink.elasticsearch.client to: org.apache.flume; from: org.apache.flume.channel to: org.apache.flume.channel.file; from: org.apache.flume.channel to: org.apache.flume.conf; from: org.apache.flume.channel to: org.apache.flume.event; from: org.apache.flume.channel to: org.apache.flume.instrumentation; from: org.apache.flume.channel to: org.apache.flume.lifecycle; from: org.apache.flume.channel to: org.apache.flume; from: org.apache.flume.channel to: org.apache.flume.conf.channel; from: org.apache.flume.channel to: org.apache.flume.interceptor; from: org.apache.flume.channel.file to: org.apache.flume; from: org.apache.flume.channel.file to: org.apache.flume.conf; from: org.apache.flume.channel.file to: org.apache.flume.event; from: org.apache.flume.channel.file to: org.apache.flume.channel.file.proto; from: org.apache.flume.channel.file to: org.apache.flume.channel; from: org.apache.flume.channel.file to: org.apache.flume.sink; from: org.apache.flume.channel.file to: org.apache.flume.source; from: org.apache.flume.channel.file to: org.apache.flume.instrumentation; from: org.apache.flume.channel.file to: org.apache.flume.channel.file.encryption; from: org.apache.flume.channel.file.encryption to: org.apache.flume.channel.file; from: org.apache.flume.channel.file.encryption to: org.apache.flume; from: org.apache.flume.channel.jdbc to: org.apache.flume; from: org.apache.flume.channel.jdbc to: org.apache.flume.channel.jdbc.impl; from: org.apache.flume.channel.jdbc.impl to: org.apache.flume.channel.jdbc; from: org.apache.flume.channel.jdbc.impl to: org.apache.flume; from: org.apache.flume.source.scribe to: org.apache.flume.instrumentation; from: org.apache.flume.source.scribe to: org.apache.flume; from: org.apache.flume.source.twitter to: org.apache.flume; from: org.apache.flume.source.twitter to: org.apache.flume.sink; from: org.apache.flume.source.twitter to: org.apache.flume.channel; from: org.apache.flume.source.twitter to: org.apache.flume.conf; from: org.apache.flume.source.twitter to: org.apache.flume.event; from: org.apache.flume.source.jms to: org.apache.flume; from: org.apache.flume.source.jms to: org.apache.flume.channel; from: org.apache.flume.source.jms to: org.apache.flume.instrumentation; from: org.apache.flume.source.jms to: org.apache.flume.conf; from: org.apache.flume.tools to: org.apache.flume; from: org.apache.flume.tools to: org.apache.flume.channel.file; from: org.apache.flume.tools to: org.apache.flume.event; from: org.apache.flume.lifecycle to: org.apache.flume; from: org.apache.flume.formatter.output to: org.apache.flume; from: org.apache.flume.formatter.output to: org.apache.flume.tools; from: org.apache.flume.serialization to: org.apache.flume; from: org.apache.flume.serialization to: org.apache.flume.source; from: org.apache.flume.serialization to: org.apache.flume.event; from: org.apache.flume.serialization to: org.apache.flume.tools; from: org.apache.flume.interceptor to: org.apache.flume; from: org.apache.flume.interceptor to: org.apache.flume.event; from: org.apache.flume.interceptor to: org.apache.flume.channel; from: org.apache.flume.interceptor to: org.apache.flume.conf; from: org.apache.flume.event to: org.apache.flume; from: org.apache.flume.instrumentation.http to: org.apache.flume; from: org.apache.flume.instrumentation.http to: org.apache.flume.instrumentation; from: org.apache.flume.instrumentation.http to: org.apache.flume.conf; from: org.apache.flume.instrumentation.http to: org.apache.flume.event; from: org.apache.flume.instrumentation.http to: org.apache.flume.instrumentation.util; from: org.apache.flume.instrumentation to: org.apache.flume; from: org.apache.flume.instrumentation.util to: org.apache.flume; from: org.apache.flume.instrumentation.util to: org.apache.flume.conf; from: org.apache.flume.instrumentation.util to: org.apache.flume.event; from: org.apache.flume.sink to: org.apache.flume; from: org.apache.flume.sink to: org.apache.flume.api; from: org.apache.flume.sink to: org.apache.flume.source; from: org.apache.flume.sink to: org.apache.flume.lifecycle; from: org.apache.flume.sink to: org.apache.flume.conf; from: org.apache.flume.sink to: org.apache.flume.event; from: org.apache.flume.sink to: org.apache.flume.channel; from: org.apache.flume.sink to: org.apache.flume.conf.sink; from: org.apache.flume.sink to: org.apache.flume.instrumentation; from: org.apache.flume.sink to: org.apache.flume.serialization; from: org.apache.flume.sink to: org.apache.flume.formatter.output; from: org.apache.flume.sink to: org.apache.flume.util; from: org.apache.flume.client.avro to: org.apache.flume.source; from: org.apache.flume.client.avro to: org.apache.flume; from: org.apache.flume.client.avro to: org.apache.flume.serialization; from: org.apache.flume.client.avro to: org.apache.flume.event; from: org.apache.flume.client.avro to: org.apache.flume.api; from: org.apache.flume.client.avro to: org.apache.flume.tools; from: org.apache.flume.source.http to: org.apache.flume.event; from: org.apache.flume.source.http to: org.apache.flume.conf; from: org.apache.flume.source.http to: org.apache.flume; from: org.apache.flume.source.http to: org.apache.flume.instrumentation; from: org.apache.flume.source.http to: org.apache.flume.tools; from: org.apache.flume.source.avroLegacy to: org.apache.flume; from: org.apache.flume.source.avroLegacy to: org.apache.flume.lifecycle; from: org.apache.flume.source.avroLegacy to: org.apache.flume.conf; from: org.apache.flume.source.avroLegacy to: org.apache.flume.event; from: org.apache.flume.source.thriftLegacy to: org.apache.flume; from: org.apache.flume.source.thriftLegacy to: com.cloudera.flume.handlers.thrift; from: org.apache.flume.source.thriftLegacy to: org.apache.flume.lifecycle; from: org.apache.flume.source.thriftLegacy to: org.apache.flume.conf; from: org.apache.flume.test.agent to: org.apache.flume.test.util; from: org.apache.flume.test.agent to: org.apache.flume.api; from: org.apache.flume.test.agent to: org.apache.flume.event; from: org.apache.flume.agent.embedded to: org.apache.flume.node; from: org.apache.flume.agent.embedded to: org.apache.flume; from: org.apache.flume.agent.embedded to: org.apache.flume.lifecycle; from: org.apache.flume.agent.embedded to: org.apache.flume.event; from: org.apache.flume.agent.embedded to: org.apache.flume.conf.channel; from: org.apache.flume.agent.embedded to: org.apache.flume.conf.sink; from: org.apache.flume.agent.embedded to: org.apache.flume.conf; from: org.apache.flume.api to: org.apache.flume.event; from: org.apache.flume.api to: org.apache.flume.thrift; from: org.apache.flume.api to: org.apache.flume; from: org.apache.flume.api to: org.apache.flume.util.
flume,org.apache.flume.conf.source,Cyclic Dependency,The tool detected the smell in this component because this component participates in a cyclic dependency. The participating components in the cycle are: org.apache.flume.conf.source; org.apache.flume; org.apache.flume.channel; org.apache.flume.channel.file; org.apache.flume.source
flume,org.apache.flume.conf.sink,Cyclic Dependency,The tool detected the smell in this component because this component participates in a cyclic dependency. The participating components in the cycle are: org.apache.flume.conf.sink; org.apache.flume; org.apache.flume.channel; org.apache.flume.channel.file; org.apache.flume.sink
flume,org.apache.flume.conf.sink,Feature Concentration,The tool detected the smell in this component because the component realizes more than one architectural concern/feature. Independent sets of related classes within this component are: [SinkProcessorType; SinkGroupConfiguration; SinkProcessorConfiguration]; [SinkConfiguration]; [SinkConfiguration.SinkConfigurationType]; [SinkProcessorConfiguration.SinkProcessorConfigurationType]; [SinkType]. LCC (Lack of Component Cohesion) = 0.71
flume,org.apache.flume.conf.channel,Cyclic Dependency,The tool detected the smell in this component because this component participates in a cyclic dependency. The participating components in the cycle are: org.apache.flume.conf.channel; org.apache.flume; org.apache.flume.channel
flume,org.apache.flume.conf.channel,Feature Concentration,The tool detected the smell in this component because the component realizes more than one architectural concern/feature. Independent sets of related classes within this component are: [ChannelSelectorType; ChannelSelectorConfiguration]; [ChannelSelectorConfiguration.ChannelSelectorConfigurationType]; [ChannelConfiguration]; [ChannelConfiguration.ChannelConfigurationType]; [ChannelType]. LCC (Lack of Component Cohesion) = 0.83
flume,org.apache.flume,God Component,The tool detected the smell in this component because the component contains high number of classes. Number of classes in the component are: 31
flume,org.apache.flume,Cyclic Dependency,The tool detected the smell in this component because this component participates in a cyclic dependency. The participating components in the cycle are: org.apache.flume; org.apache.flume.lifecycle
flume,org.apache.flume,Cyclic Dependency,The tool detected the smell in this component because this component participates in a cyclic dependency. The participating components in the cycle are: org.apache.flume; org.apache.flume.channel; org.apache.flume.channel.file
flume,org.apache.flume,Cyclic Dependency,The tool detected the smell in this component because this component participates in a cyclic dependency. The participating components in the cycle are: org.apache.flume; org.apache.flume.channel; org.apache.flume.channel.file; org.apache.flume.conf
flume,org.apache.flume,Unstable Dependency,The tool detected the smell in this component because this component depends on other components that are less stable than itself. This component depends on following less stable component(s): org.apache.flume.lifecycle; org.apache.flume.channel
flume,org.apache.flume,Feature Concentration,The tool detected the smell in this component because the component realizes more than one architectural concern/feature. Independent sets of related classes within this component are: [Context; TestContext]; [TestCounterGroup; CounterGroup; Sink; SinkRunner; SinkRunner.PollingRunner; SinkProcessor; Channel; ChannelFactory; ChannelException; Transaction; NamedComponent; SinkFactory; FlumeException; Event; EventDeliveryException; ChannelSelector; ChannelFullException; SourceFactory; Source; EventDrivenSource; SourceRunner; PollableSource]; [Sink.Status]; [SystemClock; Clock]; [PollableSource.Status]; [Constants]; [Transaction.TransactionState]; [Dummy]. LCC (Lack of Component Cohesion) = 0.26
flume,org.apache.flume.clients.log4jappender,Feature Concentration,The tool detected the smell in this component because the component realizes more than one architectural concern/feature. Independent sets of related classes within this component are: [TestLog4jAppenderWithAvro; Log4jAvroHeaders; Log4jAppender; TestLog4jAppender; TestLoadBalancingLog4jAppender; LoadBalancingLog4jAppender]; [TestLog4jAppenderWithAvro.AppEvent]; [TestLog4jAppender.SlowMemoryChannel]; [TestLoadBalancingLog4jAppender.CountingAvroSource]. LCC (Lack of Component Cohesion) = 0.44
flume,org.apache.flume.node,Feature Concentration,The tool detected the smell in this component because the component realizes more than one architectural concern/feature. Independent sets of related classes within this component are: [TestPollingPropertiesFileConfigurationProvider; PollingPropertiesFileConfigurationProvider; MaterializedConfiguration; Application; SimpleMaterializedConfiguration; ConfigurationProvider; TestApplication; TestPropertiesFileConfigurationProvider; PropertiesFileConfigurationProvider; AbstractConfigurationProvider; TestAbstractConfigurationProvider; TestAbstractConfigurationProvider.MemoryConfigurationProvider]; [TestAbstractConfigurationProvider.DisposableChannel]; [TestAbstractConfigurationProvider.RecyclableChannel]; [TestAbstractConfigurationProvider.UnspecifiedChannel]; [TestAbstractConfigurationProvider.UnconfigurableChannel]; [TestAbstractConfigurationProvider.UnconfigurableSource]; [TestAbstractConfigurationProvider.UnconfigurableSink]; [PollingPropertiesFileConfigurationProvider.FileWatcherRunnable]; [AbstractConfigurationProvider.ChannelComponent]. LCC (Lack of Component Cohesion) = 0.45
flume,org.apache.flume.source,God Component,The tool detected the smell in this component because the component contains high number of classes. Number of classes in the component are: 63
flume,org.apache.flume.source,Cyclic Dependency,The tool detected the smell in this component because this component participates in a cyclic dependency. The participating components in the cycle are: org.apache.flume.source; org.apache.flume.serialization
flume,org.apache.flume.source,Cyclic Dependency,The tool detected the smell in this component because this component participates in a cyclic dependency. The participating components in the cycle are: org.apache.flume.source; org.apache.flume.channel; org.apache.flume.channel.file
flume,org.apache.flume.source,Cyclic Dependency,The tool detected the smell in this component because this component participates in a cyclic dependency. The participating components in the cycle are: org.apache.flume.source; org.apache.flume; org.apache.flume.channel; org.apache.flume.channel.file
flume,org.apache.flume.source,Cyclic Dependency,The tool detected the smell in this component because this component participates in a cyclic dependency. The participating components in the cycle are: org.apache.flume.source; org.apache.flume; org.apache.flume.channel; org.apache.flume.channel.file; org.apache.flume.sink
flume,org.apache.flume.source,Unstable Dependency,The tool detected the smell in this component because this component depends on other components that are less stable than itself. This component depends on following less stable component(s): org.apache.flume.conf.source; org.apache.flume.client.avro
flume,org.apache.flume.source,Feature Concentration,The tool detected the smell in this component because the component realizes more than one architectural concern/feature. Independent sets of related classes within this component are: [TestNetcatSource; NetcatSource; NetcatSourceConfigurationConstants; AbstractSource; SyslogUDPSource; AvroSource; SequenceGeneratorSource; SyslogUtils; TestSyslogUtils; TestSyslogUdpSource; TestAvroSource; TestSpoolDirectorySource; SpoolDirectorySourceConfigurationConstants; SpoolDirectorySource; TestSequenceGeneratorSource; TestThriftSource; ThriftSource; TestExecSource; ExecSourceConfigurationConstants; ExecSource; TestStressSource; StressSource; TestMultiportSyslogTCPSource; SyslogSourceConfigurationConstants; SyslogTcpSource; MultiportSyslogTCPSource; SyslogUDPSource.syslogHandler; TestSyslogTcpSource; TestSyslogParser; SyslogParser; MultiportSyslogTCPSource.MultiportSyslogHandler; SyslogTcpSource.syslogTcpHandler]; [TestAvroSource.CompressionChannelFactory]; [TestAvroSource.SSLChannelFactory]; [TestAvroSource.PermissiveTrustManager]; [TestAbstractPollableSource; AbstractPollableSource; BasicSourceSemantics; AbstractEventDrivenSource; TestBasicSourceSemantics; TestBasicSourceSemantics.DoNothingSource]; [MockSource]; [TestPollableSourceRunner; PollableSourceRunner]; [TestThriftSource.SubmitHelper]; [TestDefaultSourceFactory; DefaultSourceFactory]; [NetcatSource.AcceptHandler]; [NetcatSource.NetcatSocketHandler]; [SpoolDirectorySourceConfigurationConstants.ConsumeOrder]; [SpoolDirectorySource.SpoolDirectoryRunnable]; [ExecSource.ExecRunnable]; [ExecSource.StderrReader]; [MultiportSyslogTCPSource.LineSplitter]; [MultiportSyslogTCPSource.ParsedBuffer]; [MultiportSyslogTCPSource.ThreadSafeDecoder]; [EventDrivenSourceRunner]; [ThriftSource.ThriftSourceHandler]; [PollableSourceRunner.PollingRunner]; [AvroSource.AdvancedChannelPipelineFactory]; [SyslogUtils.SyslogFormatter]; [SyslogUtils.Mode]; [SyslogUtils.SyslogStatus]. LCC (Lack of Component Cohesion) = 0.4
flume,org.apache.flume.sink.hbase,Feature Concentration,The tool detected the smell in this component because the component realizes more than one architectural concern/feature. Independent sets of related classes within this component are: [MockSimpleHbaseEventSerializer; TestHBaseSink; HBaseSink; HbaseEventSerializer; SimpleHbaseEventSerializer; RegexHbaseEventSerializer; HBaseSinkConfigurationConstants; HBaseSinkSecurityManager; TestRegexHbaseEventSerializer; IncrementHBaseSerializer; BatchAware; TestAsyncHBaseSink; AsyncHBaseSink; TestHBaseSink.CoalesceValidator; SimpleRowKeyGenerator; SimpleAsyncHbaseEventSerializer]; [IncrementAsyncHBaseSerializer; AsyncHbaseEventSerializer]; [TestHBaseSinkCreation]; [HBaseSink.DebugIncrementsCallback]; [SimpleHbaseEventSerializer.KeyType]; [AsyncHBaseSink.SuccessCallback]; [AsyncHBaseSink.FailureCallback]; [AsyncHBaseSink.CellIdentifier]. LCC (Lack of Component Cohesion) = 0.33
flume,org.apache.flume.sink.hdfs,God Component,The tool detected the smell in this component because the component contains high number of classes. Number of classes in the component are: 41
flume,org.apache.flume.sink.hdfs,Feature Concentration,The tool detected the smell in this component because the component realizes more than one architectural concern/feature. Independent sets of related classes within this component are: [TestHDFSCompressedDataStream; HDFSCompressedDataStream; TestBucketWriter; MockHDFSWriter; MockFileSystem; TestHDFSEventSink; MockFsDataOutputStream; MockDataStream; HDFSWriter; BucketWriter; HDFSEventSink; AbstractHDFSWriter; HDFSDataStream; HDFSWriterFactory; HDFSTextSerializer; SequenceFileSerializer; HDFSSequenceFile; SequenceFileSerializerFactory; TestHDFSEventSinkOnMiniCluster; HDFSTestWriterFactory; TestUseRawLocalFileSystem; HDFSBadDataStream; HDFSBadDataStream.HDFSBadSeqWriter; TestSequenceFileSerializerFactory; MyCustomSerializer; MyCustomSerializer.Builder; HDFSTestSeqWriter; SequenceFileSerializerType; HDFSWritableSerializer; HDFSWritableSerializer.Builder; KerberosUser; HDFSTextSerializer.Builder]; [TestAvroEventSerializer; AvroEventSerializer]; [AvroEventSerializer.Builder]; [BucketWriter.CallRunner]; [HDFSEventSink.WriterCallback]; [HDFSEventSink.WriterLinkedHashMap]; [BucketClosedException]; [SequenceFileSerializer.Builder]; [SequenceFileSerializer.Record]. LCC (Lack of Component Cohesion) = 0.22
flume,org.apache.flume.sink.solr.morphline,Feature Concentration,The tool detected the smell in this component because the component realizes more than one architectural concern/feature. Independent sets of related classes within this component are: [FlumeHttpServletRequestWrapper; TestBlobHandler; BlobHandler]; [TestMorphlineInterceptor; MorphlineHandlerImpl; MorphlineInterceptor; MorphlineInterceptor.LocalMorphlineInterceptor; TestMorphlineSolrSink; EmbeddedSource; MorphlineSink; TestMorphlineSolrSink.MySolrSink; MorphlineSolrSink; MorphlineHandler]; [TestUUIDInterceptor; UUIDInterceptor]; [TestEnvironment]; [TestMorphlineSolrSink.MySolrLocator]; [TestBlobDeserializer; ResettableTestStringInputStream; BlobDeserializer]; [UUIDInterceptor.Builder]; [BlobDeserializer.Builder]; [MorphlineInterceptor.Builder]; [MorphlineInterceptor.Collector]. LCC (Lack of Component Cohesion) = 0.42
flume,org.apache.flume.sink.elasticsearch,Cyclic Dependency,The tool detected the smell in this component because this component participates in a cyclic dependency. The participating components in the cycle are: org.apache.flume.sink.elasticsearch; org.apache.flume.sink.elasticsearch.client
flume,org.apache.flume.sink.elasticsearch,Unstable Dependency,The tool detected the smell in this component because this component depends on other components that are less stable than itself. This component depends on following less stable component(s): org.apache.flume.sink.elasticsearch.client
flume,org.apache.flume.sink.elasticsearch.client,Cyclic Dependency,The tool detected the smell in this component because this component participates in a cyclic dependency. The participating components in the cycle are: org.apache.flume.sink.elasticsearch.client; org.apache.flume.sink.elasticsearch
flume,org.apache.flume.channel,God Component,The tool detected the smell in this component because the component contains high number of classes. Number of classes in the component are: 40
flume,org.apache.flume.channel,Cyclic Dependency,The tool detected the smell in this component because this component participates in a cyclic dependency. The participating components in the cycle are: org.apache.flume.channel; org.apache.flume.channel.file
flume,org.apache.flume.channel,Cyclic Dependency,The tool detected the smell in this component because this component participates in a cyclic dependency. The participating components in the cycle are: org.apache.flume.channel; org.apache.flume.channel.file; org.apache.flume
flume,org.apache.flume.channel,Cyclic Dependency,The tool detected the smell in this component because this component participates in a cyclic dependency. The participating components in the cycle are: org.apache.flume.channel; org.apache.flume.channel.file; org.apache.flume.conf; org.apache.flume
flume,org.apache.flume.channel,Unstable Dependency,The tool detected the smell in this component because this component depends on other components that are less stable than itself. This component depends on following less stable component(s): org.apache.flume.channel.file; org.apache.flume.interceptor
flume,org.apache.flume.channel,Feature Concentration,The tool detected the smell in this component because the component realizes more than one architectural concern/feature. Independent sets of related classes within this component are: [TestSpillableMemoryChannel; SpillableMemoryChannel; BasicTransactionSemantics; MemoryChannel; MemoryChannel.MemoryTransaction; AbstractChannel; BasicChannelSemantics; PseudoTxnMemoryChannel; SpillableMemoryChannel.SpillableMemoryTransaction; MockEvent; TestReplicatingChannelSelector; TestMultiplexingChannelSelector; MockChannel; ChannelSelectorFactory; ReplicatingChannelSelector; AbstractChannelSelector; MultiplexingChannelSelector; TestMemoryChannelConcurrency; TestMemoryChannelTransaction; TestChannelProcessor; ChannelProcessor; TestMemoryChannel; AbstractBasicChannelSemanticsTest.TestChannel; AbstractBasicChannelSemanticsTest.TestTransaction]; [TestSpillableMemoryChannel.NullFound]; [TestSpillableMemoryChannel.TooManyNulls]; [TestSpillableMemoryChannel.StopWatch]; [SpillableMemoryChannel.MutableInteger]; [SpillableMemoryChannel.DrainOrderQueue]; [TestBasicChannelSemantics; AbstractBasicChannelSemanticsTest; TestChannelUtils; ChannelUtils]; [AbstractBasicChannelSemanticsTest.Mode]; [AbstractBasicChannelSemanticsTest.TestError]; [AbstractBasicChannelSemanticsTest.TestRuntimeException]; [MockChannel.MockTransaction]; [BasicTransactionSemantics.State]; [PseudoTxnMemoryChannel.NoOpTransaction]; [DefaultChannelFactory]. LCC (Lack of Component Cohesion) = 0.35
flume,org.apache.flume.channel.file,God Component,The tool detected the smell in this component because the component contains high number of classes. Number of classes in the component are: 78
flume,org.apache.flume.channel.file,Cyclic Dependency,The tool detected the smell in this component because this component participates in a cyclic dependency. The participating components in the cycle are: org.apache.flume.channel.file; org.apache.flume.channel
flume,org.apache.flume.channel.file,Cyclic Dependency,The tool detected the smell in this component because this component participates in a cyclic dependency. The participating components in the cycle are: org.apache.flume.channel.file; org.apache.flume; org.apache.flume.channel
flume,org.apache.flume.channel.file,Cyclic Dependency,The tool detected the smell in this component because this component participates in a cyclic dependency. The participating components in the cycle are: org.apache.flume.channel.file; org.apache.flume.conf; org.apache.flume; org.apache.flume.channel
flume,org.apache.flume.channel.file,Unstable Dependency,The tool detected the smell in this component because this component depends on other components that are less stable than itself. This component depends on following less stable component(s): org.apache.flume.sink
flume,org.apache.flume.channel.file.encryption,Cyclic Dependency,The tool detected the smell in this component because this component participates in a cyclic dependency. The participating components in the cycle are: org.apache.flume.channel.file.encryption; org.apache.flume.channel.file
flume,org.apache.flume.channel.file.encryption,Unstable Dependency,The tool detected the smell in this component because this component depends on other components that are less stable than itself. This component depends on following less stable component(s): org.apache.flume.channel.file
flume,org.apache.flume.channel.file.encryption,Feature Concentration,The tool detected the smell in this component because the component realizes more than one architectural concern/feature. Independent sets of related classes within this component are: [CipherProviderTestSuite; TestAESCTRNoPaddingProvider; CipherProviderType; CipherProvider; CipherProviderFactory; AESCTRNoPaddingProvider; AESCTRNoPaddingProvider.EncryptorBuilder; AESCTRNoPaddingProvider.DecryptorBuilder; TestFileChannelEncryption; EncryptionTestUtils; TestJCEFileKeyProvider; EncryptionConfiguration; KeyProviderFactory; KeyProviderType; JCEFileKeyProvider; JCEFileKeyProvider.Builder; KeyProvider; DecryptionFailureException]; [CipherProvider.Encryptor]; [CipherProvider.Builder]; [CipherProvider.Decryptor]; [CipherProvider.Builder]; [KeyProvider.Builder]; [AESCTRNoPaddingProvider.AESCTRNoPaddingEncryptor]; [AESCTRNoPaddingProvider.AESCTRNoPaddingDecryptor]. LCC (Lack of Component Cohesion) = 0.32
flume,org.apache.flume.channel.file.proto,God Component,The tool detected the smell in this component because the component contains high number of classes. Number of classes in the component are: 37
flume,org.apache.flume.channel.file.proto,Feature Concentration,The tool detected the smell in this component because the component realizes more than one architectural concern/feature. Independent sets of related classes within this component are: [ProtosFactory; ProtosFactory.CheckpointOrBuilder; ProtosFactory.Checkpoint; ProtosFactory.Builder; ProtosFactory.ActiveLog; ProtosFactory.Builder; ProtosFactory.LogFileMetaDataOrBuilder; ProtosFactory.LogFileMetaData; ProtosFactory.Builder; ProtosFactory.LogFileEncryption; ProtosFactory.Builder; ProtosFactory.TransactionEventHeader; ProtosFactory.Builder; ProtosFactory.PutOrBuilder; ProtosFactory.Put; ProtosFactory.Builder; ProtosFactory.Take; ProtosFactory.Builder; ProtosFactory.Rollback; ProtosFactory.Builder; ProtosFactory.Commit; ProtosFactory.Builder; ProtosFactory.TransactionEventFooter; ProtosFactory.Builder; ProtosFactory.FlumeEventOrBuilder; ProtosFactory.FlumeEvent; ProtosFactory.Builder; ProtosFactory.FlumeEventHeader; ProtosFactory.Builder]; [ProtosFactory.ActiveLogOrBuilder]; [ProtosFactory.LogFileEncryptionOrBuilder]; [ProtosFactory.TransactionEventHeaderOrBuilder]; [ProtosFactory.TakeOrBuilder]; [ProtosFactory.RollbackOrBuilder]; [ProtosFactory.CommitOrBuilder]; [ProtosFactory.TransactionEventFooterOrBuilder]; [ProtosFactory.FlumeEventHeaderOrBuilder]. LCC (Lack of Component Cohesion) = 0.24
flume,org.apache.flume.channel.jdbc,Cyclic Dependency,The tool detected the smell in this component because this component participates in a cyclic dependency. The participating components in the cycle are: org.apache.flume.channel.jdbc; org.apache.flume.channel.jdbc.impl
flume,org.apache.flume.channel.jdbc,Feature Concentration,The tool detected the smell in this component because the component realizes more than one architectural concern/feature. Independent sets of related classes within this component are: [MockEvent; BaseJdbcChannelProviderTest; MockEventUtils; ConfigurationConstants; TestJdbcChannelProvider; TestJdbcChannelProviderNoFK; TestPersistentEvent]; [TestDerbySchemaHandlerQueries]; [BaseJdbcChannelProviderTest.MockSink]; [BaseJdbcChannelProviderTest.MockSource]; [TestTransactionIsolationLevelEnum; TransactionIsolation]; [TestDatabaseTypeEnum; DatabaseType]; [JdbcChannelException]; [JdbcChannelProvider; JdbcChannelProviderFactory; JdbcChannel]. LCC (Lack of Component Cohesion) = 0.44
flume,org.apache.flume.channel.jdbc.impl,Cyclic Dependency,The tool detected the smell in this component because this component participates in a cyclic dependency. The participating components in the cycle are: org.apache.flume.channel.jdbc.impl; org.apache.flume.channel.jdbc
flume,org.apache.flume.channel.jdbc.impl,Unstable Dependency,The tool detected the smell in this component because this component depends on other components that are less stable than itself. This component depends on following less stable component(s): org.apache.flume.channel.jdbc
flume,org.apache.flume.channel.jdbc.impl,Feature Concentration,The tool detected the smell in this component because the component realizes more than one architectural concern/feature. Independent sets of related classes within this component are: [JdbcTransactionImpl; JdbcTransactionFactory; JdbcChannelProviderImpl; SchemaHandler; DerbySchemaHandler; SchemaHandlerFactory; PersistableEvent; MySQLSchemaHandler]; [PersistableEvent.HeaderEntry]; [PersistableEvent.SpillableString]; [PersistableEvent.Builder]; [PersistableEvent.HeaderPart]. LCC (Lack of Component Cohesion) = 0.42
flume,org.apache.flume.source.scribe,Feature Concentration,The tool detected the smell in this component because the component realizes more than one architectural concern/feature. Independent sets of related classes within this component are: [LogEntry]; [LogEntry._Fields]; [ScribeSource; ResultCode; Scribe; Scribe.Log_result; ScribeSource.Startup; ScribeSource.Receiver]; [Scribe.Iface]; [Scribe.AsyncIface]; [Scribe.Client]; [Scribe.Factory]; [Scribe.AsyncClient]; [Scribe.Factory]; [Scribe.Log_call]; [Scribe.Processor]; [Scribe.Log]; [Scribe.Log_args]; [Scribe._Fields]; [Scribe._Fields]. LCC (Lack of Component Cohesion) = 0.75
flume,org.apache.flume.tools,Cyclic Dependency,The tool detected the smell in this component because this component participates in a cyclic dependency. The participating components in the cycle are: org.apache.flume.tools; org.apache.flume.channel.file; org.apache.flume.sink; org.apache.flume.serialization
flume,org.apache.flume.tools,Cyclic Dependency,The tool detected the smell in this component because this component participates in a cyclic dependency. The participating components in the cycle are: org.apache.flume.tools; org.apache.flume.channel.file; org.apache.flume.sink; org.apache.flume.source; org.apache.flume.serialization
flume,org.apache.flume.tools,Unstable Dependency,The tool detected the smell in this component because this component depends on other components that are less stable than itself. This component depends on following less stable component(s): org.apache.flume.channel.file
flume,org.apache.flume.tools,Feature Concentration,The tool detected the smell in this component because the component realizes more than one architectural concern/feature. Independent sets of related classes within this component are: [TestVersionInfo; VersionInfo]; [TestTimestampRoundDownUtil; TimestampRoundDownUtil]; [PlatformDetect]; [HTTPServerConstraintUtil]; [DirectMemoryUtils]; [GetJavaProperty]; [TestFileChannelIntegrityTool; FileChannelIntegrityTool; FlumeTool; FlumeToolType; FlumeToolsMain]. LCC (Lack of Component Cohesion) = 0.54
flume,org.apache.flume.lifecycle,Cyclic Dependency,The tool detected the smell in this component because this component participates in a cyclic dependency. The participating components in the cycle are: org.apache.flume.lifecycle; org.apache.flume
flume,org.apache.flume.lifecycle,Cyclic Dependency,The tool detected the smell in this component because this component participates in a cyclic dependency. The participating components in the cycle are: org.apache.flume.lifecycle; org.apache.flume; org.apache.flume.channel
flume,org.apache.flume.lifecycle,Feature Concentration,The tool detected the smell in this component because the component realizes more than one architectural concern/feature. Independent sets of related classes within this component are: [TestLifecycleController; LifecycleState; LifecycleController; LifecycleAware; LifecycleException; TestLifecycleController.SleeperLifecycleDelegate; TestLifecycleSupervisor; LifecycleSupervisor; TestLifecycleSupervisor.CountingLifecycleAware; LifecycleSupervisor.MonitorRunnable; LifecycleSupervisor.Status]; [LifecycleSupervisor.Purger]; [LifecycleSupervisor.SupervisorPolicy]; [LifecycleSupervisor.AlwaysRestartPolicy]; [LifecycleSupervisor.OnceOnlyPolicy]; [LifecycleSupervisor.Supervisoree]. LCC (Lack of Component Cohesion) = 0.38
flume,org.apache.flume.formatter.output,Cyclic Dependency,The tool detected the smell in this component because this component participates in a cyclic dependency. The participating components in the cycle are: org.apache.flume.formatter.output; org.apache.flume.tools; org.apache.flume.channel.file; org.apache.flume.sink
flume,org.apache.flume.formatter.output,Cyclic Dependency,The tool detected the smell in this component because this component participates in a cyclic dependency. The participating components in the cycle are: org.apache.flume.formatter.output; org.apache.flume; org.apache.flume.channel; org.apache.flume.channel.file; org.apache.flume.sink
flume,org.apache.flume.formatter.output,Unstable Dependency,The tool detected the smell in this component because this component depends on other components that are less stable than itself. This component depends on following less stable component(s): org.apache.flume.tools
flume,org.apache.flume.serialization,God Component,The tool detected the smell in this component because the component contains high number of classes. Number of classes in the component are: 46
flume,org.apache.flume.serialization,Cyclic Dependency,The tool detected the smell in this component because this component participates in a cyclic dependency. The participating components in the cycle are: org.apache.flume.serialization; org.apache.flume.source
flume,org.apache.flume.serialization,Cyclic Dependency,The tool detected the smell in this component because this component participates in a cyclic dependency. The participating components in the cycle are: org.apache.flume.serialization; org.apache.flume.source; org.apache.flume.client.avro
flume,org.apache.flume.serialization,Cyclic Dependency,The tool detected the smell in this component because this component participates in a cyclic dependency. The participating components in the cycle are: org.apache.flume.serialization; org.apache.flume; org.apache.flume.channel; org.apache.flume.channel.file; org.apache.flume.sink
flume,org.apache.flume.serialization,Unstable Dependency,The tool detected the smell in this component because this component depends on other components that are less stable than itself. This component depends on following less stable component(s): org.apache.flume.source; org.apache.flume.tools
flume,org.apache.flume.interceptor,God Component,The tool detected the smell in this component because the component contains high number of classes. Number of classes in the component are: 33
flume,org.apache.flume.interceptor,Cyclic Dependency,The tool detected the smell in this component because this component participates in a cyclic dependency. The participating components in the cycle are: org.apache.flume.interceptor; org.apache.flume.channel
flume,org.apache.flume.interceptor,Cyclic Dependency,The tool detected the smell in this component because this component participates in a cyclic dependency. The participating components in the cycle are: org.apache.flume.interceptor; org.apache.flume; org.apache.flume.channel
flume,org.apache.flume.interceptor,Cyclic Dependency,The tool detected the smell in this component because this component participates in a cyclic dependency. The participating components in the cycle are: org.apache.flume.interceptor; org.apache.flume.event; org.apache.flume; org.apache.flume.channel
flume,org.apache.flume.interceptor,Feature Concentration,The tool detected the smell in this component because the component realizes more than one architectural concern/feature. Independent sets of related classes within this component are: [TestHostInterceptor; InterceptorType; InterceptorBuilderFactory; Interceptor; StaticInterceptor; StaticInterceptor.Builder; TestRegexFilteringInterceptor; TestStaticInterceptor; TestTimestampInterceptor; TestRegexExtractorInterceptor; RegexExtractorInterceptor; TestCensoringInterceptor; CensoringInterceptor; CensoringInterceptor.Builder; HostInterceptor; HostInterceptor.Builder; InterceptorChain; RegexFilteringInterceptor; RegexFilteringInterceptor.Builder; TimestampInterceptor; TimestampInterceptor.Builder; RegexExtractorInterceptor.Builder]; [TestRegexExtractorInterceptorPassThroughSerializer; RegexExtractorInterceptorPassThroughSerializer; RegexExtractorInterceptorSerializer; TestRegexExtractorInterceptorMillisSerializer; RegexExtractorInterceptorMillisSerializer; RegexExtractorInterceptor.NameAndSerializer]; [HostInterceptor.Constants]; [RegexFilteringInterceptor.Constants]; [TimestampInterceptor.Constants]; [Interceptor.Builder]; [StaticInterceptor.Constants]. LCC (Lack of Component Cohesion) = 0.21
flume,org.apache.flume.event,Cyclic Dependency,The tool detected the smell in this component because this component participates in a cyclic dependency. The participating components in the cycle are: org.apache.flume.event; org.apache.flume; org.apache.flume.channel
flume,org.apache.flume.event,Cyclic Dependency,The tool detected the smell in this component because this component participates in a cyclic dependency. The participating components in the cycle are: org.apache.flume.event; org.apache.flume; org.apache.flume.channel; org.apache.flume.channel.file
flume,org.apache.flume.event,Feature Concentration,The tool detected the smell in this component because the component realizes more than one architectural concern/feature. Independent sets of related classes within this component are: [TestEventHelper; EventHelper; SimpleEvent; EventBuilder; TestEventBuilder]; [JSONEvent]. LCC (Lack of Component Cohesion) = 0.33
flume,org.apache.flume.instrumentation,Cyclic Dependency,The tool detected the smell in this component because this component participates in a cyclic dependency. The participating components in the cycle are: org.apache.flume.instrumentation; org.apache.flume; org.apache.flume.channel
flume,org.apache.flume.instrumentation,Cyclic Dependency,The tool detected the smell in this component because this component participates in a cyclic dependency. The participating components in the cycle are: org.apache.flume.instrumentation; org.apache.flume; org.apache.flume.channel; org.apache.flume.channel.file
flume,org.apache.flume.instrumentation,Feature Concentration,The tool detected the smell in this component because the component realizes more than one architectural concern/feature. Independent sets of related classes within this component are: [TestMonitoredCounterGroup; SinkCounter; SinkCounterMBean; MonitoredCounterGroup; SinkProcessorCounter; SourceCounter; ChannelProcessorCounter; ChannelCounter; ChannelCounterMBean; SourceCounterMBean]; [MonitoredCounterGroup.Type]; [MonitoringType]; [GangliaServer; GangliaServer.GangliaCollector; MonitorService]. LCC (Lack of Component Cohesion) = 0.27
flume,org.apache.flume.sink,God Component,The tool detected the smell in this component because the component contains high number of classes. Number of classes in the component are: 35
flume,org.apache.flume.sink,Cyclic Dependency,The tool detected the smell in this component because this component participates in a cyclic dependency. The participating components in the cycle are: org.apache.flume.sink; org.apache.flume.channel; org.apache.flume.channel.file
flume,org.apache.flume.sink,Cyclic Dependency,The tool detected the smell in this component because this component participates in a cyclic dependency. The participating components in the cycle are: org.apache.flume.sink; org.apache.flume; org.apache.flume.channel; org.apache.flume.channel.file
flume,org.apache.flume.sink,Cyclic Dependency,The tool detected the smell in this component because this component participates in a cyclic dependency. The participating components in the cycle are: org.apache.flume.sink; org.apache.flume.api; org.apache.flume; org.apache.flume.channel; org.apache.flume.channel.file
flume,org.apache.flume.sink,Feature Concentration,The tool detected the smell in this component because the component realizes more than one architectural concern/feature. Independent sets of related classes within this component are: [TestAvroSink; AvroSink; TestThriftSink; ThriftSink; AbstractRpcSink; AbstractSink; NullSink; RollingFileSink; LoggerSink; TestRollingFileSink; TestLoadBalancingSinkProcessor.MockSink; TestLoggerSink]; [TestAvroSink.MockAvroServer]; [TestAvroSink.DelayMockAvroServer]; [TestAvroSink.SSLChannelPipelineFactory]; [TestFailoverSinkProcessor; SinkGroup; SinkProcessorFactoryTest; DefaultSinkFactory; SinkProcessorFactory; TestDefaultSinkFactory]; [TestFailoverSinkProcessor.ConsumeXSink]; [FixedOrderSelector; TestLoadBalancingSinkProcessor; LoadBalancingSinkProcessor; AbstractSinkSelector; AbstractSinkProcessor; FailoverSinkProcessor; LoadBalancingSinkProcessor.RoundRobinSinkSelector; LoadBalancingSinkProcessor.RandomOrderSinkSelector]; [TestLoadBalancingSinkProcessor.MockChannel]; [TestLoadBalancingSinkProcessor.MockEvent]; [DefaultSinkProcessor]; [LoadBalancingSinkProcessor.SinkSelector]; [FailoverSinkProcessor.FailedSink]. LCC (Lack of Component Cohesion) = 0.34
flume,org.apache.flume.client.avro,Cyclic Dependency,The tool detected the smell in this component because this component participates in a cyclic dependency. The participating components in the cycle are: org.apache.flume.client.avro; org.apache.flume.source
flume,org.apache.flume.client.avro,Cyclic Dependency,The tool detected the smell in this component because this component participates in a cyclic dependency. The participating components in the cycle are: org.apache.flume.client.avro; org.apache.flume.serialization; org.apache.flume.source
flume,org.apache.flume.client.avro,Feature Concentration,The tool detected the smell in this component because the component realizes more than one architectural concern/feature. Independent sets of related classes within this component are: [TestReliableSpoolingFileEventReader; ReliableEventReader; ReliableSpoolingFileEventReader; EventReader; TestBufferedLineReader; SimpleTextLineEventReader; AvroCLIClient; TestSpoolingFileLineReader]; [ReliableSpoolingFileEventReader.FileInfo]; [ReliableSpoolingFileEventReader.DeletePolicy]; [ReliableSpoolingFileEventReader.Builder]. LCC (Lack of Component Cohesion) = 0.36
flume,org.apache.flume.source.http,Feature Concentration,The tool detected the smell in this component because the component realizes more than one architectural concern/feature. Independent sets of related classes within this component are: [FlumeHttpServletRequestWrapper; TestJSONHandler; JSONHandler; HTTPSourceHandler; HTTPBadRequestException; HTTPSource; TestHTTPSource; HTTPSourceConfigurationConstants]; [TestHTTPSource.ResultWrapper]; [HTTPSource.FlumeHTTPServlet]. LCC (Lack of Component Cohesion) = 0.3
flume,com.cloudera.flume.handlers.thrift,Feature Concentration,The tool detected the smell in this component because the component realizes more than one architectural concern/feature. Independent sets of related classes within this component are: [Priority; ThriftFlumeEvent; ThriftFlumeEventServer; ThriftFlumeEventServer.AsyncClient; ThriftFlumeEventServer.append_call; ThriftFlumeEventServer.append_args]; [ThriftFlumeEventServer.Iface]; [ThriftFlumeEventServer.AsyncIface]; [ThriftFlumeEventServer.Client]; [ThriftFlumeEventServer.Factory]; [ThriftFlumeEventServer.Factory]; [ThriftFlumeEventServer.close_call]; [ThriftFlumeEventServer.Processor]; [ThriftFlumeEventServer.append]; [ThriftFlumeEventServer.close]; [ThriftFlumeEventServer._Fields]; [ThriftFlumeEventServer.close_args]; [ThriftFlumeEventServer._Fields]; [ThriftFlumeEventServer.close_result]; [ThriftFlumeEventServer._Fields]; [EventStatus]; [ThriftFlumeEvent._Fields]. LCC (Lack of Component Cohesion) = 0.77
flume,org.apache.flume.agent.embedded,Feature Concentration,The tool detected the smell in this component because the component realizes more than one architectural concern/feature. Independent sets of related classes within this component are: [TestEmbeddedAgentEmbeddedSource; EmbeddedAgent; EmbeddedAgentConfiguration; EmbeddedSource; MaterializedConfigurationProvider; TestEmbeddedAgent; TestEmbeddedAgentConfiguration; TestEmbeddedAgentState; MemoryConfigurationProvider]; [TestEmbeddedAgentEmbeddedSource.LocalRuntimeException]; [TestEmbeddedAgent.EventCollector]; [EmbeddedAgent.State]. LCC (Lack of Component Cohesion) = 0.33
flume,org.apache.flume.api,God Component,The tool detected the smell in this component because the component contains high number of classes. Number of classes in the component are: 40
flume,org.apache.flume.api,Cyclic Dependency,The tool detected the smell in this component because this component participates in a cyclic dependency. The participating components in the cycle are: org.apache.flume.api; org.apache.flume; org.apache.flume.channel; org.apache.flume.channel.file; org.apache.flume.sink
flume,org.apache.flume.api,Feature Concentration,The tool detected the smell in this component because the component realizes more than one architectural concern/feature. Independent sets of related classes within this component are: [RpcTestUtils; TestLoadBalancingRpcClient; TestNettyAvroRpcClient; TestFailoverRpcClient; TestRpcClientFactory; RpcClient; LoadBalancingRpcClient; FailoverRpcClient; RpcClientFactory; RpcClientConfigurationConstants; AbstractRpcClient; HostInfo; ThriftRpcClient; NettyAvroRpcClient; TestThriftRpcClient; ThriftTestingSource]; [RpcTestUtils.LoadBalancedAvroHandler]; [RpcTestUtils.OKAvroHandler]; [RpcTestUtils.FailedAvroHandler]; [RpcTestUtils.UnknownAvroHandler]; [RpcTestUtils.ThrowingAvroHandler]; [RpcTestUtils.CompressionChannelPipelineFactory]; [ThriftTestingSource.ThriftOKHandler]; [ThriftTestingSource.ThriftFailHandler]; [ThriftTestingSource.ThriftErrorHandler]; [ThriftTestingSource.ThriftSlowHandler]; [ThriftTestingSource.ThriftTimeoutHandler]; [ThriftTestingSource.ThriftAlternateHandler]; [ThriftTestingSource.HandlerType]; [LoadBalancingRpcClient.HostSelector]; [LoadBalancingRpcClient.RoundRobinHostSelector]; [LoadBalancingRpcClient.RandomOrderHostSelector]; [RpcClientFactory.ClientType]; [ThriftRpcClient.State]; [ThriftRpcClient.ClientWrapper]; [ThriftRpcClient.ConnectionPoolManager]; [NettyAvroRpcClient.ConnState]; [NettyAvroRpcClient.TransceiverThreadFactory]; [NettyAvroRpcClient.SSLCompressionChannelFactory]; [NettyAvroRpcClient.PermissiveTrustManager]. LCC (Lack of Component Cohesion) = 0.63
flume,org.apache.flume.thrift,Feature Concentration,The tool detected the smell in this component because the component realizes more than one architectural concern/feature. Independent sets of related classes within this component are: [Status; ThriftSourceProtocol; ThriftSourceProtocol.append_result; ThriftSourceProtocol.appendBatch_result; ThriftFlumeEvent; ThriftSourceProtocol.AsyncClient; ThriftSourceProtocol.append_call; ThriftSourceProtocol.append_args]; [ThriftFlumeEvent._Fields]; [ThriftSourceProtocol.Iface]; [ThriftSourceProtocol.AsyncIface]; [ThriftSourceProtocol.Client]; [ThriftSourceProtocol.Factory]; [ThriftSourceProtocol.Factory]; [ThriftSourceProtocol.appendBatch_call]; [ThriftSourceProtocol.Processor]; [ThriftSourceProtocol.append]; [ThriftSourceProtocol.appendBatch]; [ThriftSourceProtocol._Fields]; [ThriftSourceProtocol._Fields]; [ThriftSourceProtocol.appendBatch_args]; [ThriftSourceProtocol._Fields]; [ThriftSourceProtocol._Fields]. LCC (Lack of Component Cohesion) = 0.7
