Project Name,Package Name,Type Name,Method Name,Test Smell,Cause of the Smell
flume,org.apache.flume,TestCounterGroup,testGetCounter,Assertion roulette,The tool detected the smell in this test method because the test uses multiple assertion in the test. Total number of assertions in the test are: 2
flume,org.apache.flume,TestContext,testPutGet,Assertion roulette,The tool detected the smell in this test method because the test uses multiple assertion in the test. Total number of assertions in the test are: 13
flume,org.apache.flume.clients.log4jappender,TestLog4jAppender,testLog4jAppender,Assertion roulette,The tool detected the smell in this test method because the test uses multiple assertion in the test. Total number of assertions in the test are: 6
flume,org.apache.flume.conf.properties,TestPropertiesFileConfigurationProvider,testPropertyRead,Missing assertion,The tool detected the smell in this test method because the test doesn't have any assertion.
flume,org.apache.flume.node,TestAbstractLogicalNodeManager,testEmptyLifecycle,Assertion roulette,The tool detected the smell in this test method because the test uses multiple assertion in the test. Total number of assertions in the test are: 4
flume,org.apache.flume.node,TestAbstractLogicalNodeManager,testLifecycle,Assertion roulette,The tool detected the smell in this test method because the test uses multiple assertion in the test. Total number of assertions in the test are: 4
flume,org.apache.flume.node,TestAbstractLogicalNodeManager,testRapidLifecycleFlapping,Assertion roulette,The tool detected the smell in this test method because the test uses multiple assertion in the test. Total number of assertions in the test are: 4
flume,org.apache.flume.node,TestFlumeNodeApplication,testApplication,Missing assertion,The tool detected the smell in this test method because the test doesn't have any assertion.
flume,org.apache.flume.node,TestFlumeNode,testLifecycle,Assertion roulette,The tool detected the smell in this test method because the test uses multiple assertion in the test. Total number of assertions in the test are: 4
flume,org.apache.flume.node,TestFlumeNode,testLifecycle,Ignored test,The tool detected the smell in this test method because the test is excluded from testing.
flume,org.apache.flume.node,TestFlumeNode,testAddNodes,Assertion roulette,The tool detected the smell in this test method because the test uses multiple assertion in the test. Total number of assertions in the test are: 4
flume,org.apache.flume.node,TestFlumeNode,testAddNodes,Ignored test,The tool detected the smell in this test method because the test is excluded from testing.
flume,org.apache.flume.node,TestDefaultLogicalNodeManager,testLifecycle,Assertion roulette,The tool detected the smell in this test method because the test uses multiple assertion in the test. Total number of assertions in the test are: 2
flume,org.apache.flume.node,TestDefaultLogicalNodeManager,testLifecycleWithNodes,Assertion roulette,The tool detected the smell in this test method because the test uses multiple assertion in the test. Total number of assertions in the test are: 2
flume,org.apache.flume.node,TestDefaultLogicalNodeManager,testNodeStartStops,Assertion roulette,The tool detected the smell in this test method because the test uses multiple assertion in the test. Total number of assertions in the test are: 2
flume,org.apache.flume.node,TestDefaultLogicalNodeManager,testErrorNode,Assertion roulette,The tool detected the smell in this test method because the test uses multiple assertion in the test. Total number of assertions in the test are: 2
flume,org.apache.flume.source,TestNetcatSource,testLifecycle,Assertion roulette,The tool detected the smell in this test method because the test uses multiple assertion in the test. Total number of assertions in the test are: 3
flume,org.apache.flume.source,TestSyslogUtils,TestHeader0,Missing assertion,The tool detected the smell in this test method because the test doesn't have any assertion.
flume,org.apache.flume.source,TestSyslogUtils,TestHeader1,Missing assertion,The tool detected the smell in this test method because the test doesn't have any assertion.
flume,org.apache.flume.source,TestSyslogUtils,TestHeader2,Missing assertion,The tool detected the smell in this test method because the test doesn't have any assertion.
flume,org.apache.flume.source,TestSyslogUtils,TestHeader3,Missing assertion,The tool detected the smell in this test method because the test doesn't have any assertion.
flume,org.apache.flume.source,TestSyslogUtils,TestHeader4,Missing assertion,The tool detected the smell in this test method because the test doesn't have any assertion.
flume,org.apache.flume.source,TestSyslogUtils,TestHeader5,Missing assertion,The tool detected the smell in this test method because the test doesn't have any assertion.
flume,org.apache.flume.source,TestSyslogUtils,TestHeader6,Missing assertion,The tool detected the smell in this test method because the test doesn't have any assertion.
flume,org.apache.flume.source,TestSyslogUtils,TestHeader7,Missing assertion,The tool detected the smell in this test method because the test doesn't have any assertion.
flume,org.apache.flume.source,TestSyslogUtils,TestHeader8,Missing assertion,The tool detected the smell in this test method because the test doesn't have any assertion.
flume,org.apache.flume.source,TestSyslogUtils,TestHeader9,Missing assertion,The tool detected the smell in this test method because the test doesn't have any assertion.
flume,org.apache.flume.source,TestSyslogUtils,TestHeader10,Missing assertion,The tool detected the smell in this test method because the test doesn't have any assertion.
flume,org.apache.flume.source,TestSyslogUtils,testExtractBadEvent1,Assertion roulette,The tool detected the smell in this test method because the test uses multiple assertion in the test. Total number of assertions in the test are: 4
flume,org.apache.flume.source,TestSyslogUtils,testExtractBadEvent1,Exceptional handling,The tool detected the smell in this test method because the test throws exception(s) from test (rather than using assertThrows method or expected annotation)
flume,org.apache.flume.source,TestSyslogUtils,testExtractBadEvent2,Assertion roulette,The tool detected the smell in this test method because the test uses multiple assertion in the test. Total number of assertions in the test are: 4
flume,org.apache.flume.source,TestSyslogUtils,testExtractBadEvent2,Exceptional handling,The tool detected the smell in this test method because the test throws exception(s) from test (rather than using assertThrows method or expected annotation)
flume,org.apache.flume.source,TestSyslogUtils,testExtractGoodEvent,Assertion roulette,The tool detected the smell in this test method because the test uses multiple assertion in the test. Total number of assertions in the test are: 4
flume,org.apache.flume.source,TestSyslogUtils,testExtractGoodEvent,Exceptional handling,The tool detected the smell in this test method because the test throws exception(s) from test (rather than using assertThrows method or expected annotation)
flume,org.apache.flume.source,TestSyslogUtils,testBadEventGoodEvent,Assertion roulette,The tool detected the smell in this test method because the test uses multiple assertion in the test. Total number of assertions in the test are: 8
flume,org.apache.flume.source,TestSyslogUtils,testBadEventGoodEvent,Exceptional handling,The tool detected the smell in this test method because the test throws exception(s) from test (rather than using assertThrows method or expected annotation)
flume,org.apache.flume.source,TestSyslogUtils,testGoodEventBadEvent,Assertion roulette,The tool detected the smell in this test method because the test uses multiple assertion in the test. Total number of assertions in the test are: 8
flume,org.apache.flume.source,TestSyslogUtils,testGoodEventBadEvent,Exceptional handling,The tool detected the smell in this test method because the test throws exception(s) from test (rather than using assertThrows method or expected annotation)
flume,org.apache.flume.source,TestSyslogUtils,testBadEventBadEvent,Assertion roulette,The tool detected the smell in this test method because the test uses multiple assertion in the test. Total number of assertions in the test are: 8
flume,org.apache.flume.source,TestSyslogUtils,testBadEventBadEvent,Exceptional handling,The tool detected the smell in this test method because the test throws exception(s) from test (rather than using assertThrows method or expected annotation)
flume,org.apache.flume.source,TestSyslogUtils,testGoodEventGoodEvent,Assertion roulette,The tool detected the smell in this test method because the test uses multiple assertion in the test. Total number of assertions in the test are: 8
flume,org.apache.flume.source,TestSyslogUtils,testGoodEventGoodEvent,Exceptional handling,The tool detected the smell in this test method because the test throws exception(s) from test (rather than using assertThrows method or expected annotation)
flume,org.apache.flume.source,TestSyslogUtils,testExtractBadEventLarge,Assertion roulette,The tool detected the smell in this test method because the test uses multiple assertion in the test. Total number of assertions in the test are: 8
flume,org.apache.flume.source,TestSyslogUtils,testExtractBadEventLarge,Exceptional handling,The tool detected the smell in this test method because the test throws exception(s) from test (rather than using assertThrows method or expected annotation)
flume,org.apache.flume.source,TestSyslogUdpSource,testAppend,Assertion roulette,The tool detected the smell in this test method because the test uses multiple assertion in the test. Total number of assertions in the test are: 6
flume,org.apache.flume.source,TestAvroSource,testLifecycle,Assertion roulette,The tool detected the smell in this test method because the test uses multiple assertion in the test. Total number of assertions in the test are: 4
flume,org.apache.flume.source,TestAvroSource,testRequest,Assertion roulette,The tool detected the smell in this test method because the test uses multiple assertion in the test. Total number of assertions in the test are: 7
flume,org.apache.flume.source,TestPollableSourceRunner,testLifecycle,Missing assertion,The tool detected the smell in this test method because the test doesn't have any assertion.
flume,org.apache.flume.source,TestPollableSourceRunner,testLifecycle,Exceptional handling,The tool detected the smell in this test method because the test throws exception(s) from test (rather than using assertThrows method or expected annotation)
flume,org.apache.flume.source,TestExecSource,testRestart,Assertion roulette,The tool detected the smell in this test method because the test uses multiple assertion in the test. Total number of assertions in the test are: 4
flume,org.apache.flume.source,TestDefaultSourceFactory,testDuplicateCreate,Assertion roulette,The tool detected the smell in this test method because the test uses multiple assertion in the test. Total number of assertions in the test are: 7
flume,org.apache.flume.source,TestDefaultSourceFactory,testSourceCreation,Missing assertion,The tool detected the smell in this test method because the test doesn't have any assertion.
flume,org.apache.flume.source,TestDefaultSourceFactory,testSourceRegistry,Assertion roulette,The tool detected the smell in this test method because the test uses multiple assertion in the test. Total number of assertions in the test are: 5
flume,org.apache.flume.sink.hbase,TestRegexHbaseEventSerializer,testDefaultBehavior,Assertion roulette,The tool detected the smell in this test method because the test uses multiple assertion in the test. Total number of assertions in the test are: 6
flume,org.apache.flume.sink.hbase,TestRegexHbaseEventSerializer,testApacheRegex,Assertion roulette,The tool detected the smell in this test method because the test uses multiple assertion in the test. Total number of assertions in the test are: 16
flume,org.apache.flume.sink.hbase,TestRegexHbaseEventSerializer,testRowKeyGeneration,Assertion roulette,The tool detected the smell in this test method because the test uses multiple assertion in the test. Total number of assertions in the test are: 3
flume,org.apache.flume.sink.hbase,TestAsyncHBaseSink,testOneEvent,Assertion roulette,The tool detected the smell in this test method because the test uses multiple assertion in the test. Total number of assertions in the test are: 2
flume,org.apache.flume.sink.hbase,TestAsyncHBaseSink,testThreeEvents,Assertion roulette,The tool detected the smell in this test method because the test uses multiple assertion in the test. Total number of assertions in the test are: 2
flume,org.apache.flume.sink.hbase,TestAsyncHBaseSink,testMultipleBatches,Assertion roulette,The tool detected the smell in this test method because the test uses multiple assertion in the test. Total number of assertions in the test are: 3
flume,org.apache.flume.sink.hbase,TestHBaseSink,testOneEvent,Assertion roulette,The tool detected the smell in this test method because the test uses multiple assertion in the test. Total number of assertions in the test are: 2
flume,org.apache.flume.sink.hbase,TestHBaseSink,testThreeEvents,Assertion roulette,The tool detected the smell in this test method because the test uses multiple assertion in the test. Total number of assertions in the test are: 2
flume,org.apache.flume.sink.hbase,TestHBaseSink,testMultipleBatches,Assertion roulette,The tool detected the smell in this test method because the test uses multiple assertion in the test. Total number of assertions in the test are: 3
flume,org.apache.flume.sink.hdfs,TestBucketWriter,testEventCountingRoller,Assertion roulette,The tool detected the smell in this test method because the test uses multiple assertion in the test. Total number of assertions in the test are: 3
flume,org.apache.flume.sink.hdfs,TestBucketWriter,testSizeRoller,Assertion roulette,The tool detected the smell in this test method because the test uses multiple assertion in the test. Total number of assertions in the test are: 3
flume,org.apache.flume.sink.hdfs,TestBucketWriter,testIntervalRoller,Assertion roulette,The tool detected the smell in this test method because the test uses multiple assertion in the test. Total number of assertions in the test are: 5
flume,org.apache.flume.sink.hdfs,TestHDFSEventSinkOnMiniCluster,simpleHDFSTest,Assertion roulette,The tool detected the smell in this test method because the test uses multiple assertion in the test. Total number of assertions in the test are: 3
flume,org.apache.flume.sink.hdfs,TestHDFSEventSinkOnMiniCluster,simpleHDFSGZipCompressedTest,Assertion roulette,The tool detected the smell in this test method because the test uses multiple assertion in the test. Total number of assertions in the test are: 3
flume,org.apache.flume.sink.hdfs,TestHDFSEventSink,testLifecycle,Missing assertion,The tool detected the smell in this test method because the test doesn't have any assertion.
flume,org.apache.flume.sink.hdfs,TestHDFSEventSink,testKerbFileAccess,Assertion roulette,The tool detected the smell in this test method because the test uses multiple assertion in the test. Total number of assertions in the test are: 2
flume,org.apache.flume.sink.hdfs,TestHDFSEventSink,testKerbFileAccess,Exceptional handling,The tool detected the smell in this test method because the test uses try-catch block to assert/fail a check.
flume,org.apache.flume.sink.hdfs,TestHDFSEventSink,testAppend,Missing assertion,The tool detected the smell in this test method because the test doesn't have any assertion.
flume,org.apache.flume.sink.hdfs,TestHDFSEventSink,testBadSimpleAppend,Missing assertion,The tool detected the smell in this test method because the test doesn't have any assertion.
flume,org.apache.flume.sink.hdfs,TestHDFSEventSink,testCloseReopen,Missing assertion,The tool detected the smell in this test method because the test doesn't have any assertion.
flume,org.apache.flume.sink.hdfs,TestHDFSEventSink,testSlowAppendWithLongTimeout,Missing assertion,The tool detected the smell in this test method because the test doesn't have any assertion.
flume,org.apache.flume.sink.hdfs,TestHDFSEventSink,testSlowAppendWithoutTimeout,Missing assertion,The tool detected the smell in this test method because the test doesn't have any assertion.
flume,org.apache.flume.channel.recoverable.memory,TestRecoverableMemoryChannel,testRestart,Assertion roulette,The tool detected the smell in this test method because the test uses multiple assertion in the test. Total number of assertions in the test are: 2
flume,org.apache.flume.channel.recoverable.memory,TestRecoverableMemoryChannel,testRestart,Exceptional handling,The tool detected the smell in this test method because the test uses try-catch block to assert/fail a check.
flume,org.apache.flume.channel.recoverable.memory,TestRecoverableMemoryChannel,testReconfigure,Assertion roulette,The tool detected the smell in this test method because the test uses multiple assertion in the test. Total number of assertions in the test are: 2
flume,org.apache.flume.channel.recoverable.memory,TestRecoverableMemoryChannel,testReconfigure,Exceptional handling,The tool detected the smell in this test method because the test uses try-catch block to assert/fail a check.
flume,org.apache.flume.channel.recoverable.memory,TestRecoverableMemoryChannel,testRollbackWithSink,Assertion roulette,The tool detected the smell in this test method because the test uses multiple assertion in the test. Total number of assertions in the test are: 2
flume,org.apache.flume.channel.recoverable.memory,TestRecoverableMemoryChannel,testRollback,Assertion roulette,The tool detected the smell in this test method because the test uses multiple assertion in the test. Total number of assertions in the test are: 2
flume,org.apache.flume.channel.recoverable.memory,TestRecoverableMemoryChannel,testThreaded,Assertion roulette,The tool detected the smell in this test method because the test uses multiple assertion in the test. Total number of assertions in the test are: 4
flume,org.apache.flume.channel.recoverable.memory.wal,TestWAL,testRoll,Assertion roulette,The tool detected the smell in this test method because the test uses multiple assertion in the test. Total number of assertions in the test are: 4
flume,org.apache.flume.channel.recoverable.memory.wal,TestWAL,testBasicReplay,Assertion roulette,The tool detected the smell in this test method because the test uses multiple assertion in the test. Total number of assertions in the test are: 2
flume,org.apache.flume.channel.recoverable.memory.wal,TestWAL,testReplayAtOffset,Assertion roulette,The tool detected the smell in this test method because the test uses multiple assertion in the test. Total number of assertions in the test are: 3
flume,org.apache.flume.channel.recoverable.memory.wal,TestWAL,testReplayNone,Assertion roulette,The tool detected the smell in this test method because the test uses multiple assertion in the test. Total number of assertions in the test are: 2
flume,org.apache.flume.channel.recoverable.memory.wal,TestWAL,testThreadedAppend,Assertion roulette,The tool detected the smell in this test method because the test uses multiple assertion in the test. Total number of assertions in the test are: 4
flume,org.apache.flume.channel.recoverable.memory.wal,TestSequenceIDBuffer,testBinarySearch,Assertion roulette,The tool detected the smell in this test method because the test uses multiple assertion in the test. Total number of assertions in the test are: 4
flume,org.apache.flume.channel.recoverable.memory.wal,TestSequenceIDBuffer,testSortAndCompareTo,Assertion roulette,The tool detected the smell in this test method because the test uses multiple assertion in the test. Total number of assertions in the test are: 2
flume,org.apache.flume.channel.recoverable.memory.wal,TestSequenceIDBuffer,testSwap,Assertion roulette,The tool detected the smell in this test method because the test uses multiple assertion in the test. Total number of assertions in the test are: 2
flume,org.apache.flume.channel.file,TestFileChannel,testRestart,Assertion roulette,The tool detected the smell in this test method because the test uses multiple assertion in the test. Total number of assertions in the test are: 2
flume,org.apache.flume.channel.file,TestFileChannel,testRestart,Exceptional handling,The tool detected the smell in this test method because the test uses try-catch block to assert/fail a check.
flume,org.apache.flume.channel.file,TestFileChannel,testReconfigure,Assertion roulette,The tool detected the smell in this test method because the test uses multiple assertion in the test. Total number of assertions in the test are: 2
flume,org.apache.flume.channel.file,TestFileChannel,testReconfigure,Exceptional handling,The tool detected the smell in this test method because the test uses try-catch block to assert/fail a check.
flume,org.apache.flume.channel.file,TestFileChannel,testPut,Assertion roulette,The tool detected the smell in this test method because the test uses multiple assertion in the test. Total number of assertions in the test are: 2
flume,org.apache.flume.channel.file,TestFileChannel,testCapacity,Assertion roulette,The tool detected the smell in this test method because the test uses multiple assertion in the test. Total number of assertions in the test are: 4
flume,org.apache.flume.channel.file,TestFileChannel,testCapacity,Exceptional handling,The tool detected the smell in this test method because the test uses try-catch block to assert/fail a check.
flume,org.apache.flume.channel.file,TestFileChannel,testRollbackSimulatedCrashWithSink,Assertion roulette,The tool detected the smell in this test method because the test uses multiple assertion in the test. Total number of assertions in the test are: 4
flume,org.apache.flume.channel.file,TestFileChannel,testThreaded,Assertion roulette,The tool detected the smell in this test method because the test uses multiple assertion in the test. Total number of assertions in the test are: 4
flume,org.apache.flume.channel.file,TestFileChannel,testIntegration,Assertion roulette,The tool detected the smell in this test method because the test uses multiple assertion in the test. Total number of assertions in the test are: 3
flume,org.apache.flume.channel.file,TestTransactionEventRecord,testTypes,Assertion roulette,The tool detected the smell in this test method because the test uses multiple assertion in the test. Total number of assertions in the test are: 4
flume,org.apache.flume.channel.file,TestTransactionEventRecord,testPutSerialization,Assertion roulette,The tool detected the smell in this test method because the test uses multiple assertion in the test. Total number of assertions in the test are: 6
flume,org.apache.flume.channel.file,TestTransactionEventRecord,testTakeSerialization,Assertion roulette,The tool detected the smell in this test method because the test uses multiple assertion in the test. Total number of assertions in the test are: 6
flume,org.apache.flume.channel.file,TestTransactionEventRecord,testRollbackSerialization,Assertion roulette,The tool detected the smell in this test method because the test uses multiple assertion in the test. Total number of assertions in the test are: 4
flume,org.apache.flume.channel.file,TestTransactionEventRecord,testCommitSerialization,Assertion roulette,The tool detected the smell in this test method because the test uses multiple assertion in the test. Total number of assertions in the test are: 4
flume,org.apache.flume.channel.file,TestTransactionEventRecord,testBadHeader,Exceptional handling,The tool detected the smell in this test method because the test uses try-catch block to assert/fail a check.
flume,org.apache.flume.channel.file,TestTransactionEventRecord,testBadType,Exceptional handling,The tool detected the smell in this test method because the test uses try-catch block to assert/fail a check.
flume,org.apache.flume.channel.file,TestFlumeEvent,testBasics,Assertion roulette,The tool detected the smell in this test method because the test uses multiple assertion in the test. Total number of assertions in the test are: 2
flume,org.apache.flume.channel.file,TestFlumeEvent,testSerialization,Assertion roulette,The tool detected the smell in this test method because the test uses multiple assertion in the test. Total number of assertions in the test are: 4
flume,org.apache.flume.channel.file,TestFlumeEventQueue,testCapacity,Assertion roulette,The tool detected the smell in this test method because the test uses multiple assertion in the test. Total number of assertions in the test are: 2
flume,org.apache.flume.channel.file,TestFlumeEventQueue,addTail1,Assertion roulette,The tool detected the smell in this test method because the test uses multiple assertion in the test. Total number of assertions in the test are: 3
flume,org.apache.flume.channel.file,TestFlumeEventQueue,addTail2,Assertion roulette,The tool detected the smell in this test method because the test uses multiple assertion in the test. Total number of assertions in the test are: 5
flume,org.apache.flume.channel.file,TestFlumeEventQueue,addTailLarge,Assertion roulette,The tool detected the smell in this test method because the test uses multiple assertion in the test. Total number of assertions in the test are: 5
flume,org.apache.flume.channel.file,TestFlumeEventQueue,addHead1,Assertion roulette,The tool detected the smell in this test method because the test uses multiple assertion in the test. Total number of assertions in the test are: 4
flume,org.apache.flume.channel.file,TestFlumeEventQueue,addHead2,Assertion roulette,The tool detected the smell in this test method because the test uses multiple assertion in the test. Total number of assertions in the test are: 5
flume,org.apache.flume.channel.file,TestFlumeEventQueue,addHeadLarge,Assertion roulette,The tool detected the smell in this test method because the test uses multiple assertion in the test. Total number of assertions in the test are: 5
flume,org.apache.flume.channel.file,TestFlumeEventQueue,addTailRemove1,Assertion roulette,The tool detected the smell in this test method because the test uses multiple assertion in the test. Total number of assertions in the test are: 6
flume,org.apache.flume.channel.file,TestFlumeEventQueue,addTailRemove2,Assertion roulette,The tool detected the smell in this test method because the test uses multiple assertion in the test. Total number of assertions in the test are: 4
flume,org.apache.flume.channel.file,TestFlumeEventQueue,addHeadRemove1,Assertion roulette,The tool detected the smell in this test method because the test uses multiple assertion in the test. Total number of assertions in the test are: 2
flume,org.apache.flume.channel.file,TestFlumeEventQueue,addHeadRemove2,Assertion roulette,The tool detected the smell in this test method because the test uses multiple assertion in the test. Total number of assertions in the test are: 4
flume,org.apache.flume.channel.file,TestLog,testPutGet,Assertion roulette,The tool detected the smell in this test method because the test uses multiple assertion in the test. Total number of assertions in the test are: 3
flume,org.apache.flume.channel.file,TestLog,testRoll,Assertion roulette,The tool detected the smell in this test method because the test uses multiple assertion in the test. Total number of assertions in the test are: 4
flume,org.apache.flume.channel.file,TestLog,testPutCommit,Missing assertion,The tool detected the smell in this test method because the test doesn't have any assertion.
flume,org.apache.flume.channel.file,TestLog,testPutTakeRollback,Missing assertion,The tool detected the smell in this test method because the test doesn't have any assertion.
flume,org.apache.flume.channel.file,TestLogFile,testPutGet,Assertion roulette,The tool detected the smell in this test method because the test uses multiple assertion in the test. Total number of assertions in the test are: 3
flume,org.apache.flume.channel.file,TestLogFile,testReader,Assertion roulette,The tool detected the smell in this test method because the test uses multiple assertion in the test. Total number of assertions in the test are: 4
flume,org.apache.flume.channel.file,TestCheckpoint,testSerialization,Assertion roulette,The tool detected the smell in this test method because the test uses multiple assertion in the test. Total number of assertions in the test are: 3
flume,org.apache.flume.channel.file,TestFlumeEventPointer,testGetter,Assertion roulette,The tool detected the smell in this test method because the test uses multiple assertion in the test. Total number of assertions in the test are: 2
flume,org.apache.flume.channel.file,TestFlumeEventPointer,testEquals,Assertion roulette,The tool detected the smell in this test method because the test uses multiple assertion in the test. Total number of assertions in the test are: 4
flume,org.apache.flume.channel.file,TestFlumeEventPointer,testHashCode,Assertion roulette,The tool detected the smell in this test method because the test uses multiple assertion in the test. Total number of assertions in the test are: 2
flume,org.apache.flume.channel.file,TestFlumeEventPointer,testPack,Assertion roulette,The tool detected the smell in this test method because the test uses multiple assertion in the test. Total number of assertions in the test are: 4
flume,org.apache.flume.channel.jdbc,TestDerbySchemaHandlerQueries,testCreateQueries,Assertion roulette,The tool detected the smell in this test method because the test uses multiple assertion in the test. Total number of assertions in the test are: 32
flume,org.apache.flume.channel.jdbc,BaseJdbcChannelProviderTest,testDerbyChannelCapacity,Assertion roulette,The tool detected the smell in this test method because the test uses multiple assertion in the test. Total number of assertions in the test are: 2
flume,org.apache.flume.channel.jdbc,BaseJdbcChannelProviderTest,testDerbyChannelCapacity,Exceptional handling,The tool detected the smell in this test method because the test uses try-catch block to assert/fail a check.
flume,org.apache.flume.channel.jdbc,BaseJdbcChannelProviderTest,testDerbyChannelCapacity,Conditional test logic,The tool detected the smell in this test method because the test wraps the assert statements within control flow statements.
flume,org.apache.flume.channel.jdbc,BaseJdbcChannelProviderTest,testDerbySetup,Assertion roulette,The tool detected the smell in this test method because the test uses multiple assertion in the test. Total number of assertions in the test are: 2
flume,org.apache.flume.channel.jdbc,BaseJdbcChannelProviderTest,testEventWithSimulatedSourceAndSinks,Assertion roulette,The tool detected the smell in this test method because the test uses multiple assertion in the test. Total number of assertions in the test are: 2
flume,org.apache.flume.channel.jdbc,TestTransactionIsolationLevelEnum,testReverseLookup,Assertion roulette,The tool detected the smell in this test method because the test uses multiple assertion in the test. Total number of assertions in the test are: 4
flume,org.apache.flume.channel.jdbc,TestPersistentEvent,testMarshalling,Missing assertion,The tool detected the smell in this test method because the test doesn't have any assertion.
flume,org.apache.flume.channel.jdbc,TestDatabaseTypeEnum,testDatabaseTypeLookup,Assertion roulette,The tool detected the smell in this test method because the test uses multiple assertion in the test. Total number of assertions in the test are: 4
flume,org.apache.flume.tools,TestVersionInfo,testVersionInfoUnknown,Assertion roulette,The tool detected the smell in this test method because the test uses multiple assertion in the test. Total number of assertions in the test are: 7
flume,org.apache.flume.lifecycle,TestLifecycleController,testWaitForState,Assertion roulette,The tool detected the smell in this test method because the test uses multiple assertion in the test. Total number of assertions in the test are: 7
flume,org.apache.flume.lifecycle,TestLifecycleController,testWaitForOneOf,Assertion roulette,The tool detected the smell in this test method because the test uses multiple assertion in the test. Total number of assertions in the test are: 3
flume,org.apache.flume.lifecycle,TestLifecycleSupervisor,testLifecycle,Missing assertion,The tool detected the smell in this test method because the test doesn't have any assertion.
flume,org.apache.flume.lifecycle,TestLifecycleSupervisor,testSupervise,Missing assertion,The tool detected the smell in this test method because the test doesn't have any assertion.
flume,org.apache.flume.lifecycle,TestLifecycleSupervisor,testSuperviseBroken,Missing assertion,The tool detected the smell in this test method because the test doesn't have any assertion.
flume,org.apache.flume.lifecycle,TestLifecycleSupervisor,testSuperviseBroken,Exceptional handling,The tool detected the smell in this test method because the test throws exception(s) from test (rather than using assertThrows method or expected annotation)
flume,org.apache.flume.lifecycle,TestLifecycleSupervisor,testSuperviseSupervisor,Missing assertion,The tool detected the smell in this test method because the test doesn't have any assertion.
flume,org.apache.flume.lifecycle,TestLifecycleSupervisor,testUnsuperviseServce,Missing assertion,The tool detected the smell in this test method because the test doesn't have any assertion.
flume,org.apache.flume.lifecycle,TestLifecycleSupervisor,testStopServce,Assertion roulette,The tool detected the smell in this test method because the test uses multiple assertion in the test. Total number of assertions in the test are: 6
flume,org.apache.flume.serialization,TestSyslogAvroEventSerializer,test,Assertion roulette,The tool detected the smell in this test method because the test uses multiple assertion in the test. Total number of assertions in the test are: 2
flume,org.apache.flume.serialization,TestFlumeEventAvroEventSerializer,testAvroSerializer,Missing assertion,The tool detected the smell in this test method because the test doesn't have any assertion.
flume,org.apache.flume.serialization,TestFlumeEventAvroEventSerializer,testAvroSerializerNullCompression,Missing assertion,The tool detected the smell in this test method because the test doesn't have any assertion.
flume,org.apache.flume.serialization,TestFlumeEventAvroEventSerializer,testAvroSerializerDeflateCompression,Missing assertion,The tool detected the smell in this test method because the test doesn't have any assertion.
flume,org.apache.flume.serialization,TestFlumeEventAvroEventSerializer,testAvroSerializerSnappyCompression,Missing assertion,The tool detected the smell in this test method because the test doesn't have any assertion.
flume,org.apache.flume.interceptor,TestHostInterceptor,testBasic,Assertion roulette,The tool detected the smell in this test method because the test uses multiple assertion in the test. Total number of assertions in the test are: 2
flume,org.apache.flume.interceptor,TestHostInterceptor,testCustomHeader,Assertion roulette,The tool detected the smell in this test method because the test uses multiple assertion in the test. Total number of assertions in the test are: 3
flume,org.apache.flume.interceptor,TestHostInterceptor,testPreserve,Assertion roulette,The tool detected the smell in this test method because the test uses multiple assertion in the test. Total number of assertions in the test are: 3
flume,org.apache.flume.interceptor,TestHostInterceptor,testClobber,Assertion roulette,The tool detected the smell in this test method because the test uses multiple assertion in the test. Total number of assertions in the test are: 3
flume,org.apache.flume.interceptor,TestHostInterceptor,testUseIP,Assertion roulette,The tool detected the smell in this test method because the test uses multiple assertion in the test. Total number of assertions in the test are: 3
flume,org.apache.flume.interceptor,TestHostInterceptor,testUseHostname,Assertion roulette,The tool detected the smell in this test method because the test uses multiple assertion in the test. Total number of assertions in the test are: 3
flume,org.apache.flume.interceptor,TestTimestampInterceptor,testBasic,Assertion roulette,The tool detected the smell in this test method because the test uses multiple assertion in the test. Total number of assertions in the test are: 3
flume,org.apache.flume.interceptor,TestTimestampInterceptor,testPreserve,Assertion roulette,The tool detected the smell in this test method because the test uses multiple assertion in the test. Total number of assertions in the test are: 3
flume,org.apache.flume.interceptor,TestTimestampInterceptor,testClobber,Assertion roulette,The tool detected the smell in this test method because the test uses multiple assertion in the test. Total number of assertions in the test are: 3
flume,org.apache.flume.interceptor,TestCensoringInterceptor,testCensor,Assertion roulette,The tool detected the smell in this test method because the test uses multiple assertion in the test. Total number of assertions in the test are: 2
flume,org.apache.flume.event,TestEventBuilder,testBody,Assertion roulette,The tool detected the smell in this test method because the test uses multiple assertion in the test. Total number of assertions in the test are: 4
flume,org.apache.flume.event,TestEventBuilder,testHeaders,Assertion roulette,The tool detected the smell in this test method because the test uses multiple assertion in the test. Total number of assertions in the test are: 4
flume,org.apache.flume.instrumentation,TestMonitoredCounterGroup,testSinkCounter,Assertion roulette,The tool detected the smell in this test method because the test uses multiple assertion in the test. Total number of assertions in the test are: 7
flume,org.apache.flume.instrumentation,TestMonitoredCounterGroup,testChannelCounter,Assertion roulette,The tool detected the smell in this test method because the test uses multiple assertion in the test. Total number of assertions in the test are: 9
flume,org.apache.flume.instrumentation,TestMonitoredCounterGroup,testSourceCounter,Assertion roulette,The tool detected the smell in this test method because the test uses multiple assertion in the test. Total number of assertions in the test are: 9
flume,org.apache.flume.sink,TestAvroSink,testLifecycle,Assertion roulette,The tool detected the smell in this test method because the test uses multiple assertion in the test. Total number of assertions in the test are: 2
flume,org.apache.flume.sink,TestAvroSink,testProcess,Assertion roulette,The tool detected the smell in this test method because the test uses multiple assertion in the test. Total number of assertions in the test are: 4
flume,org.apache.flume.sink,TestAvroSink,testTimeout,Assertion roulette,The tool detected the smell in this test method because the test uses multiple assertion in the test. Total number of assertions in the test are: 4
flume,org.apache.flume.sink,TestAvroSink,testFailedConnect,Assertion roulette,The tool detected the smell in this test method because the test uses multiple assertion in the test. Total number of assertions in the test are: 5
flume,org.apache.flume.sink,TestFailoverSinkProcessor,testFailover,Assertion roulette,The tool detected the smell in this test method because the test uses multiple assertion in the test. Total number of assertions in the test are: 10
flume,org.apache.flume.sink,TestRollingFileSink,testLifecycle,Missing assertion,The tool detected the smell in this test method because the test doesn't have any assertion.
flume,org.apache.flume.sink,TestRollingFileSink,testAppend,Missing assertion,The tool detected the smell in this test method because the test doesn't have any assertion.
flume,org.apache.flume.sink,TestRollingFileSink,testAppend2,Missing assertion,The tool detected the smell in this test method because the test doesn't have any assertion.
flume,org.apache.flume.sink,TestLoadBalancingSinkProcessor,testDefaultConfiguration,Assertion roulette,The tool detected the smell in this test method because the test uses multiple assertion in the test. Total number of assertions in the test are: 3
flume,org.apache.flume.sink,TestLoadBalancingSinkProcessor,testRandomOneActiveSink,Assertion roulette,The tool detected the smell in this test method because the test uses multiple assertion in the test. Total number of assertions in the test are: 3
flume,org.apache.flume.sink,TestLoadBalancingSinkProcessor,testRandomPersistentFailure,Assertion roulette,The tool detected the smell in this test method because the test uses multiple assertion in the test. Total number of assertions in the test are: 2
flume,org.apache.flume.sink,TestLoadBalancingSinkProcessor,testRandomNoFailure,Assertion roulette,The tool detected the smell in this test method because the test uses multiple assertion in the test. Total number of assertions in the test are: 2
flume,org.apache.flume.sink,TestLoadBalancingSinkProcessor,testRoundRobinOneActiveSink,Assertion roulette,The tool detected the smell in this test method because the test uses multiple assertion in the test. Total number of assertions in the test are: 3
flume,org.apache.flume.sink,TestLoadBalancingSinkProcessor,testRoundRobinPersistentFailure,Assertion roulette,The tool detected the smell in this test method because the test uses multiple assertion in the test. Total number of assertions in the test are: 3
flume,org.apache.flume.sink,TestLoadBalancingSinkProcessor,testRoundRobinNoFailure,Assertion roulette,The tool detected the smell in this test method because the test uses multiple assertion in the test. Total number of assertions in the test are: 3
flume,org.apache.flume.sink,TestLoadBalancingSinkProcessor,testCustomSelector,Assertion roulette,The tool detected the smell in this test method because the test uses multiple assertion in the test. Total number of assertions in the test are: 3
flume,org.apache.flume.sink,TestDefaultSinkFactory,testDuplicateCreate,Assertion roulette,The tool detected the smell in this test method because the test uses multiple assertion in the test. Total number of assertions in the test are: 7
flume,org.apache.flume.sink,TestDefaultSinkFactory,testSinkCreation,Missing assertion,The tool detected the smell in this test method because the test doesn't have any assertion.
flume,org.apache.flume.sink,TestDefaultSinkFactory,testSinkRegistry,Assertion roulette,The tool detected the smell in this test method because the test uses multiple assertion in the test. Total number of assertions in the test are: 5
flume,org.apache.flume.sink,TestLoggerSink,testAppend,Missing assertion,The tool detected the smell in this test method because the test doesn't have any assertion.
flume,org.apache.flume.channel,TestMemoryChannelConcurrency,testTransactionConcurrency,Assertion roulette,The tool detected the smell in this test method because the test uses multiple assertion in the test. Total number of assertions in the test are: 4
flume,org.apache.flume.channel,TestMemoryChannelConcurrency,testTransactionConcurrency,Exceptional handling,The tool detected the smell in this test method because the test uses try-catch block to assert/fail a check.
flume,org.apache.flume.channel,TestMemoryChannelConcurrency,testTransactionConcurrency,Conditional test logic,The tool detected the smell in this test method because the test wraps the assert statements within control flow statements.
flume,org.apache.flume.channel,TestMemoryChannelConcurrency,testManyThreads,Conditional test logic,The tool detected the smell in this test method because the test wraps the assert statements within control flow statements.
flume,org.apache.flume.channel,TestMemoryChannelConcurrency,testConcurrentSinksAndSources,Assertion roulette,The tool detected the smell in this test method because the test uses multiple assertion in the test. Total number of assertions in the test are: 4
flume,org.apache.flume.channel,TestMemoryChannelConcurrency,testConcurrentSinksAndSources,Conditional test logic,The tool detected the smell in this test method because the test wraps the assert statements within control flow statements.
flume,org.apache.flume.channel,TestMemoryChannelTransaction,testCommit,Assertion roulette,The tool detected the smell in this test method because the test uses multiple assertion in the test. Total number of assertions in the test are: 5
flume,org.apache.flume.channel,TestMemoryChannelTransaction,testRollBack,Assertion roulette,The tool detected the smell in this test method because the test uses multiple assertion in the test. Total number of assertions in the test are: 9
flume,org.apache.flume.channel,TestMemoryChannelTransaction,testReEntTxn,Assertion roulette,The tool detected the smell in this test method because the test uses multiple assertion in the test. Total number of assertions in the test are: 5
flume,org.apache.flume.channel,TestMemoryChannelTransaction,testReEntTxn,Ignored test,The tool detected the smell in this test method because the test is excluded from testing.
flume,org.apache.flume.channel,TestMemoryChannelTransaction,testReEntTxnRollBack,Assertion roulette,The tool detected the smell in this test method because the test uses multiple assertion in the test. Total number of assertions in the test are: 9
flume,org.apache.flume.channel,TestMemoryChannelTransaction,testReEntTxnRollBack,Ignored test,The tool detected the smell in this test method because the test is excluded from testing.
flume,org.apache.flume.channel,TestBasicChannelSemantics,testMultiThreadedHappyPath,Assertion roulette,The tool detected the smell in this test method because the test uses multiple assertion in the test. Total number of assertions in the test are: 2
flume,org.apache.flume.channel,TestBasicChannelSemantics,testMultiThreadedHappyPath,Exceptional handling,The tool detected the smell in this test method because the test uses try-catch block to assert/fail a check.
flume,org.apache.flume.channel,TestBasicChannelSemantics,testMultiThreadedHappyPath,Conditional test logic,The tool detected the smell in this test method because the test wraps the assert statements within control flow statements.
flume,org.apache.flume.channel,TestBasicChannelSemantics,testGetTransaction,Assertion roulette,The tool detected the smell in this test method because the test uses multiple assertion in the test. Total number of assertions in the test are: 8
flume,org.apache.flume.channel,TestBasicChannelSemantics,testBegin,Missing assertion,The tool detected the smell in this test method because the test doesn't have any assertion.
flume,org.apache.flume.channel,TestBasicChannelSemantics,testPut1,Missing assertion,The tool detected the smell in this test method because the test doesn't have any assertion.
flume,org.apache.flume.channel,TestBasicChannelSemantics,testPut2,Missing assertion,The tool detected the smell in this test method because the test doesn't have any assertion.
flume,org.apache.flume.channel,TestBasicChannelSemantics,testPut3,Missing assertion,The tool detected the smell in this test method because the test doesn't have any assertion.
flume,org.apache.flume.channel,TestBasicChannelSemantics,testTake1,Assertion roulette,The tool detected the smell in this test method because the test uses multiple assertion in the test. Total number of assertions in the test are: 5
flume,org.apache.flume.channel,TestBasicChannelSemantics,testTake2,Missing assertion,The tool detected the smell in this test method because the test doesn't have any assertion.
flume,org.apache.flume.channel,TestBasicChannelSemantics,testTake3,Missing assertion,The tool detected the smell in this test method because the test doesn't have any assertion.
flume,org.apache.flume.channel,TestBasicChannelSemantics,testCommit1,Missing assertion,The tool detected the smell in this test method because the test doesn't have any assertion.
flume,org.apache.flume.channel,TestBasicChannelSemantics,testCommit2,Missing assertion,The tool detected the smell in this test method because the test doesn't have any assertion.
flume,org.apache.flume.channel,TestBasicChannelSemantics,testRollback1,Missing assertion,The tool detected the smell in this test method because the test doesn't have any assertion.
flume,org.apache.flume.channel,TestBasicChannelSemantics,testRollback2,Missing assertion,The tool detected the smell in this test method because the test doesn't have any assertion.
flume,org.apache.flume.channel,TestBasicChannelSemantics,testRollback3,Missing assertion,The tool detected the smell in this test method because the test doesn't have any assertion.
flume,org.apache.flume.channel,TestBasicChannelSemantics,testRollback4,Missing assertion,The tool detected the smell in this test method because the test doesn't have any assertion.
flume,org.apache.flume.channel,TestBasicChannelSemantics,testRollback5,Missing assertion,The tool detected the smell in this test method because the test doesn't have any assertion.
flume,org.apache.flume.channel,TestBasicChannelSemantics,testRollback6,Missing assertion,The tool detected the smell in this test method because the test doesn't have any assertion.
flume,org.apache.flume.channel,TestBasicChannelSemantics,testRollback7,Missing assertion,The tool detected the smell in this test method because the test doesn't have any assertion.
flume,org.apache.flume.channel,TestBasicChannelSemantics,testClose1,Missing assertion,The tool detected the smell in this test method because the test doesn't have any assertion.
flume,org.apache.flume.channel,TestBasicChannelSemantics,testClose2,Missing assertion,The tool detected the smell in this test method because the test doesn't have any assertion.
flume,org.apache.flume.channel,TestBasicChannelSemantics,testClose3,Missing assertion,The tool detected the smell in this test method because the test doesn't have any assertion.
flume,org.apache.flume.channel,TestBasicChannelSemantics,testClose4,Missing assertion,The tool detected the smell in this test method because the test doesn't have any assertion.
flume,org.apache.flume.channel,TestBasicChannelSemantics,testClose5,Missing assertion,The tool detected the smell in this test method because the test doesn't have any assertion.
flume,org.apache.flume.channel,TestChannelUtils,testHappyPath1,Assertion roulette,The tool detected the smell in this test method because the test uses multiple assertion in the test. Total number of assertions in the test are: 3
flume,org.apache.flume.channel,TestChannelUtils,testHappyPath2,Assertion roulette,The tool detected the smell in this test method because the test uses multiple assertion in the test. Total number of assertions in the test are: 3
flume,org.apache.flume.channel,TestChannelUtils,testHappyPath5,Assertion roulette,The tool detected the smell in this test method because the test uses multiple assertion in the test. Total number of assertions in the test are: 2
flume,org.apache.flume.channel,TestChannelUtils,testError,Missing assertion,The tool detected the smell in this test method because the test doesn't have any assertion.
flume,org.apache.flume.channel,TestChannelUtils,testRuntimeException,Missing assertion,The tool detected the smell in this test method because the test doesn't have any assertion.
flume,org.apache.flume.channel,TestChannelUtils,testChannelException,Missing assertion,The tool detected the smell in this test method because the test doesn't have any assertion.
flume,org.apache.flume.channel,TestChannelUtils,testInterrupt,Missing assertion,The tool detected the smell in this test method because the test doesn't have any assertion.
flume,org.apache.flume.channel,TestReplicatingChannelSelector,testReplicatingSelector,Assertion roulette,The tool detected the smell in this test method because the test uses multiple assertion in the test. Total number of assertions in the test are: 6
flume,org.apache.flume.channel,TestMemoryChannel,testPutTake,Assertion roulette,The tool detected the smell in this test method because the test uses multiple assertion in the test. Total number of assertions in the test are: 3
flume,org.apache.flume.channel,TestMemoryChannel,testChannelResize,Assertion roulette,The tool detected the smell in this test method because the test uses multiple assertion in the test. Total number of assertions in the test are: 2
flume,org.apache.flume.channel,TestMemoryChannel,testBufferEmptyingAfterTakeCommit,Missing assertion,The tool detected the smell in this test method because the test doesn't have any assertion.
flume,org.apache.flume.channel,TestMemoryChannel,testBufferEmptyingAfterRollback,Missing assertion,The tool detected the smell in this test method because the test doesn't have any assertion.
flume,org.apache.flume.channel,TestMultiplexingChannelSelector,testSelection,Assertion roulette,The tool detected the smell in this test method because the test uses multiple assertion in the test. Total number of assertions in the test are: 14
flume,org.apache.flume.channel,TestMultiplexingChannelSelector,testNoSelection,Assertion roulette,The tool detected the smell in this test method because the test uses multiple assertion in the test. Total number of assertions in the test are: 17
flume,org.apache.flume.source.avroLegacy,TestLegacyAvroSource,testLifecycle,Assertion roulette,The tool detected the smell in this test method because the test uses multiple assertion in the test. Total number of assertions in the test are: 4
flume,org.apache.flume.source.avroLegacy,TestLegacyAvroSource,testRequest,Assertion roulette,The tool detected the smell in this test method because the test uses multiple assertion in the test. Total number of assertions in the test are: 6
flume,org.apache.flume.source.thriftLegacy,TestThriftLegacySource,testLifecycle,Missing assertion,The tool detected the smell in this test method because the test doesn't have any assertion.
flume,org.apache.flume.source.thriftLegacy,TestThriftLegacySource,testRequest,Assertion roulette,The tool detected the smell in this test method because the test uses multiple assertion in the test. Total number of assertions in the test are: 2
flume,org.apache.flume.source.thriftLegacy,TestThriftLegacySource,testHeaders,Assertion roulette,The tool detected the smell in this test method because the test uses multiple assertion in the test. Total number of assertions in the test are: 2
flume,org.apache.flume.test.agent,TestRpcClient,testRpcClient,Missing assertion,The tool detected the smell in this test method because the test doesn't have any assertion.
flume,org.apache.flume.api,TestLoadBalancingRpcClient,testTwoHostFailover,Assertion roulette,The tool detected the smell in this test method because the test uses multiple assertion in the test. Total number of assertions in the test are: 3
flume,org.apache.flume.api,TestLoadBalancingRpcClient,testTwoHostFailoverBatch,Assertion roulette,The tool detected the smell in this test method because the test uses multiple assertion in the test. Total number of assertions in the test are: 3
flume,org.apache.flume.api,TestLoadBalancingRpcClient,testLbDefaultClientTwoHosts,Assertion roulette,The tool detected the smell in this test method because the test uses multiple assertion in the test. Total number of assertions in the test are: 3
flume,org.apache.flume.api,TestLoadBalancingRpcClient,testLbDefaultClientTwoHostsBatch,Assertion roulette,The tool detected the smell in this test method because the test uses multiple assertion in the test. Total number of assertions in the test are: 3
flume,org.apache.flume.api,TestLoadBalancingRpcClient,testLbClientTenHostRandomDistribution,Assertion roulette,The tool detected the smell in this test method because the test uses multiple assertion in the test. Total number of assertions in the test are: 3
flume,org.apache.flume.api,TestLoadBalancingRpcClient,testLbClientTenHostRandomDistributionBatch,Assertion roulette,The tool detected the smell in this test method because the test uses multiple assertion in the test. Total number of assertions in the test are: 3
flume,org.apache.flume.api,TestLoadBalancingRpcClient,testLbClientTenHostRoundRobinDistribution,Assertion roulette,The tool detected the smell in this test method because the test uses multiple assertion in the test. Total number of assertions in the test are: 3
flume,org.apache.flume.api,TestLoadBalancingRpcClient,testLbClientTenHostRoundRobinDistributionBatch,Assertion roulette,The tool detected the smell in this test method because the test uses multiple assertion in the test. Total number of assertions in the test are: 3
flume,org.apache.flume.api,TestNettyAvroRpcClient,testOKServerSimple,Missing assertion,The tool detected the smell in this test method because the test doesn't have any assertion.
flume,org.apache.flume.api,TestNettyAvroRpcClient,testOKServerBatch,Missing assertion,The tool detected the smell in this test method because the test doesn't have any assertion.
flume,org.apache.flume.api,TestNettyAvroRpcClient,testBatchOverrun,Missing assertion,The tool detected the smell in this test method because the test doesn't have any assertion.
flume,org.apache.flume.api,TestFailoverRpcClient,testFailover,Assertion roulette,The tool detected the smell in this test method because the test uses multiple assertion in the test. Total number of assertions in the test are: 8
flume,org.apache.flume.api,TestRpcClientFactory,testTwoParamSimpleAppend,Missing assertion,The tool detected the smell in this test method because the test doesn't have any assertion.
flume,org.apache.flume.api,TestRpcClientFactory,testTwoParamDeprecatedAppend,Missing assertion,The tool detected the smell in this test method because the test doesn't have any assertion.
flume,org.apache.flume.api,TestRpcClientFactory,testThreeParamBatchAppend,Missing assertion,The tool detected the smell in this test method because the test doesn't have any assertion.
flume,org.apache.flume.api,TestRpcClientFactory,testPropertiesBatchAppend,Missing assertion,The tool detected the smell in this test method because the test doesn't have any assertion.
flume,org.apache.flume.api,TestRpcClientFactory,testTwoParamBatchAppendOverflow,Missing assertion,The tool detected the smell in this test method because the test doesn't have any assertion.
