Project Name,Package Name,Type Name,Testability Smell,Cause of the Smell
oozie,org.apache.oozie.tools,OozieDBCLI,Global State,The tool detected the smell in this class because the class declares global variables. The detected global variables are: HELP_CMD; VERSION_CMD; CREATE_CMD; UPGRADE_CMD; POST_UPGRADE_CMD; SQL_FILE_OPT; RUN_OPT; HELP_INFO
oozie,org.apache.oozie.tools,OozieSharelibCLI,Global State,The tool detected the smell in this class because the class declares global variables. The detected global variables are: HELP_INFO; HELP_CMD; CREATE_CMD; UPGRADE_CMD; LIB_OPT; FS_OPT; OOZIE_HOME
oozie,org.apache.oozie.test,PingServlet,Global State,The tool detected the smell in this class because the class declares global variables. The detected global variables are: FILTER_INIT; DO_FILTER
oozie,org.apache.oozie.test,XDataTestCase,Excessive Dependency,The tool detected the smell in this class because the class depends on too many dependencies. The total number of dependencies is: 34
oozie,org.apache.oozie.test,XTestCase,Global State,The tool detected the smell in this class because the class declares global variables. The detected global variables are: WAITFOR_RATIO; OOZIE_TEST_DIR; OOZIE_TEST_JOB_TRACKER; OOZIE_TEST_NAME_NODE; HADOOP_VERSION; TEST_OOZIE_USER_PROP; TEST_USER1_PROP; TEST_USER2_PROP; TEST_USER3_PROP; TEST_GROUP_PROP; TEST_MINICLUSTER_MONITOR_SHUTDOWN_WAIT
oozie,org.apache.oozie.test,XTestCase.Predicate,Global State,The tool detected the smell in this class because the class can be accessed as a `global` state.
oozie,org.apache.oozie.test,XTestCase.ShutdownJobTrackerExecutable,Global State,The tool detected the smell in this class because the class can be accessed as a `global` state.
oozie,org.apache.oozie.test,TestXTestCase.MyXTestCase,Global State,The tool detected the smell in this class because the class can be accessed as a `global` state.
oozie,org.apache.oozie.servlet.login,LDAPLoginServlet,Global State,The tool detected the smell in this class because the class declares global variables. The detected global variables are: LDAP_PROVIDER_URL_KEY; LDAP_CONTEXT_FACTORY_KEY; LDAP_SECURITY_AUTHENTICATION_KEY
oozie,org.apache.oozie.servlet.login,LoginServlet,Global State,The tool detected the smell in this class because the class declares global variables. The detected global variables are: LOGIN_PAGE_TEMPLATE_KEY; LOGIN_AUTH_COOKIE_EXPIRE_TIME
oozie,org.apache.oozie.authentication,AltKerberosAuthenticationHandler,Global State,The tool detected the smell in this class because the class declares global variables. The detected global variables are: TYPE; NON_BROWSER_USER_AGENTS
oozie,org.apache.oozie.example,Repeatable,Global State,The tool detected the smell in this class because the class declares global variables. The detected global variables are: UTC
oozie,org.apache.oozie.action.hadoop,TestPigActionExecutor,Excessive Dependency,The tool detected the smell in this class because the class depends on too many dependencies. The total number of dependencies is: 15
oozie,org.apache.oozie.action.hadoop,TestMapReduceActionError,Excessive Dependency,The tool detected the smell in this class because the class depends on too many dependencies. The total number of dependencies is: 12
oozie,org.apache.oozie.action.hadoop,MapperReducerForTest,Global State,The tool detected the smell in this class because the class declares global variables. The detected global variables are: GROUP; NAME
oozie,org.apache.oozie.action.hadoop,MapperReducerUberJarForTest,Global State,The tool detected the smell in this class because the class declares global variables. The detected global variables are: GROUP; NAME
oozie,org.apache.oozie.action.hadoop,TestHiveActionExecutor,Excessive Dependency,The tool detected the smell in this class because the class depends on too many dependencies. The total number of dependencies is: 14
oozie,org.apache.oozie.action.hadoop,TestMapReduceActionExecutor,Excessive Dependency,The tool detected the smell in this class because the class depends on too many dependencies. The total number of dependencies is: 16
oozie,org.apache.oozie.action.hadoop,MapperReducerCredentialsForTest,Global State,The tool detected the smell in this class because the class declares global variables. The detected global variables are: COUNTER_GROUP; COUNTER_OUTPUT_DATA; TEST_CRED
oozie,org.apache.oozie.action.hadoop,TestSqoopActionExecutor,Excessive Dependency,The tool detected the smell in this class because the class depends on too many dependencies. The total number of dependencies is: 14
oozie,org.apache.oozie.action.hadoop,TestFsELFunctions,Excessive Dependency,The tool detected the smell in this class because the class depends on too many dependencies. The total number of dependencies is: 9
oozie,org.apache.oozie.action.hadoop,TestShellActionExecutor,Excessive Dependency,The tool detected the smell in this class because the class depends on too many dependencies. The total number of dependencies is: 12
oozie,org.apache.oozie.action.hadoop,TestJavaActionExecutor,Excessive Dependency,The tool detected the smell in this class because the class depends on too many dependencies. The total number of dependencies is: 22
oozie,org.apache.oozie.action.hadoop,TestFsActionExecutor,Excessive Dependency,The tool detected the smell in this class because the class depends on too many dependencies. The total number of dependencies is: 9
oozie,org.apache.oozie.action.hadoop,TestDistCpActionExecutor,Excessive Dependency,The tool detected the smell in this class because the class depends on too many dependencies. The total number of dependencies is: 10
oozie,org.apache.oozie.action.hadoop,ActionExecutorTestCase,Excessive Dependency,The tool detected the smell in this class because the class depends on too many dependencies. The total number of dependencies is: 14
oozie,org.apache.oozie.action.hadoop,TestHadoopELFunctions,Excessive Dependency,The tool detected the smell in this class because the class depends on too many dependencies. The total number of dependencies is: 12
oozie,org.apache.oozie.action.hadoop,LauncherMain,Global State,The tool detected the smell in this class because the class declares global variables. The detected global variables are: HADOOP_JOBS
oozie,org.apache.oozie.action.hadoop,HadoopELFunctions,Global State,The tool detected the smell in this class because the class declares global variables. The detected global variables are: RECORDS; MAP_IN; MAP_OUT; REDUCE_IN; REDUCE_OUT; GROUPS
oozie,org.apache.oozie.action.hadoop,MapReduceActionExecutor,Global State,The tool detected the smell in this class because the class declares global variables. The detected global variables are: OOZIE_ACTION_EXTERNAL_STATS_WRITE; HADOOP_COUNTERS; OOZIE_MAPREDUCE_UBER_JAR; OOZIE_MAPREDUCE_UBER_JAR_ENABLE
oozie,org.apache.oozie.action.hadoop,MapReduceActionExecutor,Excessive Dependency,The tool detected the smell in this class because the class depends on too many dependencies. The total number of dependencies is: 11
oozie,org.apache.oozie.action.hadoop,SqoopActionExecutor,Global State,The tool detected the smell in this class because the class declares global variables. The detected global variables are: OOZIE_ACTION_EXTERNAL_STATS_WRITE
oozie,org.apache.oozie.action.hadoop,SqoopActionExecutor,Excessive Dependency,The tool detected the smell in this class because the class depends on too many dependencies. The total number of dependencies is: 11
oozie,org.apache.oozie.action.hadoop,HiveMain,Global State,The tool detected the smell in this class because the class declares global variables. The detected global variables are: HIVE_L4J_PROPS; HIVE_EXEC_L4J_PROPS; HIVE_SITE_CONF
oozie,org.apache.oozie.action.hadoop,JavaActionExecutor,Global State,The tool detected the smell in this class because the class declares global variables. The detected global variables are: HADOOP_JOB_TRACKER; HADOOP_JOB_TRACKER_2; HADOOP_YARN_RM; HADOOP_NAME_NODE; OOZIE_COMMON_LIBDIR; MAX_EXTERNAL_STATS_SIZE_DEFAULT; MAX_EXTERNAL_STATS_SIZE; ACL_VIEW_JOB; ACL_MODIFY_JOB
oozie,org.apache.oozie.action.hadoop,JavaActionExecutor,Excessive Dependency,The tool detected the smell in this class because the class depends on too many dependencies. The total number of dependencies is: 17
oozie,org.apache.oozie.action.hadoop,PigMain,Global State,The tool detected the smell in this class because the class declares global variables. The detected global variables are: ACTION_PREFIX; EXTERNAL_CHILD_IDS; EXTERNAL_ACTION_STATS; EXTERNAL_STATS_WRITE; STRING_BUFFER_SIZE
oozie,org.apache.oozie.action.hadoop,LauncherMapper,Global State,The tool detected the smell in this class because the class declares global variables. The detected global variables are: CONF_OOZIE_ACTION_MAIN_CLASS; CONF_OOZIE_ACTION_SUPPORTED_FILESYSTEMS; CONF_OOZIE_ACTION_MAX_OUTPUT_DATA; ACTION_PREFIX; EXTERNAL_CHILD_IDS; EXTERNAL_ACTION_STATS; ACTION_PREPARE_XML
oozie,org.apache.oozie.action.hadoop,SqoopMain,Global State,The tool detected the smell in this class because the class declares global variables. The detected global variables are: SQOOP_SITE_CONF
oozie,org.apache.oozie.action.hadoop,DistcpActionExecutor,Global State,The tool detected the smell in this class because the class declares global variables. The detected global variables are: CONF_OOZIE_DISTCP_ACTION_MAIN_CLASS; CLASS_NAMES; DISTCP_TYPE
oozie,org.apache.oozie.action.hadoop,ShellMain,Global State,The tool detected the smell in this class because the class declares global variables. The detected global variables are: CONF_OOZIE_SHELL_ARGS; CONF_OOZIE_SHELL_EXEC; CONF_OOZIE_SHELL_ENVS; CONF_OOZIE_SHELL_CAPTURE_OUTPUT; OOZIE_ACTION_CONF_XML
oozie,org.apache.oozie.action.hadoop,MRStats,Global State,The tool detected the smell in this class because the class declares global variables. The detected global variables are: ACTION_TYPE_LABEL
oozie,org.apache.oozie.store,TestDBWorkflowStore,Excessive Dependency,The tool detected the smell in this class because the class depends on too many dependencies. The total number of dependencies is: 15
oozie,org.apache.oozie.store,TestCoordinatorStore,Excessive Dependency,The tool detected the smell in this class because the class depends on too many dependencies. The total number of dependencies is: 8
oozie,org.apache.oozie.store,CoordinatorStore,Global State,The tool detected the smell in this class because the class declares global variables. The detected global variables are: LOCK_TIMEOUT
oozie,org.apache.oozie.store,CoordinatorStore,Excessive Dependency,The tool detected the smell in this class because the class depends on too many dependencies. The total number of dependencies is: 13
oozie,org.apache.oozie.store,WorkflowStore,Global State,The tool detected the smell in this class because the class declares global variables. The detected global variables are: LOCK_TIMEOUT
oozie,org.apache.oozie.store,WorkflowStore,Excessive Dependency,The tool detected the smell in this class because the class depends on too many dependencies. The total number of dependencies is: 13
oozie,org.apache.oozie.store,SLAStore,Excessive Dependency,The tool detected the smell in this class because the class depends on too many dependencies. The total number of dependencies is: 9
oozie,org.apache.oozie.store,OozieSchema,Global State,The tool detected the smell in this class because the class declares global variables. The detected global variables are: TABLE_COLUMNS
oozie,org.apache.oozie.store,OozieSchema.OozieTable,Global State,The tool detected the smell in this class because the class can be accessed as a `global` state.
oozie,org.apache.oozie.store,OozieSchema.OozieIndex,Global State,The tool detected the smell in this class because the class can be accessed as a `global` state.
oozie,org.apache.oozie.store,OozieSchema.OozieColumn,Global State,The tool detected the smell in this class because the class can be accessed as a `global` state.
oozie,org.apache.oozie.store,StoreStatusFilter,Global State,The tool detected the smell in this class because the class declares global variables. The detected global variables are: coordSeletStr; coordCountStr; wfSeletStr; wfCountStr; bundleSeletStr; bundleCountStr
oozie,org.apache.oozie,TestCoordinatorEngine,Excessive Dependency,The tool detected the smell in this class because the class depends on too many dependencies. The total number of dependencies is: 10
oozie,org.apache.oozie,TestDagELFunctions,Excessive Dependency,The tool detected the smell in this class because the class depends on too many dependencies. The total number of dependencies is: 13
oozie,org.apache.oozie,TestDagEngine,Global State,The tool detected the smell in this class because the class declares global variables. The detected global variables are: JOB_ID; NODE_NAME; STATUS
oozie,org.apache.oozie,TestDagEngine,Excessive Dependency,The tool detected the smell in this class because the class depends on too many dependencies. The total number of dependencies is: 12
oozie,org.apache.oozie,TestDagEngine.CallbackServlet,Global State,The tool detected the smell in this class because the class can be accessed as a `global` state.
oozie,org.apache.oozie,TestDagEngine.CallbackServlet,Global State,The tool detected the smell in this class because the class declares global variables. The detected global variables are: JOB_ID; NODE_NAME; STATUS
oozie,org.apache.oozie,ForTestingActionExecutor,Global State,The tool detected the smell in this class because the class declares global variables. The detected global variables are: TEST_ERROR
oozie,org.apache.oozie,BundleEngine,Excessive Dependency,The tool detected the smell in this class because the class depends on too many dependencies. The total number of dependencies is: 21
oozie,org.apache.oozie,DagELFunctions,Global State,The tool detected the smell in this class because the class declares global variables. The detected global variables are: HADOOP_JOBS_PREFIX
oozie,org.apache.oozie,DagELFunctions,Excessive Dependency,The tool detected the smell in this class because the class depends on too many dependencies. The total number of dependencies is: 11
oozie,org.apache.oozie,BaseEngine,Global State,The tool detected the smell in this class because the class declares global variables. The detected global variables are: USE_XCOMMAND
oozie,org.apache.oozie,FaultInjection,Global State,The tool detected the smell in this class because the class declares global variables. The detected global variables are: FAULT_INJECTION
oozie,org.apache.oozie,CoordinatorEngine,Excessive Dependency,The tool detected the smell in this class because the class depends on too many dependencies. The total number of dependencies is: 19
oozie,org.apache.oozie,DagEngine,Excessive Dependency,The tool detected the smell in this class because the class depends on too many dependencies. The total number of dependencies is: 17
oozie,org.apache.oozie,BuildInfo,Global State,The tool detected the smell in this class because the class declares global variables. The detected global variables are: BUILD_USER_NAME; BUILD_TIME; BUILD_VERSION; BUILD_VC_REVISION; BUILD_VC_URL
oozie,org.apache.oozie.executor.jpa,TestCoordActionGetForInfoJPAExecutor,Excessive Dependency,The tool detected the smell in this class because the class depends on too many dependencies. The total number of dependencies is: 8
oozie,org.apache.oozie.executor.jpa,TestCoordActionUpdateStatusJPAExecutor,Excessive Dependency,The tool detected the smell in this class because the class depends on too many dependencies. The total number of dependencies is: 8
oozie,org.apache.oozie.executor.jpa,TestCoordActionGetForInputCheckJPAExecutor,Excessive Dependency,The tool detected the smell in this class because the class depends on too many dependencies. The total number of dependencies is: 9
oozie,org.apache.oozie.executor.jpa,TestCoordActionGetForCheckJPAExecutor,Excessive Dependency,The tool detected the smell in this class because the class depends on too many dependencies. The total number of dependencies is: 8
oozie,org.apache.oozie.executor.jpa,TestWorkflowActionUpdateJPAExecutor,Excessive Dependency,The tool detected the smell in this class because the class depends on too many dependencies. The total number of dependencies is: 9
oozie,org.apache.oozie.executor.jpa,TestCoordJobGetActionForNominalTimeJPAExecutor,Excessive Dependency,The tool detected the smell in this class because the class depends on too many dependencies. The total number of dependencies is: 8
oozie,org.apache.oozie.executor.jpa,TestWorkflowIdGetForExternalIdJPAExecutor,Excessive Dependency,The tool detected the smell in this class because the class depends on too many dependencies. The total number of dependencies is: 9
oozie,org.apache.oozie.executor.jpa,TestCoordJobGetActionsSubsetJPAExecutor,Excessive Dependency,The tool detected the smell in this class because the class depends on too many dependencies. The total number of dependencies is: 10
oozie,org.apache.oozie.executor.jpa,TestCoordActionUpdateJPAExecutor,Excessive Dependency,The tool detected the smell in this class because the class depends on too many dependencies. The total number of dependencies is: 8
oozie,org.apache.oozie.executor.jpa,TestBulkUpdateInsertForCoordActionStartJPAExecutor,Excessive Dependency,The tool detected the smell in this class because the class depends on too many dependencies. The total number of dependencies is: 19
oozie,org.apache.oozie.executor.jpa,TestWorkflowActionSubsetGetJPAExecutor,Excessive Dependency,The tool detected the smell in this class because the class depends on too many dependencies. The total number of dependencies is: 8
oozie,org.apache.oozie.executor.jpa,TestWorkflowActionRetryManualGetJPAExecutor,Excessive Dependency,The tool detected the smell in this class because the class depends on too many dependencies. The total number of dependencies is: 8
oozie,org.apache.oozie.executor.jpa,TestCoordActionUpdateForInputCheckJPAExecutor,Excessive Dependency,The tool detected the smell in this class because the class depends on too many dependencies. The total number of dependencies is: 8
oozie,org.apache.oozie.executor.jpa,TestWorkflowsJobGetJPAExecutor,Excessive Dependency,The tool detected the smell in this class because the class depends on too many dependencies. The total number of dependencies is: 9
oozie,org.apache.oozie.executor.jpa,TestCoordActionRemoveJPAExecutor,Excessive Dependency,The tool detected the smell in this class because the class depends on too many dependencies. The total number of dependencies is: 9
oozie,org.apache.oozie.executor.jpa,TestCoordJobsToBeMaterializedJPAExecutor,Excessive Dependency,The tool detected the smell in this class because the class depends on too many dependencies. The total number of dependencies is: 12
oozie,org.apache.oozie.executor.jpa,TestWorkflowActionsRunningGetJPAExecutor,Excessive Dependency,The tool detected the smell in this class because the class depends on too many dependencies. The total number of dependencies is: 9
oozie,org.apache.oozie.executor.jpa,TestBulkUpdateInsertJPAExecutor,Excessive Dependency,The tool detected the smell in this class because the class depends on too many dependencies. The total number of dependencies is: 19
oozie,org.apache.oozie.executor.jpa,TestCoordActionGetForExternalIdJPAExecutor,Excessive Dependency,The tool detected the smell in this class because the class depends on too many dependencies. The total number of dependencies is: 8
oozie,org.apache.oozie.executor.jpa,TestBulkUpdateDeleteJPAExecutor,Excessive Dependency,The tool detected the smell in this class because the class depends on too many dependencies. The total number of dependencies is: 18
oozie,org.apache.oozie.executor.jpa,TestWorkflowActionGetJPAExecutor,Excessive Dependency,The tool detected the smell in this class because the class depends on too many dependencies. The total number of dependencies is: 8
oozie,org.apache.oozie.executor.jpa,TestCoordActionUpdateForModifiedTimeJPAExecutor,Excessive Dependency,The tool detected the smell in this class because the class depends on too many dependencies. The total number of dependencies is: 8
oozie,org.apache.oozie.executor.jpa,TestBulkDeleteForPurgeJPAExecutor,Excessive Dependency,The tool detected the smell in this class because the class depends on too many dependencies. The total number of dependencies is: 18
oozie,org.apache.oozie.executor.jpa,TestCoordJobsGetForPurgeJPAExecutor,Excessive Dependency,The tool detected the smell in this class because the class depends on too many dependencies. The total number of dependencies is: 12
oozie,org.apache.oozie.executor.jpa,TestWorkflowInfoWithActionsSubsetGetJPAExecutor,Excessive Dependency,The tool detected the smell in this class because the class depends on too many dependencies. The total number of dependencies is: 8
oozie,org.apache.oozie.executor.jpa,TestBulkUpdateInsertForCoordActionStatusJPAExecutor,Excessive Dependency,The tool detected the smell in this class because the class depends on too many dependencies. The total number of dependencies is: 19
oozie,org.apache.oozie.executor.jpa,TestWorkflowJobsGetForPurgeJPAExecutor,Excessive Dependency,The tool detected the smell in this class because the class depends on too many dependencies. The total number of dependencies is: 10
oozie,org.apache.oozie.executor.jpa,TestWorkflowActionDeleteJPAExecutor,Excessive Dependency,The tool detected the smell in this class because the class depends on too many dependencies. The total number of dependencies is: 9
oozie,org.apache.oozie.executor.jpa,TestBulkMonitorJPAExecutor,Excessive Dependency,The tool detected the smell in this class because the class depends on too many dependencies. The total number of dependencies is: 12
oozie,org.apache.oozie.executor.jpa,TestCoordActionGetForStartJPAExecutor,Excessive Dependency,The tool detected the smell in this class because the class depends on too many dependencies. The total number of dependencies is: 9
oozie,org.apache.oozie.executor.jpa,TestCoordActionGetForTimeoutJPAExecutor,Excessive Dependency,The tool detected the smell in this class because the class depends on too many dependencies. The total number of dependencies is: 8
oozie,org.apache.oozie.executor.jpa,CoordActionGetForInfoJPAExecutor,Global State,The tool detected the smell in this class because the class declares global variables. The detected global variables are: COORD_GET_ALL_COLS_FOR_ACTION
oozie,org.apache.oozie.executor.jpa,CoordJobGetActionsSubsetJPAExecutor,Excessive Dependency,The tool detected the smell in this class because the class depends on too many dependencies. The total number of dependencies is: 8
oozie,org.apache.oozie.executor.jpa,BulkJPAExecutor,Excessive Dependency,The tool detected the smell in this class because the class depends on too many dependencies. The total number of dependencies is: 12
oozie,org.apache.oozie.executor.jpa,WorkflowInfoWithActionsSubsetGetJPAExecutor,Excessive Dependency,The tool detected the smell in this class because the class depends on too many dependencies. The total number of dependencies is: 8
oozie,org.apache.oozie.action.oozie,TestSubWorkflowActionExecutor,Excessive Dependency,The tool detected the smell in this class because the class depends on too many dependencies. The total number of dependencies is: 9
oozie,org.apache.oozie.action.oozie,SubWorkflowActionExecutor,Global State,The tool detected the smell in this class because the class declares global variables. The detected global variables are: ACTION_TYPE; LOCAL
oozie,org.apache.oozie.action.oozie,SubWorkflowActionExecutor,Excessive Dependency,The tool detected the smell in this class because the class depends on too many dependencies. The total number of dependencies is: 13
oozie,org.apache.oozie.action,TestActionFailover,Excessive Dependency,The tool detected the smell in this class because the class depends on too many dependencies. The total number of dependencies is: 13
oozie,org.apache.oozie.action,ActionExecutorException.ErrorType,Global State,The tool detected the smell in this class because the class can be accessed as a `global` state.
oozie,org.apache.oozie.action,ActionExecutor,Global State,The tool detected the smell in this class because the class declares global variables. The detected global variables are: CONF_PREFIX; MAX_RETRIES; ERROR_OTHER; RETRY_INTERVAL
oozie,org.apache.oozie.action.decision,DecisionActionExecutor,Global State,The tool detected the smell in this class because the class declares global variables. The detected global variables are: ACTION_TYPE; XML_ERROR
oozie,org.apache.oozie.action.ssh,TestSshActionExecutor,Excessive Dependency,The tool detected the smell in this class because the class depends on too many dependencies. The total number of dependencies is: 10
oozie,org.apache.oozie.action.ssh,SshActionExecutor,Global State,The tool detected the smell in this class because the class declares global variables. The detected global variables are: ACTION_TYPE; CONF_SSH_ALLOW_USER_AT_HOST; ERR_SETUP_FAILED; ERR_EXECUTION_FAILED; ERR_UNKNOWN_ERROR; ERR_COULD_NOT_CONNECT; ERR_HOST_RESOLUTION; ERR_FNF; ERR_AUTH_FAILED; ERR_NO_EXEC_PERM; ERR_USER_MISMATCH; ERR_EXCEDE_LEN; DELETE_TMP_DIR; HTTP_COMMAND; HTTP_COMMAND_OPTIONS
oozie,org.apache.oozie.action.ssh,SshActionExecutor,Excessive Dependency,The tool detected the smell in this class because the class depends on too many dependencies. The total number of dependencies is: 10
oozie,org.apache.oozie.servlet,TestAuthFilterAuthOozieClient,Excessive Dependency,The tool detected the smell in this class because the class depends on too many dependencies. The total number of dependencies is: 13
oozie,org.apache.oozie.servlet,TestAuthFilterAuthOozieClient.Authenticator4Test,Global State,The tool detected the smell in this class because the class can be accessed as a `global` state.
oozie,org.apache.oozie.servlet,TestV1JobsServlet,Excessive Dependency,The tool detected the smell in this class because the class depends on too many dependencies. The total number of dependencies is: 8
oozie,org.apache.oozie.servlet,TestJobsServlet,Excessive Dependency,The tool detected the smell in this class because the class depends on too many dependencies. The total number of dependencies is: 8
oozie,org.apache.oozie.servlet,TestJobsServlet.V0JobsServletWithDefUser,Global State,The tool detected the smell in this class because the class can be accessed as a `global` state.
oozie,org.apache.oozie.servlet,DagServletTestCase,Excessive Dependency,The tool detected the smell in this class because the class depends on too many dependencies. The total number of dependencies is: 10
oozie,org.apache.oozie.servlet,TestBulkMonitorWebServiceAPI,Excessive Dependency,The tool detected the smell in this class because the class depends on too many dependencies. The total number of dependencies is: 19
oozie,org.apache.oozie.servlet,MockCoordinatorEngineService,Global State,The tool detected the smell in this class because the class declares global variables. The detected global variables are: JOB_ID; ACTION_ID; COORD_APP; CONFIGURATION; GROUP; USER; LOG; did; coordJobs; started; INIT_COORD_COUNT
oozie,org.apache.oozie.servlet,TestV1JobServlet,Excessive Dependency,The tool detected the smell in this class because the class depends on too many dependencies. The total number of dependencies is: 8
oozie,org.apache.oozie.servlet,MockDagEngineService,Global State,The tool detected the smell in this class because the class declares global variables. The detected global variables are: JOB_ID; JOB_ID_END; ACTION_ID; EXT_ID; WORKFLOW_APP; CONFIGURATION; GROUP; USER; LOG; submittedConf; did; user; properties; workflows; started; INIT_WF_COUNT
oozie,org.apache.oozie.servlet,V0JobsServlet,Excessive Dependency,The tool detected the smell in this class because the class depends on too many dependencies. The total number of dependencies is: 10
oozie,org.apache.oozie.servlet,CallbackServlet,Global State,The tool detected the smell in this class because the class declares global variables. The detected global variables are: CONF_MAX_DATA_LEN
oozie,org.apache.oozie.servlet,CallbackServlet,Excessive Dependency,The tool detected the smell in this class because the class depends on too many dependencies. The total number of dependencies is: 9
oozie,org.apache.oozie.servlet,JsonRestServlet,Global State,The tool detected the smell in this class because the class declares global variables. The detected global variables are: AUTH_TOKEN; USER_NAME
oozie,org.apache.oozie.servlet,JsonRestServlet,Excessive Dependency,The tool detected the smell in this class because the class depends on too many dependencies. The total number of dependencies is: 13
oozie,org.apache.oozie.servlet,JsonRestServlet.ParameterInfo,Global State,The tool detected the smell in this class because the class can be accessed as a `global` state.
oozie,org.apache.oozie.servlet,JsonRestServlet.ResourceInfo,Global State,The tool detected the smell in this class because the class can be accessed as a `global` state.
oozie,org.apache.oozie.servlet,BaseJobsServlet,Excessive Dependency,The tool detected the smell in this class because the class depends on too many dependencies. The total number of dependencies is: 8
oozie,org.apache.oozie.servlet,V1JobServlet,Global State,The tool detected the smell in this class because the class declares global variables. The detected global variables are: COORD_ACTIONS_DEFAULT_LENGTH
oozie,org.apache.oozie.servlet,BaseJobServlet,Excessive Dependency,The tool detected the smell in this class because the class depends on too many dependencies. The total number of dependencies is: 13
oozie,org.apache.oozie.servlet,BaseAdminServlet,Excessive Dependency,The tool detected the smell in this class because the class depends on too many dependencies. The total number of dependencies is: 8
oozie,org.apache.oozie.servlet,V1JobsServlet,Excessive Dependency,The tool detected the smell in this class because the class depends on too many dependencies. The total number of dependencies is: 23
oozie,org.apache.oozie.command.wf,TestPurgeXCommand,Excessive Dependency,The tool detected the smell in this class because the class depends on too many dependencies. The total number of dependencies is: 18
oozie,org.apache.oozie.command.wf,TestActionStartXCommand,Excessive Dependency,The tool detected the smell in this class because the class depends on too many dependencies. The total number of dependencies is: 23
oozie,org.apache.oozie.command.wf,TestWorkflowKillXCommand,Excessive Dependency,The tool detected the smell in this class because the class depends on too many dependencies. The total number of dependencies is: 11
oozie,org.apache.oozie.command.wf,TestActionCheckXCommand,Excessive Dependency,The tool detected the smell in this class because the class depends on too many dependencies. The total number of dependencies is: 20
oozie,org.apache.oozie.command.wf,TestSubmitMRXCommand,Excessive Dependency,The tool detected the smell in this class because the class depends on too many dependencies. The total number of dependencies is: 9
oozie,org.apache.oozie.command.wf,TestWorkflowActionKillXCommand,Excessive Dependency,The tool detected the smell in this class because the class depends on too many dependencies. The total number of dependencies is: 10
oozie,org.apache.oozie.command.wf,TestSubmitPigXCommand,Excessive Dependency,The tool detected the smell in this class because the class depends on too many dependencies. The total number of dependencies is: 8
oozie,org.apache.oozie.command.wf,TestSubmitXCommand,Excessive Dependency,The tool detected the smell in this class because the class depends on too many dependencies. The total number of dependencies is: 10
oozie,org.apache.oozie.command.wf,TestActionErrors,Excessive Dependency,The tool detected the smell in this class because the class depends on too many dependencies. The total number of dependencies is: 25
oozie,org.apache.oozie.command.wf,TestNotificationXCommand,Excessive Dependency,The tool detected the smell in this class because the class depends on too many dependencies. The total number of dependencies is: 9
oozie,org.apache.oozie.command.wf,ActionStartXCommand,Global State,The tool detected the smell in this class because the class declares global variables. The detected global variables are: EL_ERROR; EL_EVAL_ERROR; COULD_NOT_START; START_DATA_MISSING; EXEC_DATA_MISSING
oozie,org.apache.oozie.command.wf,ActionStartXCommand,Excessive Dependency,The tool detected the smell in this class because the class depends on too many dependencies. The total number of dependencies is: 20
oozie,org.apache.oozie.command.wf,NotificationXCommand,Global State,The tool detected the smell in this class because the class declares global variables. The detected global variables are: NOTIFICATION_URL_CONNECTION_TIMEOUT_KEY; NOTIFICATION_URL_CONNECTION_TIMEOUT_DEFAULT
oozie,org.apache.oozie.command.wf,ActionCheckXCommand,Global State,The tool detected the smell in this class because the class declares global variables. The detected global variables are: EXEC_DATA_MISSING
oozie,org.apache.oozie.command.wf,ActionCheckXCommand,Excessive Dependency,The tool detected the smell in this class because the class depends on too many dependencies. The total number of dependencies is: 16
oozie,org.apache.oozie.command.wf,ActionKillXCommand,Excessive Dependency,The tool detected the smell in this class because the class depends on too many dependencies. The total number of dependencies is: 13
oozie,org.apache.oozie.command.wf,SubmitXCommand,Global State,The tool detected the smell in this class because the class declares global variables. The detected global variables are: CONFIG_DEFAULT
oozie,org.apache.oozie.command.wf,SubmitXCommand,Excessive Dependency,The tool detected the smell in this class because the class depends on too many dependencies. The total number of dependencies is: 27
oozie,org.apache.oozie.command.wf,KillXCommand,Excessive Dependency,The tool detected the smell in this class because the class depends on too many dependencies. The total number of dependencies is: 12
oozie,org.apache.oozie.command.wf,ActionEndXCommand,Global State,The tool detected the smell in this class because the class declares global variables. The detected global variables are: COULD_NOT_END; END_DATA_MISSING
oozie,org.apache.oozie.command.wf,ActionEndXCommand,Excessive Dependency,The tool detected the smell in this class because the class depends on too many dependencies. The total number of dependencies is: 19
oozie,org.apache.oozie.command.wf,ActionXCommand,Excessive Dependency,The tool detected the smell in this class because the class depends on too many dependencies. The total number of dependencies is: 13
oozie,org.apache.oozie.command.wf,ActionXCommand.ActionExecutorContext,Global State,The tool detected the smell in this class because the class can be accessed as a `global` state.
oozie,org.apache.oozie.command.wf,SubmitHttpXCommand,Excessive Dependency,The tool detected the smell in this class because the class depends on too many dependencies. The total number of dependencies is: 20
oozie,org.apache.oozie.command.wf,SuspendXCommand,Excessive Dependency,The tool detected the smell in this class because the class depends on too many dependencies. The total number of dependencies is: 9
oozie,org.apache.oozie.command.wf,SignalXCommand,Excessive Dependency,The tool detected the smell in this class because the class depends on too many dependencies. The total number of dependencies is: 22
oozie,org.apache.oozie.command.wf,ResumeXCommand,Excessive Dependency,The tool detected the smell in this class because the class depends on too many dependencies. The total number of dependencies is: 16
oozie,org.apache.oozie.command.wf,CompletedActionXCommand,Excessive Dependency,The tool detected the smell in this class because the class depends on too many dependencies. The total number of dependencies is: 8
oozie,org.apache.oozie.command.wf,ReRunXCommand,Global State,The tool detected the smell in this class because the class declares global variables. The detected global variables are: TO_SKIP
oozie,org.apache.oozie.command.wf,ReRunXCommand,Excessive Dependency,The tool detected the smell in this class because the class depends on too many dependencies. The total number of dependencies is: 24
oozie,org.apache.oozie.command,TestXCommand.AXCommand,Global State,The tool detected the smell in this class because the class can be accessed as a `global` state.
oozie,org.apache.oozie.command,SkipCommitFaultInjection,Global State,The tool detected the smell in this class because the class declares global variables. The detected global variables are: ACTION_FAILOVER_FAULT_INJECTION
oozie,org.apache.oozie.command,XCommand,Global State,The tool detected the smell in this class because the class declares global variables. The detected global variables are: DEFAULT_LOCK_TIMEOUT; INSTRUMENTATION_GROUP; DEFAULT_REQUEUE_DELAY
oozie,org.apache.oozie.command,XCommand,Excessive Dependency,The tool detected the smell in this class because the class depends on too many dependencies. The total number of dependencies is: 11
oozie,org.apache.oozie.command,Command,Excessive Dependency,The tool detected the smell in this class because the class depends on too many dependencies. The total number of dependencies is: 18
oozie,org.apache.oozie.command.coord,TestCoordActionStartXCommand,Excessive Dependency,The tool detected the smell in this class because the class depends on too many dependencies. The total number of dependencies is: 13
oozie,org.apache.oozie.command.coord,TestCoordActionInputCheckXCommand,Excessive Dependency,The tool detected the smell in this class because the class depends on too many dependencies. The total number of dependencies is: 18
oozie,org.apache.oozie.command.coord,TestCoordMaterializeTransitionXCommand,Excessive Dependency,The tool detected the smell in this class because the class depends on too many dependencies. The total number of dependencies is: 8
oozie,org.apache.oozie.command.coord,TestCoordKillXCommand,Excessive Dependency,The tool detected the smell in this class because the class depends on too many dependencies. The total number of dependencies is: 16
oozie,org.apache.oozie.command.coord,TestCoordChangeXCommand,Excessive Dependency,The tool detected the smell in this class because the class depends on too many dependencies. The total number of dependencies is: 11
oozie,org.apache.oozie.command.coord,TestPastActionsTimeOut,Excessive Dependency,The tool detected the smell in this class because the class depends on too many dependencies. The total number of dependencies is: 8
oozie,org.apache.oozie.command.coord,TestCoordActionNotificationXCommand,Excessive Dependency,The tool detected the smell in this class because the class depends on too many dependencies. The total number of dependencies is: 9
oozie,org.apache.oozie.command.coord,TestCoordPurgeXCommand,Excessive Dependency,The tool detected the smell in this class because the class depends on too many dependencies. The total number of dependencies is: 10
oozie,org.apache.oozie.command.coord,TestCoordSubmitXCommand,Excessive Dependency,The tool detected the smell in this class because the class depends on too many dependencies. The total number of dependencies is: 10
oozie,org.apache.oozie.command.coord,TestFutureActionsTimeOut,Excessive Dependency,The tool detected the smell in this class because the class depends on too many dependencies. The total number of dependencies is: 8
oozie,org.apache.oozie.command.coord,TestCoordRerunXCommand,Excessive Dependency,The tool detected the smell in this class because the class depends on too many dependencies. The total number of dependencies is: 23
oozie,org.apache.oozie.command.coord,CoordActionInputCheckXCommand,Global State,The tool detected the smell in this class because the class declares global variables. The detected global variables are: CONF_COORD_INPUT_CHECK_REQUEUE_INTERVAL
oozie,org.apache.oozie.command.coord,CoordActionInputCheckXCommand,Excessive Dependency,The tool detected the smell in this class because the class depends on too many dependencies. The total number of dependencies is: 20
oozie,org.apache.oozie.command.coord,CoordRerunXCommand,Excessive Dependency,The tool detected the smell in this class because the class depends on too many dependencies. The total number of dependencies is: 22
oozie,org.apache.oozie.command.coord,CoordMaterializeTransitionXCommand,Global State,The tool detected the smell in this class because the class declares global variables. The detected global variables are: CONF_DEFAULT_MAX_TIMEOUT
oozie,org.apache.oozie.command.coord,CoordMaterializeTransitionXCommand,Excessive Dependency,The tool detected the smell in this class because the class depends on too many dependencies. The total number of dependencies is: 19
oozie,org.apache.oozie.command.coord,CoordResumeXCommand,Excessive Dependency,The tool detected the smell in this class because the class depends on too many dependencies. The total number of dependencies is: 11
oozie,org.apache.oozie.command.coord,CoordCommandUtils,Global State,The tool detected the smell in this class because the class declares global variables. The detected global variables are: CURRENT; LATEST; FUTURE; OFFSET; UNEXPECTED; RESOLVED_UNRESOLVED_SEPARATOR
oozie,org.apache.oozie.command.coord,CoordCommandUtils,Excessive Dependency,The tool detected the smell in this class because the class depends on too many dependencies. The total number of dependencies is: 14
oozie,org.apache.oozie.command.coord,CoordSuspendXCommand,Excessive Dependency,The tool detected the smell in this class because the class depends on too many dependencies. The total number of dependencies is: 12
oozie,org.apache.oozie.command.coord,CoordKillXCommand,Excessive Dependency,The tool detected the smell in this class because the class depends on too many dependencies. The total number of dependencies is: 10
oozie,org.apache.oozie.command.coord,CoordActionReadyXCommand,Excessive Dependency,The tool detected the smell in this class because the class depends on too many dependencies. The total number of dependencies is: 8
oozie,org.apache.oozie.command.coord,CoordActionStartXCommand,Global State,The tool detected the smell in this class because the class declares global variables. The detected global variables are: EL_ERROR; EL_EVAL_ERROR; COULD_NOT_START; START_DATA_MISSING; EXEC_DATA_MISSING
oozie,org.apache.oozie.command.coord,CoordActionStartXCommand,Excessive Dependency,The tool detected the smell in this class because the class depends on too many dependencies. The total number of dependencies is: 17
oozie,org.apache.oozie.command.coord,CoordActionCheckXCommand,Excessive Dependency,The tool detected the smell in this class because the class depends on too many dependencies. The total number of dependencies is: 12
oozie,org.apache.oozie.command.coord,CoordSubmitXCommand,Global State,The tool detected the smell in this class because the class declares global variables. The detected global variables are: CONFIG_DEFAULT; COORDINATOR_XML_FILE; CONF_DEFAULT_TIMEOUT_NORMAL; CONF_DEFAULT_CONCURRENCY; CONF_DEFAULT_THROTTLE; CONF_MAT_THROTTLING_FACTOR; CONF_DEFAULT_MAX_TIMEOUT; CONF_QUEUE_SIZE
oozie,org.apache.oozie.command.coord,CoordSubmitXCommand,Excessive Dependency,The tool detected the smell in this class because the class depends on too many dependencies. The total number of dependencies is: 30
oozie,org.apache.oozie.command.coord,CoordActionUpdateXCommand,Excessive Dependency,The tool detected the smell in this class because the class depends on too many dependencies. The total number of dependencies is: 10
oozie,org.apache.oozie.command.coord,CoordChangeXCommand,Excessive Dependency,The tool detected the smell in this class because the class depends on too many dependencies. The total number of dependencies is: 15
oozie,org.apache.oozie.command.coord,CoordActionMaterializeCommand,Global State,The tool detected the smell in this class because the class declares global variables. The detected global variables are: CONF_DEFAULT_TIMEOUT_CATCHUP
oozie,org.apache.oozie.command.coord,CoordActionMaterializeCommand,Excessive Dependency,The tool detected the smell in this class because the class depends on too many dependencies. The total number of dependencies is: 17
oozie,org.apache.oozie.command.coord,CoordActionNotificationXCommand,Excessive Dependency,The tool detected the smell in this class because the class depends on too many dependencies. The total number of dependencies is: 8
oozie,org.apache.oozie.command.coord,SLAEventsXCommand,Global State,The tool detected the smell in this class because the class declares global variables. The detected global variables are: SLA_DEFAULT_MAXEVENTS
oozie,org.apache.oozie.command.bundle,TestBundleRerunXCommand,Excessive Dependency,The tool detected the smell in this class because the class depends on too many dependencies. The total number of dependencies is: 12
oozie,org.apache.oozie.command.bundle,TestBundleStartXCommand,Excessive Dependency,The tool detected the smell in this class because the class depends on too many dependencies. The total number of dependencies is: 9
oozie,org.apache.oozie.command.bundle,TestBundleJobSuspendXCommand,Excessive Dependency,The tool detected the smell in this class because the class depends on too many dependencies. The total number of dependencies is: 11
oozie,org.apache.oozie.command.bundle,TestBundleChangeXCommand,Excessive Dependency,The tool detected the smell in this class because the class depends on too many dependencies. The total number of dependencies is: 10
oozie,org.apache.oozie.command.bundle,TestBundleKillXCommand,Excessive Dependency,The tool detected the smell in this class because the class depends on too many dependencies. The total number of dependencies is: 11
oozie,org.apache.oozie.command.bundle,TestBundlePurgeXCommand,Excessive Dependency,The tool detected the smell in this class because the class depends on too many dependencies. The total number of dependencies is: 9
oozie,org.apache.oozie.command.bundle,BundleStartXCommand,Excessive Dependency,The tool detected the smell in this class because the class depends on too many dependencies. The total number of dependencies is: 12
oozie,org.apache.oozie.command.bundle,BundleRerunXCommand,Excessive Dependency,The tool detected the smell in this class because the class depends on too many dependencies. The total number of dependencies is: 11
oozie,org.apache.oozie.command.bundle,BundleSubmitXCommand,Global State,The tool detected the smell in this class because the class declares global variables. The detected global variables are: CONFIG_DEFAULT; BUNDLE_XML_FILE
oozie,org.apache.oozie.command.bundle,BundleSubmitXCommand,Excessive Dependency,The tool detected the smell in this class because the class depends on too many dependencies. The total number of dependencies is: 22
oozie,org.apache.oozie.command.bundle,BundleKillXCommand,Excessive Dependency,The tool detected the smell in this class because the class depends on too many dependencies. The total number of dependencies is: 8
oozie,org.apache.oozie.command.bundle,BundleJobResumeXCommand,Excessive Dependency,The tool detected the smell in this class because the class depends on too many dependencies. The total number of dependencies is: 9
oozie,org.apache.oozie.command.bundle,BundleJobChangeXCommand,Excessive Dependency,The tool detected the smell in this class because the class depends on too many dependencies. The total number of dependencies is: 11
oozie,org.apache.oozie.command.bundle,BundleJobSuspendXCommand,Excessive Dependency,The tool detected the smell in this class because the class depends on too many dependencies. The total number of dependencies is: 9
oozie,org.apache.oozie.service,TestPauseTransitService,Excessive Dependency,The tool detected the smell in this class because the class depends on too many dependencies. The total number of dependencies is: 13
oozie,org.apache.oozie.service,TestServices,Global State,The tool detected the smell in this class because the class declares global variables. The detected global variables are: INITED_S1; INITED_S1EXT
oozie,org.apache.oozie.service,TestServices.S1,Global State,The tool detected the smell in this class because the class can be accessed as a `global` state.
oozie,org.apache.oozie.service,TestServices.S1,Global State,The tool detected the smell in this class because the class declares global variables. The detected global variables are: INITED_S1
oozie,org.apache.oozie.service,TestServices.S2,Global State,The tool detected the smell in this class because the class can be accessed as a `global` state.
oozie,org.apache.oozie.service,TestServices.S1Ext,Global State,The tool detected the smell in this class because the class can be accessed as a `global` state.
oozie,org.apache.oozie.service,TestServices.S1Ext,Global State,The tool detected the smell in this class because the class declares global variables. The detected global variables are: INITED_S1EXT
oozie,org.apache.oozie.service,TestStatusTransitService,Excessive Dependency,The tool detected the smell in this class because the class depends on too many dependencies. The total number of dependencies is: 27
oozie,org.apache.oozie.service,TestAuthorizationService,Excessive Dependency,The tool detected the smell in this class because the class depends on too many dependencies. The total number of dependencies is: 19
oozie,org.apache.oozie.service,TestAuthorizationService.DummyGroupsService,Global State,The tool detected the smell in this class because the class can be accessed as a `global` state.
oozie,org.apache.oozie.service,TestPurgeService,Excessive Dependency,The tool detected the smell in this class because the class depends on too many dependencies. The total number of dependencies is: 31
oozie,org.apache.oozie.service,TestLiteWorkflowAppService,Excessive Dependency,The tool detected the smell in this class because the class depends on too many dependencies. The total number of dependencies is: 9
oozie,org.apache.oozie.service,TestLiteWorkflowAppService.TestActionExecutor,Global State,The tool detected the smell in this class because the class can be accessed as a `global` state.
oozie,org.apache.oozie.service,TestCoordMaterializeTriggerService,Excessive Dependency,The tool detected the smell in this class because the class depends on too many dependencies. The total number of dependencies is: 10
oozie,org.apache.oozie.service,TestActionCheckerService,Excessive Dependency,The tool detected the smell in this class because the class depends on too many dependencies. The total number of dependencies is: 21
oozie,org.apache.oozie.service,TestRecoveryService,Excessive Dependency,The tool detected the smell in this class because the class depends on too many dependencies. The total number of dependencies is: 37
oozie,org.apache.oozie.service,TestJPAService.MyJPAExecutor,Global State,The tool detected the smell in this class because the class can be accessed as a `global` state.
oozie,org.apache.oozie.service,TestCallableQueueService.MyCallable,Global State,The tool detected the smell in this class because the class can be accessed as a `global` state.
oozie,org.apache.oozie.service,TestCallableQueueService.ExtendedXCommand,Global State,The tool detected the smell in this class because the class can be accessed as a `global` state.
oozie,org.apache.oozie.service,TestCallableQueueService.CLCallable,Global State,The tool detected the smell in this class because the class can be accessed as a `global` state.
oozie,org.apache.oozie.service,SchedulerService,Global State,The tool detected the smell in this class because the class declares global variables. The detected global variables are: CONF_PREFIX; SCHEDULER_THREADS
oozie,org.apache.oozie.service,WorkflowAppService,Global State,The tool detected the smell in this class because the class declares global variables. The detected global variables are: CONF_PREFIX; SYSTEM_LIB_PATH; APP_LIB_PATH_LIST; HADOOP_USER; CONFG_MAX_WF_LENGTH; OOZIE_SUBWORKFLOW_CLASSPATH_INHERITANCE; OOZIE_WF_SUBWORKFLOW_CLASSPATH_INHERITANCE
oozie,org.apache.oozie.service,WorkflowAppService,Excessive Dependency,The tool detected the smell in this class because the class depends on too many dependencies. The total number of dependencies is: 8
oozie,org.apache.oozie.service,SchemaService,Global State,The tool detected the smell in this class because the class declares global variables. The detected global variables are: CONF_PREFIX; WF_CONF_EXT_SCHEMAS; COORD_CONF_EXT_SCHEMAS; BUNDLE_CONF_EXT_SCHEMAS; SLA_CONF_EXT_SCHEMAS; SLA_NAME_SPACE_URI; COORDINATOR_NAMESPACE_URI_1
oozie,org.apache.oozie.service,HadoopAccessorService,Global State,The tool detected the smell in this class because the class declares global variables. The detected global variables are: CONF_PREFIX; JOB_TRACKER_WHITELIST; NAME_NODE_WHITELIST; HADOOP_CONFS; ACTION_CONFS; KERBEROS_AUTH_ENABLED; KERBEROS_KEYTAB; KERBEROS_PRINCIPAL; MR_TOKEN_ALIAS; SUPPORTED_FILESYSTEMS
oozie,org.apache.oozie.service,HadoopAccessorService,Excessive Dependency,The tool detected the smell in this class because the class depends on too many dependencies. The total number of dependencies is: 10
oozie,org.apache.oozie.service,ActionService,Global State,The tool detected the smell in this class because the class declares global variables. The detected global variables are: CONF_ACTION_EXECUTOR_CLASSES; CONF_ACTION_EXECUTOR_EXT_CLASSES
oozie,org.apache.oozie.service,Services,Global State,The tool detected the smell in this class because the class declares global variables. The detected global variables are: OOZIE_HOME_DIR; CONF_SYSTEM_ID; CONF_SERVICE_CLASSES; CONF_SERVICE_EXT_CLASSES; CONF_SYSTEM_MODE; CONF_DELETE_RUNTIME_DIR
oozie,org.apache.oozie.service,GroupsService,Global State,The tool detected the smell in this class because the class declares global variables. The detected global variables are: CONF_PREFIX
oozie,org.apache.oozie.service,ConfigurationService,Global State,The tool detected the smell in this class because the class declares global variables. The detected global variables are: CONF_PREFIX; CONF_IGNORE_SYS_PROPS; OOZIE_CONFIG_DIR; OOZIE_DATA_DIR; OOZIE_CONFIG_FILE; DEFAULT_CONFIG_FILE; SITE_CONFIG_FILE
oozie,org.apache.oozie.service,ConfigurationService,Excessive Dependency,The tool detected the smell in this class because the class depends on too many dependencies. The total number of dependencies is: 8
oozie,org.apache.oozie.service,LiteWorkflowStoreService,Global State,The tool detected the smell in this class because the class declares global variables. The detected global variables are: CONF_PREFIX; CONF_PREFIX_USER_RETRY; CONF_USER_RETRY_MAX; CONF_USER_RETRY_INTEVAL; CONF_USER_RETRY_ERROR_CODE; CONF_USER_RETRY_ERROR_CODE_EXT; NODE_DEF_VERSION_0; NODE_DEF_VERSION_1; CONF_NODE_DEF_VERSION
oozie,org.apache.oozie.service,LiteWorkflowStoreService,Excessive Dependency,The tool detected the smell in this class because the class depends on too many dependencies. The total number of dependencies is: 17
oozie,org.apache.oozie.service,LiteWorkflowStoreService.LiteActionHandler,Global State,The tool detected the smell in this class because the class can be accessed as a `global` state.
oozie,org.apache.oozie.service,LiteWorkflowStoreService.LiteDecisionHandler,Global State,The tool detected the smell in this class because the class can be accessed as a `global` state.
oozie,org.apache.oozie.service,LiteWorkflowStoreService.LiteControlNodeHandler,Global State,The tool detected the smell in this class because the class can be accessed as a `global` state.
oozie,org.apache.oozie.service,CallableQueueService,Global State,The tool detected the smell in this class because the class declares global variables. The detected global variables are: CONF_PREFIX; CONF_QUEUE_SIZE; CONF_THREADS; CONF_CALLABLE_CONCURRENCY; CONF_CALLABLE_NEXT_ELIGIBLE; CONF_CALLABLE_INTERRUPT_TYPES; CONF_CALLABLE_INTERRUPT_MAP_MAX_SIZE; CONCURRENCY_DELAY; SAFE_MODE_DELAY; INTERRUPT_TYPES
oozie,org.apache.oozie.service,ELService,Global State,The tool detected the smell in this class because the class declares global variables. The detected global variables are: CONF_PREFIX; CONF_CONSTANTS; CONF_EXT_CONSTANTS; CONF_FUNCTIONS; CONF_EXT_FUNCTIONS; CONF_GROUPS
oozie,org.apache.oozie.service,AuthorizationService,Global State,The tool detected the smell in this class because the class declares global variables. The detected global variables are: CONF_PREFIX; CONF_SECURITY_ENABLED; CONF_AUTHORIZATION_ENABLED; CONF_DEFAULT_GROUP_AS_ACL; CONF_ADMIN_GROUPS; ADMIN_USERS_FILE
oozie,org.apache.oozie.service,AuthorizationService,Excessive Dependency,The tool detected the smell in this class because the class depends on too many dependencies. The total number of dependencies is: 17
oozie,org.apache.oozie.service,PurgeService,Global State,The tool detected the smell in this class because the class declares global variables. The detected global variables are: CONF_PREFIX; CONF_OLDER_THAN; COORD_CONF_OLDER_THAN; BUNDLE_CONF_OLDER_THAN; CONF_PURGE_INTERVAL; PURGE_LIMIT
oozie,org.apache.oozie.service,ActionCheckerService,Global State,The tool detected the smell in this class because the class declares global variables. The detected global variables are: CONF_PREFIX; CONF_ACTION_CHECK_INTERVAL; CONF_ACTION_CHECK_DELAY; CONF_CALLABLE_BATCH_SIZE
oozie,org.apache.oozie.service,ProxyUserService,Global State,The tool detected the smell in this class because the class declares global variables. The detected global variables are: CONF_PREFIX; GROUPS; HOSTS
oozie,org.apache.oozie.service,JPAService,Global State,The tool detected the smell in this class because the class declares global variables. The detected global variables are: CONF_DB_SCHEMA; CONF_PREFIX; CONF_URL; CONF_DRIVER; CONF_USERNAME; CONF_PASSWORD; CONF_CONN_DATA_SOURCE; CONF_MAX_ACTIVE_CONN; CONF_CREATE_DB_SCHEMA; CONF_VALIDATE_DB_CONN; CONF_VALIDATE_DB_CONN_EVICTION_INTERVAL; CONF_VALIDATE_DB_CONN_EVICTION_NUM
oozie,org.apache.oozie.service,JPAService,Excessive Dependency,The tool detected the smell in this class because the class depends on too many dependencies. The total number of dependencies is: 22
oozie,org.apache.oozie.service,InstrumentationService,Global State,The tool detected the smell in this class because the class declares global variables. The detected global variables are: CONF_PREFIX; CONF_LOGGING_INTERVAL
oozie,org.apache.oozie.service,XLogService,Global State,The tool detected the smell in this class because the class declares global variables. The detected global variables are: OOZIE_LOG_DIR; LOG4J_FILE; LOG4J_RELOAD; DEFAULT_LOG4J_PROPERTIES; DEFAULT_RELOAD_INTERVAL; USER; GROUP
oozie,org.apache.oozie.service,XLogService,Excessive Dependency,The tool detected the smell in this class because the class depends on too many dependencies. The total number of dependencies is: 8
oozie,org.apache.oozie.service,CoordinatorStoreService,Global State,The tool detected the smell in this class because the class declares global variables. The detected global variables are: TRANSIENT_VAR_PREFIX; WORKFLOW_BEAN
oozie,org.apache.oozie.service,CallbackService,Global State,The tool detected the smell in this class because the class declares global variables. The detected global variables are: CONF_PREFIX; CONF_BASE_URL
oozie,org.apache.oozie.service,Service,Global State,The tool detected the smell in this class because the class declares global variables. The detected global variables are: DEFAULT_LOCK_TIMEOUT; CONF_PREFIX; USE_XCOMMAND; lockTimeout
oozie,org.apache.oozie.service,StatusTransitService,Global State,The tool detected the smell in this class because the class declares global variables. The detected global variables are: CONF_PREFIX; CONF_STATUSTRANSIT_INTERVAL; CONF_BACKWARD_SUPPORT_FOR_COORD_STATUS; CONF_BACKWARD_SUPPORT_FOR_STATES_WITHOUT_ERROR
oozie,org.apache.oozie.service,StatusTransitService,Excessive Dependency,The tool detected the smell in this class because the class depends on too many dependencies. The total number of dependencies is: 10
oozie,org.apache.oozie.service,CoordMaterializeTriggerService,Global State,The tool detected the smell in this class because the class declares global variables. The detected global variables are: CONF_PREFIX; CONF_LOOKUP_INTERVAL; CONF_MATERIALIZATION_WINDOW; CONF_CALLABLE_BATCH_SIZE; CONF_MATERIALIZATION_SYSTEM_LIMIT
oozie,org.apache.oozie.service,PauseTransitService,Global State,The tool detected the smell in this class because the class declares global variables. The detected global variables are: CONF_PREFIX; CONF_BUNDLE_PAUSE_START_INTERVAL
oozie,org.apache.oozie.service,PauseTransitService,Excessive Dependency,The tool detected the smell in this class because the class depends on too many dependencies. The total number of dependencies is: 8
oozie,org.apache.oozie.service,WorkflowSchemaService,Global State,The tool detected the smell in this class because the class declares global variables. The detected global variables are: CONF_PREFIX; CONF_EXT_SCHEMAS
oozie,org.apache.oozie.service,DagXLogInfoService,Global State,The tool detected the smell in this class because the class declares global variables. The detected global variables are: TOKEN; APP; JOB; ACTION
oozie,org.apache.oozie.service,UUIDService,Global State,The tool detected the smell in this class because the class declares global variables. The detected global variables are: CONF_PREFIX; CONF_GENERATOR
oozie,org.apache.oozie.service,WorkflowStoreService,Global State,The tool detected the smell in this class because the class declares global variables. The detected global variables are: TRANSIENT_VAR_PREFIX; WORKFLOW_BEAN
oozie,org.apache.oozie.service,DBLiteWorkflowStoreService,Global State,The tool detected the smell in this class because the class declares global variables. The detected global variables are: CONF_PREFIX; CONF_METRICS_INTERVAL_MINS; CONF_METRICS_INTERVAL_WINDOW
oozie,org.apache.oozie.service,DBLiteWorkflowStoreService,Excessive Dependency,The tool detected the smell in this class because the class depends on too many dependencies. The total number of dependencies is: 9
oozie,org.apache.oozie.service,RecoveryService,Global State,The tool detected the smell in this class because the class declares global variables. The detected global variables are: CONF_PREFIX; CONF_PREFIX_WF_ACTIONS; CONF_PREFIX_COORD; CONF_PREFIX_BUNDLE; CONF_SERVICE_INTERVAL; CONF_CALLABLE_BATCH_SIZE; CONF_WF_ACTIONS_OLDER_THAN; CONF_COORD_OLDER_THAN; CONF_BUNDLE_OLDER_THAN
oozie,org.apache.oozie.service,RecoveryService,Excessive Dependency,The tool detected the smell in this class because the class depends on too many dependencies. The total number of dependencies is: 14
oozie,org.apache.oozie.workflow.lite,TestLiteWorkflowLib,Excessive Dependency,The tool detected the smell in this class because the class depends on too many dependencies. The total number of dependencies is: 13
oozie,org.apache.oozie.workflow.lite,TestLiteWorkflowLib.BaseNodeHandler,Global State,The tool detected the smell in this class because the class can be accessed as a `global` state.
oozie,org.apache.oozie.workflow.lite,TestLiteWorkflowLib.AsynchNodeHandler,Global State,The tool detected the smell in this class because the class can be accessed as a `global` state.
oozie,org.apache.oozie.workflow.lite,TestLiteWorkflowLib.SynchNodeHandler,Global State,The tool detected the smell in this class because the class can be accessed as a `global` state.
oozie,org.apache.oozie.workflow.lite,TestLiteWorkflowLib.TestActionNodeHandler,Global State,The tool detected the smell in this class because the class can be accessed as a `global` state.
oozie,org.apache.oozie.workflow.lite,TestLiteWorkflowLib.TestDecisionNodeHandler,Global State,The tool detected the smell in this class because the class can be accessed as a `global` state.
oozie,org.apache.oozie.workflow.lite,TestLiteWorkflowLib.TestControlNodeHandler,Global State,The tool detected the smell in this class because the class can be accessed as a `global` state.
oozie,org.apache.oozie.workflow.lite,TestLiteWorkflowLib.TestRootContextHandler,Global State,The tool detected the smell in this class because the class can be accessed as a `global` state.
oozie,org.apache.oozie.workflow.lite,TestLiteWorkflowLib.TestForkedContextHandler,Global State,The tool detected the smell in this class because the class can be accessed as a `global` state.
oozie,org.apache.oozie.workflow.lite,TestLiteWorkflowAppParser,Global State,The tool detected the smell in this class because the class declares global variables. The detected global variables are: dummyConf
oozie,org.apache.oozie.workflow.lite,TestLiteWorkflowAppParser,Excessive Dependency,The tool detected the smell in this class because the class depends on too many dependencies. The total number of dependencies is: 17
oozie,org.apache.oozie.workflow.lite,KillNodeDef.KillNodeHandler,Global State,The tool detected the smell in this class because the class can be accessed as a `global` state.
oozie,org.apache.oozie.workflow.lite,ActionNodeHandler,Global State,The tool detected the smell in this class because the class declares global variables. The detected global variables are: OK; ERROR
oozie,org.apache.oozie.workflow.lite,ControlNodeHandler,Global State,The tool detected the smell in this class because the class declares global variables. The detected global variables are: FORK_COUNT_PREFIX
oozie,org.apache.oozie.workflow.lite,JoinNodeDef.JoinNodeHandler,Global State,The tool detected the smell in this class because the class can be accessed as a `global` state.
oozie,org.apache.oozie.workflow.lite,LiteWorkflowInstance,Excessive Dependency,The tool detected the smell in this class because the class depends on too many dependencies. The total number of dependencies is: 11
oozie,org.apache.oozie.workflow.lite,StartNodeDef,Global State,The tool detected the smell in this class because the class declares global variables. The detected global variables are: START
oozie,org.apache.oozie.workflow.lite,StartNodeDef.StartNodeHandler,Global State,The tool detected the smell in this class because the class can be accessed as a `global` state.
oozie,org.apache.oozie.workflow.lite,EndNodeDef.EndNodeHandler,Global State,The tool detected the smell in this class because the class can be accessed as a `global` state.
oozie,org.apache.oozie.workflow.lite,LiteWorkflowAppParser,Global State,The tool detected the smell in this class because the class declares global variables. The detected global variables are: VALIDATE_FORK_JOIN; WF_VALIDATE_FORK_JOIN
oozie,org.apache.oozie.workflow.lite,LiteWorkflowAppParser,Excessive Dependency,The tool detected the smell in this class because the class depends on too many dependencies. The total number of dependencies is: 11
oozie,org.apache.oozie.workflow.lite,ForkNodeDef.ForkNodeHandler,Global State,The tool detected the smell in this class because the class can be accessed as a `global` state.
oozie,org.apache.oozie.coord,TestCoordELFunctions,Excessive Dependency,The tool detected the smell in this class because the class depends on too many dependencies. The total number of dependencies is: 9
oozie,org.apache.oozie.coord,TestCoordELEvaluator,Excessive Dependency,The tool detected the smell in this class because the class depends on too many dependencies. The total number of dependencies is: 8
oozie,org.apache.oozie.coord,CoordELConstants,Global State,The tool detected the smell in this class because the class declares global variables. The detected global variables are: SUBMIT_MINUTE; SUBMIT_HOUR; SUBMIT_MONTH; SUBMIT_DAY; SUBMIT_YEAR; SUBMIT_MINUTES; SUBMIT_HOURS; SUBMIT_DAYS; DEFAULT_DONE_FLAG
oozie,org.apache.oozie.coord,CoordELEvaluator,Global State,The tool detected the smell in this class because the class declares global variables. The detected global variables are: MINUTE; HOUR
oozie,org.apache.oozie.coord,CoordELEvaluator,Excessive Dependency,The tool detected the smell in this class because the class depends on too many dependencies. The total number of dependencies is: 10
oozie,org.apache.oozie.coord,CoordUtils,Global State,The tool detected the smell in this class because the class declares global variables. The detected global variables are: HADOOP_USER
oozie,org.apache.oozie.coord,CoordUtils,Excessive Dependency,The tool detected the smell in this class because the class depends on too many dependencies. The total number of dependencies is: 9
oozie,org.apache.oozie.coord,CoordELFunctions,Global State,The tool detected the smell in this class because the class declares global variables. The detected global variables are: CONFIGURATION; LATEST_EL_USE_CURRENT_TIME; INSTANCE_SEPARATOR; DIR_SEPARATOR
oozie,org.apache.oozie.coord,CoordELFunctions,Excessive Dependency,The tool detected the smell in this class because the class depends on too many dependencies. The total number of dependencies is: 10
oozie,org.apache.oozie.client,HeaderTestingVersionServlet,Global State,The tool detected the smell in this class because the class declares global variables. The detected global variables are: OOZIE_HEADERS
oozie,org.apache.oozie.client,TestOozieCLI,Excessive Dependency,The tool detected the smell in this class because the class depends on too many dependencies. The total number of dependencies is: 8
oozie,org.apache.oozie.client,XOozieClient,Global State,The tool detected the smell in this class because the class declares global variables. The detected global variables are: JT; JT_2; NN; NN_2; JT_PRINCIPAL; NN_PRINCIPAL; PIG_SCRIPT; PIG_OPTIONS; FILES; ARCHIVES; IS_PROXY_SUBMISSION
oozie,org.apache.oozie.client,WorkflowJob.Status,Global State,The tool detected the smell in this class because the class can be accessed as a `global` state.
oozie,org.apache.oozie.client,AuthOozieClient,Global State,The tool detected the smell in this class because the class declares global variables. The detected global variables are: AUTHENTICATOR_CLASS_SYS_PROP; USE_AUTH_TOKEN_CACHE_SYS_PROP; AUTH_TOKEN_CACHE_FILE
oozie,org.apache.oozie.client,AuthOozieClient.AuthType,Global State,The tool detected the smell in this class because the class can be accessed as a `global` state.
oozie,org.apache.oozie.client,OozieClientException,Global State,The tool detected the smell in this class because the class declares global variables. The detected global variables are: UNSUPPORTED_VERSION; IO_ERROR; INVALID_FILTER; INVALID_INPUT; OTHER; AUTHENTICATION
oozie,org.apache.oozie.client,BundleJob.Timeunit,Global State,The tool detected the smell in this class because the class can be accessed as a `global` state.
oozie,org.apache.oozie.client,CoordinatorJob.Execution,Global State,The tool detected the smell in this class because the class can be accessed as a `global` state.
oozie,org.apache.oozie.client,CoordinatorJob.Timeunit,Global State,The tool detected the smell in this class because the class can be accessed as a `global` state.
oozie,org.apache.oozie.client,WorkflowAction.Status,Global State,The tool detected the smell in this class because the class can be accessed as a `global` state.
oozie,org.apache.oozie.client,Job.Status,Global State,The tool detected the smell in this class because the class can be accessed as a `global` state.
oozie,org.apache.oozie.client,SLAEvent.Status,Global State,The tool detected the smell in this class because the class can be accessed as a `global` state.
oozie,org.apache.oozie.client,SLAEvent.SlaAppType,Global State,The tool detected the smell in this class because the class can be accessed as a `global` state.
oozie,org.apache.oozie.client,OozieClient,Global State,The tool detected the smell in this class because the class declares global variables. The detected global variables are: WS_PROTOCOL_VERSION_0; WS_PROTOCOL_VERSION; USER_NAME; GROUP_NAME; JOB_ACL; APP_PATH; COORDINATOR_APP_PATH; BUNDLE_APP_PATH; BUNDLE_ID; EXTERNAL_ID; WORKFLOW_NOTIFICATION_URL; ACTION_NOTIFICATION_URL; COORD_ACTION_NOTIFICATION_URL; RERUN_SKIP_NODES; RERUN_FAIL_NODES; LOG_TOKEN; ACTION_MAX_RETRIES; ACTION_RETRY_INTERVAL; FILTER_USER; FILTER_GROUP; FILTER_NAME; FILTER_STATUS; FILTER_FREQUENCY; FILTER_ID; FILTER_UNIT; FILTER_JOBID; FILTER_APPNAME; CHANGE_VALUE_ENDTIME; CHANGE_VALUE_PAUSETIME; CHANGE_VALUE_CONCURRENCY; LIBPATH; USE_SYSTEM_LIBPATH
oozie,org.apache.oozie.client,OozieClient,Excessive Dependency,The tool detected the smell in this class because the class depends on too many dependencies. The total number of dependencies is: 9
oozie,org.apache.oozie.client,OozieClient.SYSTEM_MODE,Global State,The tool detected the smell in this class because the class can be accessed as a `global` state.
oozie,org.apache.oozie.client,CoordinatorAction.Status,Global State,The tool detected the smell in this class because the class can be accessed as a `global` state.
oozie,org.apache.oozie.client.rest,BulkResponseImpl,Global State,The tool detected the smell in this class because the class declares global variables. The detected global variables are: BULK_FILTER_BUNDLE_NAME; BULK_FILTER_COORD_NAME; BULK_FILTER_LEVEL; BULK_FILTER_STATUS; BULK_FILTER_START_CREATED_EPOCH; BULK_FILTER_END_CREATED_EPOCH; BULK_FILTER_START_NOMINAL_EPOCH; BULK_FILTER_END_NOMINAL_EPOCH; BULK_DATE_FORMAT; BULK_FILTER_NAMES
oozie,org.apache.oozie.client.rest,JsonTags,Global State,The tool detected the smell in this class because the class declares global variables. The detected global variables are: OOZIE_SAFE_MODE; OOZIE_SYSTEM_MODE; BUILD_VERSION; QUEUE_DUMP; CALLABLE_DUMP; UNIQUE_MAP_DUMP; UNIQUE_ENTRY_DUMP; JOB_ID; WORKFLOW_APP_PATH; WORKFLOW_APP_NAME; WORKFLOW_ID; WORKFLOW_EXTERNAL_ID; WORKFLOW_PARENT_ID; WORKFLOW_CONF; WORKFLOW_STATUS; WORKFLOW_LAST_MOD_TIME; WORKFLOW_CREATED_TIME; WORKFLOW_START_TIME; WORKFLOW_END_TIME; WORKFLOW_USER; WORKFLOW_GROUP; WORKFLOW_ACL; WORKFLOW_RUN; WORKFLOW_CONSOLE_URL; WORKFLOW_ACTIONS; WORKFLOWS_JOBS; WORKFLOWS_TOTAL; WORKFLOWS_OFFSET; WORKFLOWS_LEN; WORKFLOW_ACTION_ID; WORKFLOW_ACTION_NAME; WORKFLOW_ACTION_AUTH; WORKFLOW_ACTION_TYPE; WORKFLOW_ACTION_CONF; WORKFLOW_ACTION_RETRIES; WORKFLOW_ACTION_START_TIME; WORKFLOW_ACTION_END_TIME; WORKFLOW_ACTION_STATUS; WORKFLOW_ACTION_TRANSITION; WORKFLOW_ACTION_DATA; WORKFLOW_ACTION_STATS; WORKFLOW_ACTION_EXTERNAL_CHILD_IDS; WORKFLOW_ACTION_EXTERNAL_ID; WORKFLOW_ACTION_EXTERNAL_STATUS; WORKFLOW_ACTION_TRACKER_URI; WORKFLOW_ACTION_CONSOLE_URL; WORKFLOW_ACTION_ERROR_CODE; WORKFLOW_ACTION_ERROR_MESSAGE; COORDINATOR_JOB_ID; COORDINATOR_JOB_NAME; COORDINATOR_JOB_PATH; COORDINATOR_JOB_FREQUENCY; COORDINATOR_JOB_TIMEUNIT; COORDINATOR_JOB_TIMEZONE; COORDINATOR_JOB_CONCURRENCY; COORDINATOR_JOB_MAT_THROTTLING; COORDINATOR_JOB_EXECUTION; COORDINATOR_JOB_TIMEOUT; COORDINATOR_JOB_LAST_ACTION_TIME; COORDINATOR_JOB_NEXT_MATERIALIZED_TIME; COORDINATOR_JOB_CONF; COORDINATOR_JOB_STATUS; COORDINATOR_JOB_EXECUTIONPOLICY; COORDINATOR_JOB_START_TIME; COORDINATOR_JOB_END_TIME; COORDINATOR_JOB_PAUSE_TIME; COORDINATOR_JOB_CONSOLE_URL; COORDINATOR_JOB_ACTIONS; COORDINATOR_JOB_USER; COORDINATOR_JOB_GROUP; COORDINATOR_JOB_ACL; COORDINATOR_JOB_EXTERNAL_ID; COORDINATOR_ACTION_ID; COORDINATOR_ACTION_NAME; COORDINATOR_ACTION_TYPE; COORDINATOR_ACTION_CREATED_CONF; COORDINATOR_ACTION_RUNTIME_CONF; COORDINATOR_ACTION_NUMBER; COORDINATOR_ACTION_CREATED_TIME; COORDINATOR_ACTION_EXTERNALID; COORDINATOR_ACTION_LAST_MODIFIED_TIME; COORDINATOR_ACTION_NOMINAL_TIME; COORDINATOR_ACTION_STATUS; COORDINATOR_ACTION_MISSING_DEPS; COORDINATOR_ACTION_EXTERNAL_STATUS; COORDINATOR_ACTION_TRACKER_URI; COORDINATOR_ACTION_CONSOLE_URL; COORDINATOR_ACTION_ERROR_CODE; COORDINATOR_ACTION_ERROR_MESSAGE; COORDINATOR_ACTIONS; COORDINATOR_ACTION_DATA; COORDINATOR_JOB_DATA; BUNDLE_JOB_ID; BUNDLE_JOB_NAME; BUNDLE_JOB_PATH; BUNDLE_JOB_TIMEUNIT; BUNDLE_JOB_TIMEOUT; BUNDLE_JOB_CONF; BUNDLE_JOB_STATUS; BUNDLE_JOB_KICKOFF_TIME; BUNDLE_JOB_START_TIME; BUNDLE_JOB_END_TIME; BUNDLE_JOB_PAUSE_TIME; BUNDLE_JOB_CREATED_TIME; BUNDLE_JOB_CONSOLE_URL; BUNDLE_JOB_USER; BUNDLE_JOB_GROUP; BUNDLE_JOB_ACL; BUNDLE_JOB_EXTERNAL_ID; BUNDLE_COORDINATOR_JOBS; TO_STRING; ERROR; ERROR_CODE; ERROR_MESSAGE; INSTR_TIMERS; INSTR_VARIABLES; INSTR_SAMPLERS; INSTR_COUNTERS; INSTR_DATA; INSTR_GROUP; INSTR_NAME; INSTR_TIMER_OWN_TIME_AVG; INSTR_TIMER_TOTAL_TIME_AVG; INSTR_TIMER_TICKS; INSTR_TIMER_OWN_STD_DEV; INSTR_TIMER_TOTAL_STD_DEV; INSTR_TIMER_OWN_MIN_TIME; INSTR_TIMER_OWN_MAX_TIME; INSTR_TIMER_TOTAL_MIN_TIME; INSTR_TIMER_TOTAL_MAX_TIME; INSTR_VARIABLE_VALUE; INSTR_SAMPLER_VALUE; COORDINATOR_JOBS; COORD_JOB_TOTAL; COORD_JOB_OFFSET; COORD_JOB_LEN; BUNDLE_JOBS; BUNDLE_JOB_TOTAL; BUNDLE_JOB_OFFSET; BUNDLE_JOB_LEN; BULK_RESPONSE_BUNDLE; BULK_RESPONSE_COORDINATOR; BULK_RESPONSE_ACTION; BULK_RESPONSES; BULK_RESPONSE_TOTAL; BULK_RESPONSE_OFFSET; BULK_RESPONSE_LEN; AVAILABLE_TIME_ZONES; TIME_ZOME_DISPLAY_NAME; TIME_ZONE_ID
oozie,org.apache.oozie.client.rest,RestConstants,Global State,The tool detected the smell in this class because the class declares global variables. The detected global variables are: VERSIONS; JOB; JOBS; ADMIN; JSON_CONTENT_TYPE; XML_CONTENT_TYPE; FORM_CONTENT_TYPE; TEXT_CONTENT_TYPE; PNG_IMAGE_CONTENT_TYPE; ACTION_PARAM; OFFSET_PARAM; LEN_PARAM; JOB_FILTER_PARAM; JOB_RESOURCE; JOB_ACTION_START; JOB_ACTION_DRYRUN; JOB_ACTION_SUSPEND; JOB_ACTION_RESUME; JOB_ACTION_KILL; JOB_ACTION_CHANGE; JOB_CHANGE_VALUE; JOB_ACTION_RERUN; JOB_COORD_ACTION_RERUN; JOB_BUNDLE_ACTION_RERUN; JOB_SHOW_PARAM; JOB_SHOW_CONFIG; JOB_SHOW_INFO; JOB_SHOW_LOG; JOB_SHOW_DEFINITION; JOB_SHOW_GRAPH; JOB_SHOW_KILL_PARAM; JOB_BUNDLE_RERUN_COORD_SCOPE_PARAM; JOB_BUNDLE_RERUN_DATE_SCOPE_PARAM; JOB_COORD_RERUN_TYPE_PARAM; JOB_COORD_RERUN_DATE; JOB_COORD_RERUN_ACTION; JOB_COORD_RERUN_SCOPE_PARAM; JOB_COORD_RERUN_REFRESH_PARAM; JOB_COORD_RERUN_NOCLEANUP_PARAM; JOB_LOG_ACTION; JOB_LOG_DATE; JOB_LOG_SCOPE_PARAM; JOB_LOG_TYPE_PARAM; JOBS_FILTER_PARAM; JOBS_BULK_PARAM; JOBS_EXTERNAL_ID_PARAM; ADMIN_STATUS_RESOURCE; ADMIN_SAFE_MODE_PARAM; ADMIN_SYSTEM_MODE_PARAM; ADMIN_LOG_RESOURCE; ADMIN_OS_ENV_RESOURCE; ADMIN_JAVA_SYS_PROPS_RESOURCE; ADMIN_CONFIG_RESOURCE; ADMIN_INSTRUMENTATION_RESOURCE; ADMIN_BUILD_VERSION_RESOURCE; ADMIN_QUEUE_DUMP_RESOURCE; OOZIE_ERROR_CODE; OOZIE_ERROR_MESSAGE; JOBTYPE_PARAM; SLA_GT_SEQUENCE_ID; MAX_EVENTS; SLA; DO_AS_PARAM; TIME_ZONE_PARAM; ADMIN_TIME_ZONES_RESOURCE
oozie,org.apache.oozie.util,TestXLog.TestLog,Global State,The tool detected the smell in this class because the class can be accessed as a `global` state.
oozie,org.apache.oozie.util,TestCoordActionsInDateRange,Excessive Dependency,The tool detected the smell in this class because the class depends on too many dependencies. The total number of dependencies is: 9
oozie,org.apache.oozie.util,TestPriorityDelayQueue.DPriorityDelayQueue,Global State,The tool detected the smell in this class because the class can be accessed as a `global` state.
oozie,org.apache.oozie.util,XLog,Global State,The tool detected the smell in this class because the class declares global variables. The detected global variables are: STD; OPS
oozie,org.apache.oozie.util,XLog.Info,Global State,The tool detected the smell in this class because the class can be accessed as a `global` state.
oozie,org.apache.oozie.util,LogUtils,Excessive Dependency,The tool detected the smell in this class because the class depends on too many dependencies. The total number of dependencies is: 8
oozie,org.apache.oozie.util,ELEvaluator.Context,Global State,The tool detected the smell in this class because the class can be accessed as a `global` state.
oozie,org.apache.oozie.util,XmlUtils,Global State,The tool detected the smell in this class because the class declares global variables. The detected global variables are: SLA_NAME_SPACE_URI
oozie,org.apache.oozie.util,XmlUtils.PrettyPrint,Global State,The tool detected the smell in this class because the class can be accessed as a `global` state.
oozie,org.apache.oozie.util,ELConstantsFunctions,Global State,The tool detected the smell in this class because the class declares global variables. The detected global variables are: KB; MB; GB; TB; PB; SUBMIT_MINUTES; SUBMIT_HOURS; SUBMIT_DAYS
oozie,org.apache.oozie.util,PriorityDelayQueue,Global State,The tool detected the smell in this class because the class declares global variables. The detected global variables are: ANTI_STARVATION_INTERVAL
oozie,org.apache.oozie.util,PriorityDelayQueue.QueueElement,Global State,The tool detected the smell in this class because the class can be accessed as a `global` state.
oozie,org.apache.oozie.util,XLogStreamer,Global State,The tool detected the smell in this class because the class declares global variables. The detected global variables are: ALLOW_ALL_REGEX; gzTimePattern
oozie,org.apache.oozie.util,XLogStreamer.Filter,Global State,The tool detected the smell in this class because the class can be accessed as a `global` state.
oozie,org.apache.oozie.util,XLogStreamer.Filter,Global State,The tool detected the smell in this class because the class declares global variables. The detected global variables are: ALLOW_ALL_REGEX
oozie,org.apache.oozie.util,PropertiesUtils,Global State,The tool detected the smell in this class because the class declares global variables. The detected global variables are: HADOOP_USER; YEAR; MONTH; DAY; HOUR; MINUTE; DAYS; HOURS; MINUTES; KB; MB; GB; TB; PB; RECORDS; MAP_IN; MAP_OUT; REDUCE_IN; REDUCE_OUT; GROUPS
oozie,org.apache.oozie.util,DateUtils,Global State,The tool detected the smell in this class because the class declares global variables. The detected global variables are: UTC; ISO8601_UTC_MASK; OOZIE_PROCESSING_TIMEZONE_KEY; OOZIE_PROCESSING_TIMEZONE_DEFAULT
oozie,org.apache.oozie.util,Instrumentation.Cron,Global State,The tool detected the smell in this class because the class can be accessed as a `global` state.
oozie,org.apache.oozie.util,Instrumentation.Timer,Global State,The tool detected the smell in this class because the class can be accessed as a `global` state.
oozie,org.apache.oozie.util.db,TestSchema,Global State,The tool detected the smell in this class because the class declares global variables. The detected global variables are: TABLE_COLUMNS
oozie,org.apache.oozie.util.db,TestSchema.TestTable,Global State,The tool detected the smell in this class because the class can be accessed as a `global` state.
oozie,org.apache.oozie.util.db,TestSchema.TestColumns,Global State,The tool detected the smell in this class because the class can be accessed as a `global` state.
oozie,org.apache.oozie.util.db,TestSchema.TestIndex,Global State,The tool detected the smell in this class because the class can be accessed as a `global` state.
oozie,org.apache.oozie.util.db,SLADbOperations,Global State,The tool detected the smell in this class because the class declares global variables. The detected global variables are: CLIENT_ID_TAG
oozie,org.apache.oozie.util.db,SLADbXOperations,Global State,The tool detected the smell in this class because the class declares global variables. The detected global variables are: CLIENT_ID_TAG
oozie,org.apache.oozie.util.db,InstrumentedBasicDataSource,Global State,The tool detected the smell in this class because the class declares global variables. The detected global variables are: INSTR_GROUP; INSTR_NAME
oozie,org.apache.oozie.util.db,Schema.Table,Global State,The tool detected the smell in this class because the class can be accessed as a `global` state.
oozie,org.apache.oozie.util.db,Schema.Column,Global State,The tool detected the smell in this class because the class can be accessed as a `global` state.
oozie,org.apache.oozie.util.db,Schema.Index,Global State,The tool detected the smell in this class because the class can be accessed as a `global` state.
oozie,org.apache.oozie.util.db,Schema.DBType,Global State,The tool detected the smell in this class because the class can be accessed as a `global` state.
oozie,org.apache.oozie.util.db,SqlStatement,Law of Demeter violation,The tool detected the smell in this method (prepareForBatch) because the method voilates the law of Demeter. The long chain of method invocations is : org.apache.oozie.util.db.SqlStatement.getNewStatementWithValues; org.apache.oozie.util.db.SqlStatement.prepare
oozie,org.apache.oozie.util.db,SqlStatement.ResultSetReader,Global State,The tool detected the smell in this class because the class can be accessed as a `global` state.
oozie,org.apache.oozie.util.db,SqlStatement.Condition,Global State,The tool detected the smell in this class because the class can be accessed as a `global` state.
oozie,org.apache.oozie.util.db,SqlStatement.Select,Global State,The tool detected the smell in this class because the class can be accessed as a `global` state.
oozie,org.apache.oozie.util.db,SqlStatement.Delete,Global State,The tool detected the smell in this class because the class can be accessed as a `global` state.
oozie,org.apache.oozie.util.db,SqlStatement.Update,Global State,The tool detected the smell in this class because the class can be accessed as a `global` state.
oozie,org.apache.oozie.util.db,SqlStatement.Insert,Global State,The tool detected the smell in this class because the class can be accessed as a `global` state.
oozie,org.apache.oozie.action.control,JoinActionExecutor,Global State,The tool detected the smell in this class because the class declares global variables. The detected global variables are: TYPE
oozie,org.apache.oozie.action.control,StartActionExecutor,Global State,The tool detected the smell in this class because the class declares global variables. The detected global variables are: TYPE
oozie,org.apache.oozie.action.control,EndActionExecutor,Global State,The tool detected the smell in this class because the class declares global variables. The detected global variables are: TYPE
oozie,org.apache.oozie.action.control,ForkActionExecutor,Global State,The tool detected the smell in this class because the class declares global variables. The detected global variables are: TYPE
oozie,org.apache.oozie.action.control,KillActionExecutor,Global State,The tool detected the smell in this class because the class declares global variables. The detected global variables are: TYPE
oozie,org.apache.oozie.workflow,WorkflowInstance,Global State,The tool detected the smell in this class because the class declares global variables. The detected global variables are: NODE_VAR_SEPARATOR
oozie,org.apache.oozie.workflow,WorkflowInstance.Status,Global State,The tool detected the smell in this class because the class can be accessed as a `global` state.
oozie,org.apache.oozie.local,LocalOozie,Excessive Dependency,The tool detected the smell in this class because the class depends on too many dependencies. The total number of dependencies is: 11
oozie,org.apache.oozie.cli,OozieCLI,Global State,The tool detected the smell in this class because the class declares global variables. The detected global variables are: ENV_OOZIE_URL; ENV_OOZIE_DEBUG; ENV_OOZIE_TIME_ZONE; WS_HEADER_PREFIX; HELP_CMD; VERSION_CMD; JOB_CMD; JOBS_CMD; ADMIN_CMD; VALIDATE_CMD; SLA_CMD; PIG_CMD; MR_CMD; INFO_CMD; OOZIE_OPTION; CONFIG_OPTION; SUBMIT_OPTION; OFFSET_OPTION; START_OPTION; RUN_OPTION; DRYRUN_OPTION; SUSPEND_OPTION; RESUME_OPTION; KILL_OPTION; CHANGE_OPTION; CHANGE_VALUE_OPTION; RERUN_OPTION; INFO_OPTION; LOG_OPTION; ACTION_OPTION; DEFINITION_OPTION; CONFIG_CONTENT_OPTION; DO_AS_OPTION; LEN_OPTION; FILTER_OPTION; JOBTYPE_OPTION; SYSTEM_MODE_OPTION; VERSION_OPTION; STATUS_OPTION; LOCAL_TIME_OPTION; TIME_ZONE_OPTION; QUEUE_DUMP_OPTION; RERUN_COORD_OPTION; DATE_OPTION; RERUN_REFRESH_OPTION; RERUN_NOCLEANUP_OPTION; AUTH_OPTION; VERBOSE_OPTION; VERBOSE_DELIMITER; DEBUG_OPTION; PIGFILE_OPTION; INFO_TIME_ZONES_OPTION; BULK_OPTION
oozie,org.apache.oozie.cli,OozieCLI,Excessive Dependency,The tool detected the smell in this class because the class depends on too many dependencies. The total number of dependencies is: 12
